Succ number Information
file:mc.c...func:run_mc...line:84
1
Parent Graph Information
file:mc.c...func:run_mc...line:88
{"id":1,"name":"","atoms":[],"membranes":[]}
Child Graph Information
file:mc.c...func:run_mc...line:102
{"id":1,"name":"","atoms":[],"membranes":[{"id":2,"name":"","atoms":[{"id":3,"name":"empty","links":[{"attr":0,"data":4}]},{"id":5,"name":"empty","links":[{"attr":0,"data":6}]},{"id":4,"name":"ch_m","links":[{"attr":0,"data":3}]},{"id":6,"name":"ch_w","links":[{"attr":0,"data":5}]},{"id":7,"name":"m","links":[]},{"id":8,"name":"w","links":[]}],"membranes":[]}]}
Parent State ID Information
file:mc.c...func:run_mc...line:106
0
Child State ID Information
file:mc.c...func:run_mc...line:109
1
Succ number Information
file:mc.c...func:mc_gen_successors...line:494
2
Parent Graph Information
file:mc.c...func:mc_gen_successors...line:498
{"id":9,"name":"","atoms":[],"membranes":[{"id":10,"name":"","atoms":[{"id":11,"name":"empty","links":[{"attr":0,"data":14}]},{"id":12,"name":"empty","links":[{"attr":0,"data":13}]},{"id":13,"name":"ch_m","links":[{"attr":0,"data":12}]},{"id":14,"name":"ch_w","links":[{"attr":0,"data":11}]},{"id":15,"name":"m","links":[]},{"id":16,"name":"w","links":[]}],"membranes":[]}]}
Child Graph Information
file:mc.c...func:mc_gen_successors...line:513
{"id":9,"name":"","atoms":[],"membranes":[{"id":10,"name":"","atoms":[{"id":11,"name":"empty","links":[{"attr":0,"data":14}]},{"id":12,"name":"empty","links":[{"attr":0,"data":13}]},{"id":13,"name":"ch_m","links":[{"attr":0,"data":12}]},{"id":14,"name":"ch_w","links":[{"attr":0,"data":11}]},{"id":16,"name":"w","links":[]},{"id":17,"name":"s1","links":[{"attr":0,"data":18}]},{"id":18,"name":"m","links":[{"attr":0,"data":17}]}],"membranes":[]}]}
Child Graph Information
file:mc.c...func:mc_gen_successors...line:513
{"id":9,"name":"","atoms":[],"membranes":[{"id":10,"name":"","atoms":[{"id":11,"name":"empty","links":[{"attr":0,"data":14}]},{"id":12,"name":"empty","links":[{"attr":0,"data":13}]},{"id":13,"name":"ch_m","links":[{"attr":0,"data":12}]},{"id":14,"name":"ch_w","links":[{"attr":0,"data":11}]},{"id":15,"name":"m","links":[]},{"id":17,"name":"s1","links":[{"attr":0,"data":18}]},{"id":18,"name":"w","links":[{"attr":0,"data":17}]}],"membranes":[]}]}
Parent State ID Information
file:mc.c...func:mc_gen_successors...line:550
1
Child State ID Information
file:mc.c...func:mc_store_successors...line:415
2
Child State ID Information
file:mc.c...func:mc_store_successors...line:415
3
Succ number Information
file:mc.c...func:mc_gen_successors...line:494
1
Parent Graph Information
file:mc.c...func:mc_gen_successors...line:498
{"id":10,"name":"","atoms":[],"membranes":[{"id":11,"name":"","atoms":[{"id":12,"name":"empty","links":[{"attr":0,"data":15}]},{"id":13,"name":"empty","links":[{"attr":0,"data":14}]},{"id":14,"name":"ch_m","links":[{"attr":0,"data":13}]},{"id":15,"name":"ch_w","links":[{"attr":0,"data":12}]},{"id":16,"name":"m","links":[]},{"id":17,"name":"s1","links":[{"attr":0,"data":18}]},{"id":18,"name":"w","links":[{"attr":0,"data":17}]}],"membranes":[]}]}
Child Graph Information
file:mc.c...func:mc_gen_successors...line:513
{"id":10,"name":"","atoms":[],"membranes":[{"id":11,"name":"","atoms":[{"id":12,"name":"empty","links":[{"attr":0,"data":15}]},{"id":13,"name":"empty","links":[{"attr":0,"data":14}]},{"id":14,"name":"ch_m","links":[{"attr":0,"data":13}]},{"id":15,"name":"ch_w","links":[{"attr":0,"data":12}]},{"id":17,"name":"s1","links":[{"attr":0,"data":18}]},{"id":19,"name":"s1","links":[{"attr":0,"data":20}]},{"id":20,"name":"m","links":[{"attr":0,"data":19}]},{"id":18,"name":"w","links":[{"attr":0,"data":17}]}],"membranes":[]}]}
Parent State ID Information
file:mc.c...func:mc_gen_successors...line:550
3
Child State ID Information
file:mc.c...func:mc_store_successors...line:415
4
Succ number Information
file:mc.c...func:mc_gen_successors...line:494
1
Parent Graph Information
file:mc.c...func:mc_gen_successors...line:498
{"id":11,"name":"","atoms":[],"membranes":[{"id":12,"name":"","atoms":[{"id":13,"name":"empty","links":[{"attr":0,"data":16}]},{"id":14,"name":"empty","links":[{"attr":0,"data":15}]},{"id":15,"name":"ch_m","links":[{"attr":0,"data":14}]},{"id":16,"name":"ch_w","links":[{"attr":0,"data":13}]},{"id":17,"name":"s1","links":[{"attr":0,"data":20}]},{"id":18,"name":"s1","links":[{"attr":0,"data":19}]},{"id":19,"name":"m","links":[{"attr":0,"data":18}]},{"id":20,"name":"w","links":[{"attr":0,"data":17}]}],"membranes":[]}]}
Child Graph Information
file:mc.c...func:mc_gen_successors...line:513
{"id":11,"name":"","atoms":[],"membranes":[{"id":12,"name":"","atoms":[{"id":14,"name":"empty","links":[{"attr":0,"data":15}]},{"id":15,"name":"ch_m","links":[{"attr":0,"data":14}]},{"id":24,"name":"ch_w","links":[{"attr":0,"data":23}]},{"id":17,"name":"s1","links":[{"attr":0,"data":20}]},{"id":22,"name":"m","links":[{"attr":0,"data":21}]},{"id":21,"name":"s2","links":[{"attr":0,"data":22}]},{"id":23,"name":"ini","links":[{"attr":0,"data":24}]},{"id":20,"name":"w","links":[{"attr":0,"data":17}]}],"membranes":[]}]}
Parent State ID Information
file:mc.c...func:mc_gen_successors...line:550
4
Child State ID Information
file:mc.c...func:mc_store_successors...line:415
5
Succ number Information
file:mc.c...func:mc_gen_successors...line:494
1
Parent Graph Information
file:mc.c...func:mc_gen_successors...line:498
{"id":11,"name":"","atoms":[],"membranes":[{"id":12,"name":"","atoms":[{"id":13,"name":"empty","links":[{"attr":0,"data":14}]},{"id":14,"name":"ch_m","links":[{"attr":0,"data":13}]},{"id":15,"name":"ch_w","links":[{"attr":0,"data":19}]},{"id":16,"name":"s1","links":[{"attr":0,"data":20}]},{"id":17,"name":"m","links":[{"attr":0,"data":18}]},{"id":18,"name":"s2","links":[{"attr":0,"data":17}]},{"id":19,"name":"ini","links":[{"attr":0,"data":15}]},{"id":20,"name":"w","links":[{"attr":0,"data":16}]}],"membranes":[]}]}
Child Graph Information
file:mc.c...func:mc_gen_successors...line:513
{"id":11,"name":"","atoms":[],"membranes":[{"id":12,"name":"","atoms":[{"id":13,"name":"empty","links":[{"attr":0,"data":14}]},{"id":23,"name":"empty","links":[{"attr":0,"data":24}]},{"id":14,"name":"ch_m","links":[{"attr":0,"data":13}]},{"id":24,"name":"ch_w","links":[{"attr":0,"data":23}]},{"id":17,"name":"m","links":[{"attr":0,"data":18}]},{"id":18,"name":"s2","links":[{"attr":0,"data":17}]},{"id":21,"name":"s2","links":[{"attr":0,"data":22}]},{"id":22,"name":"w","links":[{"attr":0,"data":21}]}],"membranes":[]}]}
Parent State ID Information
file:mc.c...func:mc_gen_successors...line:550
5
Child State ID Information
file:mc.c...func:mc_store_successors...line:415
6
Succ number Information
file:mc.c...func:mc_gen_successors...line:494
1
Parent Graph Information
file:mc.c...func:mc_gen_successors...line:498
{"id":11,"name":"","atoms":[],"membranes":[{"id":12,"name":"","atoms":[{"id":13,"name":"empty","links":[{"attr":0,"data":16}]},{"id":14,"name":"empty","links":[{"attr":0,"data":15}]},{"id":15,"name":"ch_m","links":[{"attr":0,"data":14}]},{"id":16,"name":"ch_w","links":[{"attr":0,"data":13}]},{"id":17,"name":"m","links":[{"attr":0,"data":19}]},{"id":18,"name":"s2","links":[{"attr":0,"data":20}]},{"id":19,"name":"s2","links":[{"attr":0,"data":17}]},{"id":20,"name":"w","links":[{"attr":0,"data":18}]}],"membranes":[]}]}
Child Graph Information
file:mc.c...func:mc_gen_successors...line:513
{"id":11,"name":"","atoms":[],"membranes":[{"id":12,"name":"","atoms":[{"id":13,"name":"empty","links":[{"attr":0,"data":16}]},{"id":24,"name":"ch_m","links":[{"attr":0,"data":23}]},{"id":16,"name":"ch_w","links":[{"attr":0,"data":13}]},{"id":17,"name":"m","links":[{"attr":0,"data":19}]},{"id":19,"name":"s2","links":[{"attr":0,"data":17}]},{"id":23,"name":"ack","links":[{"attr":0,"data":24}]},{"id":21,"name":"s3","links":[{"attr":0,"data":22}]},{"id":22,"name":"w","links":[{"attr":0,"data":21}]}],"membranes":[]}]}
Parent State ID Information
file:mc.c...func:mc_gen_successors...line:550
6
Child State ID Information
file:mc.c...func:mc_store_successors...line:415
7
Succ number Information
file:mc.c...func:mc_gen_successors...line:494
1
Parent Graph Information
file:mc.c...func:mc_gen_successors...line:498
{"id":11,"name":"","atoms":[],"membranes":[{"id":12,"name":"","atoms":[{"id":13,"name":"empty","links":[{"attr":0,"data":15}]},{"id":14,"name":"ch_m","links":[{"attr":0,"data":18}]},{"id":15,"name":"ch_w","links":[{"attr":0,"data":13}]},{"id":16,"name":"m","links":[{"attr":0,"data":17}]},{"id":17,"name":"s2","links":[{"attr":0,"data":16}]},{"id":18,"name":"ack","links":[{"attr":0,"data":14}]},{"id":19,"name":"s3","links":[{"attr":0,"data":20}]},{"id":20,"name":"w","links":[{"attr":0,"data":19}]}],"membranes":[]}]}
Child Graph Information
file:mc.c...func:mc_gen_successors...line:513
{"id":11,"name":"","atoms":[],"membranes":[{"id":12,"name":"","atoms":[{"id":13,"name":"empty","links":[{"attr":0,"data":15}]},{"id":23,"name":"empty","links":[{"attr":0,"data":24}]},{"id":24,"name":"ch_m","links":[{"attr":0,"data":23}]},{"id":15,"name":"ch_w","links":[{"attr":0,"data":13}]},{"id":22,"name":"m","links":[{"attr":0,"data":21}]},{"id":19,"name":"s3","links":[{"attr":0,"data":20}]},{"id":21,"name":"s3","links":[{"attr":0,"data":22}]},{"id":20,"name":"w","links":[{"attr":0,"data":19}]}],"membranes":[]}]}
Parent State ID Information
file:mc.c...func:mc_gen_successors...line:550
7
Child State ID Information
file:mc.c...func:mc_store_successors...line:415
8
Succ number Information
file:mc.c...func:mc_gen_successors...line:494
1
Parent Graph Information
file:mc.c...func:mc_gen_successors...line:498
{"id":11,"name":"","atoms":[],"membranes":[{"id":12,"name":"","atoms":[{"id":13,"name":"empty","links":[{"attr":0,"data":16}]},{"id":14,"name":"empty","links":[{"attr":0,"data":15}]},{"id":15,"name":"ch_m","links":[{"attr":0,"data":14}]},{"id":16,"name":"ch_w","links":[{"attr":0,"data":13}]},{"id":17,"name":"m","links":[{"attr":0,"data":19}]},{"id":18,"name":"s3","links":[{"attr":0,"data":20}]},{"id":19,"name":"s3","links":[{"attr":0,"data":17}]},{"id":20,"name":"w","links":[{"attr":0,"data":18}]}],"membranes":[]}]}
Child Graph Information
file:mc.c...func:mc_gen_successors...line:513
{"id":11,"name":"","atoms":[],"membranes":[{"id":12,"name":"","atoms":[{"id":13,"name":"empty","links":[{"attr":0,"data":16}]},{"id":14,"name":"empty","links":[{"attr":0,"data":15}]},{"id":15,"name":"ch_m","links":[{"attr":0,"data":14}]},{"id":16,"name":"ch_w","links":[{"attr":0,"data":13}]},{"id":21,"name":"timeout","links":[]},{"id":17,"name":"m","links":[{"attr":0,"data":19}]},{"id":18,"name":"s3","links":[{"attr":0,"data":20}]},{"id":19,"name":"s3","links":[{"attr":0,"data":17}]},{"id":20,"name":"w","links":[{"attr":0,"data":18}]}],"membranes":[]}]}
Parent State ID Information
file:mc.c...func:mc_gen_successors...line:550
8
Child State ID Information
file:mc.c...func:mc_store_successors...line:415
9
Succ number Information
file:mc.c...func:mc_gen_successors...line:494
1
Parent Graph Information
file:mc.c...func:mc_gen_successors...line:498
{"id":12,"name":"","atoms":[],"membranes":[{"id":13,"name":"","atoms":[{"id":14,"name":"empty","links":[{"attr":0,"data":17}]},{"id":15,"name":"empty","links":[{"attr":0,"data":16}]},{"id":16,"name":"ch_m","links":[{"attr":0,"data":15}]},{"id":17,"name":"ch_w","links":[{"attr":0,"data":14}]},{"id":18,"name":"timeout","links":[]},{"id":19,"name":"m","links":[{"attr":0,"data":21}]},{"id":20,"name":"s3","links":[{"attr":0,"data":22}]},{"id":21,"name":"s3","links":[{"attr":0,"data":19}]},{"id":22,"name":"w","links":[{"attr":0,"data":20}]}],"membranes":[]}]}
Child Graph Information
file:mc.c...func:mc_gen_successors...line:513
{"id":12,"name":"","atoms":[],"membranes":[{"id":13,"name":"","atoms":[{"id":14,"name":"empty","links":[{"attr":0,"data":17}]},{"id":15,"name":"empty","links":[{"attr":0,"data":16}]},{"id":16,"name":"ch_m","links":[{"attr":0,"data":15}]},{"id":17,"name":"ch_w","links":[{"attr":0,"data":14}]},{"id":24,"name":"m","links":[{"attr":0,"data":23}]},{"id":20,"name":"s3","links":[{"attr":0,"data":22}]},{"id":23,"name":"s4","links":[{"attr":0,"data":24}]},{"id":22,"name":"w","links":[{"attr":0,"data":20}]}],"membranes":[]}]}
Parent State ID Information
file:mc.c...func:mc_gen_successors...line:550
9
Child State ID Information
file:mc.c...func:mc_store_successors...line:415
10
Succ number Information
file:mc.c...func:mc_gen_successors...line:494
2
Parent Graph Information
file:mc.c...func:mc_gen_successors...line:498
{"id":11,"name":"","atoms":[],"membranes":[{"id":12,"name":"","atoms":[{"id":13,"name":"empty","links":[{"attr":0,"data":16}]},{"id":14,"name":"empty","links":[{"attr":0,"data":15}]},{"id":15,"name":"ch_m","links":[{"attr":0,"data":14}]},{"id":16,"name":"ch_w","links":[{"attr":0,"data":13}]},{"id":17,"name":"m","links":[{"attr":0,"data":19}]},{"id":18,"name":"s3","links":[{"attr":0,"data":20}]},{"id":19,"name":"s4","links":[{"attr":0,"data":17}]},{"id":20,"name":"w","links":[{"attr":0,"data":18}]}],"membranes":[]}]}
Child Graph Information
file:mc.c...func:mc_gen_successors...line:513
{"id":11,"name":"","atoms":[],"membranes":[{"id":12,"name":"","atoms":[{"id":14,"name":"empty","links":[{"attr":0,"data":15}]},{"id":15,"name":"ch_m","links":[{"attr":0,"data":14}]},{"id":24,"name":"ch_w","links":[{"attr":0,"data":23}]},{"id":22,"name":"m","links":[{"attr":0,"data":21}]},{"id":18,"name":"s3","links":[{"attr":0,"data":20}]},{"id":21,"name":"se","links":[{"attr":0,"data":22}]},{"id":23,"name":"shutup","links":[{"attr":0,"data":24}]},{"id":20,"name":"w","links":[{"attr":0,"data":18}]}],"membranes":[]}]}
Child Graph Information
file:mc.c...func:mc_gen_successors...line:513
{"id":11,"name":"","atoms":[],"membranes":[{"id":12,"name":"","atoms":[{"id":14,"name":"empty","links":[{"attr":0,"data":15}]},{"id":15,"name":"ch_m","links":[{"attr":0,"data":14}]},{"id":24,"name":"ch_w","links":[{"attr":0,"data":23}]},{"id":22,"name":"m","links":[{"attr":0,"data":21}]},{"id":18,"name":"s3","links":[{"attr":0,"data":20}]},{"id":21,"name":"s7","links":[{"attr":0,"data":22}]},{"id":23,"name":"dreq","links":[{"attr":0,"data":24}]},{"id":20,"name":"w","links":[{"attr":0,"data":18}]}],"membranes":[]}]}
Parent State ID Information
file:mc.c...func:mc_gen_successors...line:550
10
Child State ID Information
file:mc.c...func:mc_store_successors...line:415
11
Child State ID Information
file:mc.c...func:mc_store_successors...line:415
12
Succ number Information
file:mc.c...func:mc_gen_successors...line:494
1
Parent Graph Information
file:mc.c...func:mc_gen_successors...line:498
{"id":11,"name":"","atoms":[],"membranes":[{"id":12,"name":"","atoms":[{"id":13,"name":"empty","links":[{"attr":0,"data":14}]},{"id":14,"name":"ch_m","links":[{"attr":0,"data":13}]},{"id":15,"name":"ch_w","links":[{"attr":0,"data":19}]},{"id":16,"name":"m","links":[{"attr":0,"data":18}]},{"id":17,"name":"s3","links":[{"attr":0,"data":20}]},{"id":18,"name":"s7","links":[{"attr":0,"data":16}]},{"id":19,"name":"dreq","links":[{"attr":0,"data":15}]},{"id":20,"name":"w","links":[{"attr":0,"data":17}]}],"membranes":[]}]}
Child Graph Information
file:mc.c...func:mc_gen_successors...line:513
{"id":11,"name":"","atoms":[],"membranes":[{"id":12,"name":"","atoms":[{"id":13,"name":"empty","links":[{"attr":0,"data":14}]},{"id":23,"name":"empty","links":[{"attr":0,"data":24}]},{"id":14,"name":"ch_m","links":[{"attr":0,"data":13}]},{"id":24,"name":"ch_w","links":[{"attr":0,"data":23}]},{"id":16,"name":"m","links":[{"attr":0,"data":18}]},{"id":18,"name":"s7","links":[{"attr":0,"data":16}]},{"id":22,"name":"w","links":[{"attr":0,"data":21}]},{"id":21,"name":"s5","links":[{"attr":0,"data":22}]}],"membranes":[]}]}
Parent State ID Information
file:mc.c...func:mc_gen_successors...line:550
12
Child State ID Information
file:mc.c...func:mc_store_successors...line:415
13
Succ number Information
file:mc.c...func:mc_gen_successors...line:494
1
Parent Graph Information
file:mc.c...func:mc_gen_successors...line:498
{"id":11,"name":"","atoms":[],"membranes":[{"id":12,"name":"","atoms":[{"id":13,"name":"empty","links":[{"attr":0,"data":16}]},{"id":14,"name":"empty","links":[{"attr":0,"data":15}]},{"id":15,"name":"ch_m","links":[{"attr":0,"data":14}]},{"id":16,"name":"ch_w","links":[{"attr":0,"data":13}]},{"id":17,"name":"m","links":[{"attr":0,"data":18}]},{"id":18,"name":"s7","links":[{"attr":0,"data":17}]},{"id":19,"name":"w","links":[{"attr":0,"data":20}]},{"id":20,"name":"s5","links":[{"attr":0,"data":19}]}],"membranes":[]}]}
Child Graph Information
file:mc.c...func:mc_gen_successors...line:513
{"id":11,"name":"","atoms":[],"membranes":[{"id":12,"name":"","atoms":[{"id":13,"name":"empty","links":[{"attr":0,"data":16}]},{"id":24,"name":"ch_m","links":[{"attr":0,"data":23}]},{"id":16,"name":"ch_w","links":[{"attr":0,"data":13}]},{"id":17,"name":"m","links":[{"attr":0,"data":18}]},{"id":21,"name":"s3","links":[{"attr":0,"data":22}]},{"id":18,"name":"s7","links":[{"attr":0,"data":17}]},{"id":23,"name":"data","links":[{"attr":0,"data":24}]},{"id":22,"name":"w","links":[{"attr":0,"data":21}]}],"membranes":[]}]}
Parent State ID Information
file:mc.c...func:mc_gen_successors...line:550
13
Child State ID Information
file:mc.c...func:mc_store_successors...line:415
14
Succ number Information
file:mc.c...func:mc_gen_successors...line:494
1
Parent Graph Information
file:mc.c...func:mc_gen_successors...line:498
{"id":11,"name":"","atoms":[],"membranes":[{"id":12,"name":"","atoms":[{"id":13,"name":"empty","links":[{"attr":0,"data":15}]},{"id":14,"name":"ch_m","links":[{"attr":0,"data":19}]},{"id":15,"name":"ch_w","links":[{"attr":0,"data":13}]},{"id":16,"name":"m","links":[{"attr":0,"data":18}]},{"id":17,"name":"s3","links":[{"attr":0,"data":20}]},{"id":18,"name":"s7","links":[{"attr":0,"data":16}]},{"id":19,"name":"data","links":[{"attr":0,"data":14}]},{"id":20,"name":"w","links":[{"attr":0,"data":17}]}],"membranes":[]}]}
Child Graph Information
file:mc.c...func:mc_gen_successors...line:513
{"id":11,"name":"","atoms":[],"membranes":[{"id":12,"name":"","atoms":[{"id":13,"name":"empty","links":[{"attr":0,"data":15}]},{"id":23,"name":"empty","links":[{"attr":0,"data":24}]},{"id":24,"name":"ch_m","links":[{"attr":0,"data":23}]},{"id":15,"name":"ch_w","links":[{"attr":0,"data":13}]},{"id":22,"name":"m","links":[{"attr":0,"data":21}]},{"id":17,"name":"s3","links":[{"attr":0,"data":20}]},{"id":21,"name":"s8","links":[{"attr":0,"data":22}]},{"id":20,"name":"w","links":[{"attr":0,"data":17}]}],"membranes":[]}]}
Parent State ID Information
file:mc.c...func:mc_gen_successors...line:550
14
Child State ID Information
file:mc.c...func:mc_store_successors...line:415
15
Succ number Information
file:mc.c...func:mc_gen_successors...line:494
2
Parent Graph Information
file:mc.c...func:mc_gen_successors...line:498
{"id":11,"name":"","atoms":[],"membranes":[{"id":12,"name":"","atoms":[{"id":13,"name":"empty","links":[{"attr":0,"data":16}]},{"id":14,"name":"empty","links":[{"attr":0,"data":15}]},{"id":15,"name":"ch_m","links":[{"attr":0,"data":14}]},{"id":16,"name":"ch_w","links":[{"attr":0,"data":13}]},{"id":17,"name":"m","links":[{"attr":0,"data":19}]},{"id":18,"name":"s3","links":[{"attr":0,"data":20}]},{"id":19,"name":"s8","links":[{"attr":0,"data":17}]},{"id":20,"name":"w","links":[{"attr":0,"data":18}]}],"membranes":[]}]}
Child Graph Information
file:mc.c...func:mc_gen_successors...line:513
{"id":11,"name":"","atoms":[],"membranes":[{"id":12,"name":"","atoms":[{"id":14,"name":"empty","links":[{"attr":0,"data":15}]},{"id":15,"name":"ch_m","links":[{"attr":0,"data":14}]},{"id":24,"name":"ch_w","links":[{"attr":0,"data":23}]},{"id":22,"name":"m","links":[{"attr":0,"data":21}]},{"id":18,"name":"s3","links":[{"attr":0,"data":20}]},{"id":23,"name":"data","links":[{"attr":0,"data":24}]},{"id":21,"name":"s8","links":[{"attr":0,"data":22}]},{"id":20,"name":"w","links":[{"attr":0,"data":18}]}],"membranes":[]}]}
Child Graph Information
file:mc.c...func:mc_gen_successors...line:513
{"id":11,"name":"","atoms":[],"membranes":[{"id":12,"name":"","atoms":[{"id":14,"name":"empty","links":[{"attr":0,"data":15}]},{"id":15,"name":"ch_m","links":[{"attr":0,"data":14}]},{"id":24,"name":"ch_w","links":[{"attr":0,"data":23}]},{"id":22,"name":"m","links":[{"attr":0,"data":21}]},{"id":18,"name":"s3","links":[{"attr":0,"data":20}]},{"id":21,"name":"se","links":[{"attr":0,"data":22}]},{"id":23,"name":"shutup","links":[{"attr":0,"data":24}]},{"id":20,"name":"w","links":[{"attr":0,"data":18}]}],"membranes":[]}]}
Parent State ID Information
file:mc.c...func:mc_gen_successors...line:550
15
Child State ID Information
file:mc.c...func:mc_store_successors...line:415
16
Child State ID Information
file:mc.c...func:mc_store_successors...line:415
11
Succ number Information
file:mc.c...func:mc_gen_successors...line:494
1
Parent Graph Information
file:mc.c...func:mc_gen_successors...line:498
{"id":11,"name":"","atoms":[],"membranes":[{"id":12,"name":"","atoms":[{"id":13,"name":"empty","links":[{"attr":0,"data":14}]},{"id":14,"name":"ch_m","links":[{"attr":0,"data":13}]},{"id":15,"name":"ch_w","links":[{"attr":0,"data":19}]},{"id":16,"name":"m","links":[{"attr":0,"data":18}]},{"id":17,"name":"s3","links":[{"attr":0,"data":20}]},{"id":18,"name":"se","links":[{"attr":0,"data":16}]},{"id":19,"name":"shutup","links":[{"attr":0,"data":15}]},{"id":20,"name":"w","links":[{"attr":0,"data":17}]}],"membranes":[]}]}
Child Graph Information
file:mc.c...func:mc_gen_successors...line:513
{"id":11,"name":"","atoms":[],"membranes":[{"id":12,"name":"","atoms":[{"id":13,"name":"empty","links":[{"attr":0,"data":14}]},{"id":23,"name":"empty","links":[{"attr":0,"data":24}]},{"id":14,"name":"ch_m","links":[{"attr":0,"data":13}]},{"id":24,"name":"ch_w","links":[{"attr":0,"data":23}]},{"id":16,"name":"m","links":[{"attr":0,"data":18}]},{"id":18,"name":"se","links":[{"attr":0,"data":16}]},{"id":22,"name":"w","links":[{"attr":0,"data":21}]},{"id":21,"name":"s9","links":[{"attr":0,"data":22}]}],"membranes":[]}]}
Parent State ID Information
file:mc.c...func:mc_gen_successors...line:550
11
Child State ID Information
file:mc.c...func:mc_store_successors...line:415
17
Succ number Information
file:mc.c...func:mc_gen_successors...line:494
1
Parent Graph Information
file:mc.c...func:mc_gen_successors...line:498
{"id":11,"name":"","atoms":[],"membranes":[{"id":12,"name":"","atoms":[{"id":13,"name":"empty","links":[{"attr":0,"data":16}]},{"id":14,"name":"empty","links":[{"attr":0,"data":15}]},{"id":15,"name":"ch_m","links":[{"attr":0,"data":14}]},{"id":16,"name":"ch_w","links":[{"attr":0,"data":13}]},{"id":17,"name":"m","links":[{"attr":0,"data":18}]},{"id":18,"name":"se","links":[{"attr":0,"data":17}]},{"id":19,"name":"w","links":[{"attr":0,"data":20}]},{"id":20,"name":"s9","links":[{"attr":0,"data":19}]}],"membranes":[]}]}
Child Graph Information
file:mc.c...func:mc_gen_successors...line:513
{"id":11,"name":"","atoms":[],"membranes":[{"id":12,"name":"","atoms":[{"id":13,"name":"empty","links":[{"attr":0,"data":16}]},{"id":24,"name":"ch_m","links":[{"attr":0,"data":23}]},{"id":16,"name":"ch_w","links":[{"attr":0,"data":13}]},{"id":17,"name":"m","links":[{"attr":0,"data":18}]},{"id":18,"name":"se","links":[{"attr":0,"data":17}]},{"id":23,"name":"shutup","links":[{"attr":0,"data":24}]},{"id":22,"name":"w","links":[{"attr":0,"data":21}]},{"id":21,"name":"sc","links":[{"attr":0,"data":22}]}],"membranes":[]}]}
Parent State ID Information
file:mc.c...func:mc_gen_successors...line:550
17
Child State ID Information
file:mc.c...func:mc_store_successors...line:415
18
Succ number Information
file:mc.c...func:mc_gen_successors...line:494
1
Parent Graph Information
file:mc.c...func:mc_gen_successors...line:498
{"id":11,"name":"","atoms":[],"membranes":[{"id":12,"name":"","atoms":[{"id":13,"name":"empty","links":[{"attr":0,"data":15}]},{"id":14,"name":"ch_m","links":[{"attr":0,"data":18}]},{"id":15,"name":"ch_w","links":[{"attr":0,"data":13}]},{"id":16,"name":"m","links":[{"attr":0,"data":17}]},{"id":17,"name":"se","links":[{"attr":0,"data":16}]},{"id":18,"name":"shutup","links":[{"attr":0,"data":14}]},{"id":19,"name":"w","links":[{"attr":0,"data":20}]},{"id":20,"name":"sc","links":[{"attr":0,"data":19}]}],"membranes":[]}]}
Child Graph Information
file:mc.c...func:mc_gen_successors...line:513
{"id":11,"name":"","atoms":[],"membranes":[{"id":12,"name":"","atoms":[{"id":13,"name":"empty","links":[{"attr":0,"data":15}]},{"id":23,"name":"empty","links":[{"attr":0,"data":24}]},{"id":24,"name":"ch_m","links":[{"attr":0,"data":23}]},{"id":15,"name":"ch_w","links":[{"attr":0,"data":13}]},{"id":22,"name":"m","links":[{"attr":0,"data":21}]},{"id":21,"name":"sf","links":[{"attr":0,"data":22}]},{"id":19,"name":"w","links":[{"attr":0,"data":20}]},{"id":20,"name":"sc","links":[{"attr":0,"data":19}]}],"membranes":[]}]}
Parent State ID Information
file:mc.c...func:mc_gen_successors...line:550
18
Child State ID Information
file:mc.c...func:mc_store_successors...line:415
19
Succ number Information
file:mc.c...func:mc_gen_successors...line:494
1
Parent Graph Information
file:mc.c...func:mc_gen_successors...line:498
{"id":11,"name":"","atoms":[],"membranes":[{"id":12,"name":"","atoms":[{"id":13,"name":"empty","links":[{"attr":0,"data":16}]},{"id":14,"name":"empty","links":[{"attr":0,"data":15}]},{"id":15,"name":"ch_m","links":[{"attr":0,"data":14}]},{"id":16,"name":"ch_w","links":[{"attr":0,"data":13}]},{"id":17,"name":"m","links":[{"attr":0,"data":18}]},{"id":18,"name":"sf","links":[{"attr":0,"data":17}]},{"id":19,"name":"w","links":[{"attr":0,"data":20}]},{"id":20,"name":"sc","links":[{"attr":0,"data":19}]}],"membranes":[]}]}
Child Graph Information
file:mc.c...func:mc_gen_successors...line:513
{"id":11,"name":"","atoms":[],"membranes":[{"id":12,"name":"","atoms":[{"id":14,"name":"empty","links":[{"attr":0,"data":15}]},{"id":15,"name":"ch_m","links":[{"attr":0,"data":14}]},{"id":24,"name":"ch_w","links":[{"attr":0,"data":23}]},{"id":22,"name":"m","links":[{"attr":0,"data":21}]},{"id":21,"name":"sg","links":[{"attr":0,"data":22}]},{"id":23,"name":"quiet","links":[{"attr":0,"data":24}]},{"id":19,"name":"w","links":[{"attr":0,"data":20}]},{"id":20,"name":"sc","links":[{"attr":0,"data":19}]}],"membranes":[]}]}
Parent State ID Information
file:mc.c...func:mc_gen_successors...line:550
19
Child State ID Information
file:mc.c...func:mc_store_successors...line:415
20
Succ number Information
file:mc.c...func:mc_gen_successors...line:494
1
Parent Graph Information
file:mc.c...func:mc_gen_successors...line:498
{"id":11,"name":"","atoms":[],"membranes":[{"id":12,"name":"","atoms":[{"id":13,"name":"empty","links":[{"attr":0,"data":14}]},{"id":14,"name":"ch_m","links":[{"attr":0,"data":13}]},{"id":15,"name":"ch_w","links":[{"attr":0,"data":18}]},{"id":16,"name":"m","links":[{"attr":0,"data":17}]},{"id":17,"name":"sg","links":[{"attr":0,"data":16}]},{"id":18,"name":"quiet","links":[{"attr":0,"data":15}]},{"id":19,"name":"w","links":[{"attr":0,"data":20}]},{"id":20,"name":"sc","links":[{"attr":0,"data":19}]}],"membranes":[]}]}
Child Graph Information
file:mc.c...func:mc_gen_successors...line:513
{"id":11,"name":"","atoms":[],"membranes":[{"id":12,"name":"","atoms":[{"id":13,"name":"empty","links":[{"attr":0,"data":14}]},{"id":23,"name":"empty","links":[{"attr":0,"data":24}]},{"id":14,"name":"ch_m","links":[{"attr":0,"data":13}]},{"id":24,"name":"ch_w","links":[{"attr":0,"data":23}]},{"id":16,"name":"m","links":[{"attr":0,"data":17}]},{"id":17,"name":"sg","links":[{"attr":0,"data":16}]},{"id":22,"name":"w","links":[{"attr":0,"data":21}]},{"id":21,"name":"sd","links":[{"attr":0,"data":22}]}],"membranes":[]}]}
Parent State ID Information
file:mc.c...func:mc_gen_successors...line:550
20
Child State ID Information
file:mc.c...func:mc_store_successors...line:415
21
Succ number Information
file:mc.c...func:mc_gen_successors...line:494
1
Parent Graph Information
file:mc.c...func:mc_gen_successors...line:498
{"id":11,"name":"","atoms":[],"membranes":[{"id":12,"name":"","atoms":[{"id":13,"name":"empty","links":[{"attr":0,"data":16}]},{"id":14,"name":"empty","links":[{"attr":0,"data":15}]},{"id":15,"name":"ch_m","links":[{"attr":0,"data":14}]},{"id":16,"name":"ch_w","links":[{"attr":0,"data":13}]},{"id":17,"name":"m","links":[{"attr":0,"data":18}]},{"id":18,"name":"sg","links":[{"attr":0,"data":17}]},{"id":19,"name":"w","links":[{"attr":0,"data":20}]},{"id":20,"name":"sd","links":[{"attr":0,"data":19}]}],"membranes":[]}]}
Child Graph Information
file:mc.c...func:mc_gen_successors...line:513
{"id":11,"name":"","atoms":[],"membranes":[{"id":12,"name":"","atoms":[{"id":13,"name":"empty","links":[{"attr":0,"data":16}]},{"id":23,"name":"ch_m","links":[{"attr":0,"data":22}]},{"id":16,"name":"ch_w","links":[{"attr":0,"data":13}]},{"id":21,"name":"wEnd","links":[]},{"id":17,"name":"m","links":[{"attr":0,"data":18}]},{"id":18,"name":"sg","links":[{"attr":0,"data":17}]},{"id":22,"name":"dead","links":[{"attr":0,"data":23}]}],"membranes":[]}]}
Parent State ID Information
file:mc.c...func:mc_gen_successors...line:550
21
Child State ID Information
file:mc.c...func:mc_store_successors...line:415
22
Succ number Information
file:mc.c...func:mc_gen_successors...line:494
1
Parent Graph Information
file:mc.c...func:mc_gen_successors...line:498
{"id":10,"name":"","atoms":[],"membranes":[{"id":11,"name":"","atoms":[{"id":12,"name":"empty","links":[{"attr":0,"data":14}]},{"id":13,"name":"ch_m","links":[{"attr":0,"data":18}]},{"id":14,"name":"ch_w","links":[{"attr":0,"data":12}]},{"id":15,"name":"wEnd","links":[]},{"id":16,"name":"m","links":[{"attr":0,"data":17}]},{"id":17,"name":"sg","links":[{"attr":0,"data":16}]},{"id":18,"name":"dead","links":[{"attr":0,"data":13}]}],"membranes":[]}]}
Child Graph Information
file:mc.c...func:mc_gen_successors...line:513
{"id":10,"name":"","atoms":[],"membranes":[{"id":11,"name":"","atoms":[{"id":12,"name":"empty","links":[{"attr":0,"data":14}]},{"id":14,"name":"ch_w","links":[{"attr":0,"data":12}]},{"id":19,"name":"mEnd","links":[]},{"id":15,"name":"wEnd","links":[]}],"membranes":[]}]}
Parent State ID Information
file:mc.c...func:mc_gen_successors...line:550
22
Child State ID Information
file:mc.c...func:mc_store_successors...line:415
23
Succ number Information
file:mc.c...func:mc_gen_successors...line:494
0
Parent Graph Information
file:mc.c...func:mc_gen_successors...line:498
{"id":7,"name":"","atoms":[],"membranes":[{"id":8,"name":"","atoms":[{"id":9,"name":"empty","links":[{"attr":0,"data":10}]},{"id":10,"name":"ch_w","links":[{"attr":0,"data":9}]},{"id":11,"name":"mEnd","links":[]},{"id":12,"name":"wEnd","links":[]}],"membranes":[]}]}
Parent State ID Information
file:mc.c...func:mc_gen_successors...line:550
23
Succ number Information
file:mc.c...func:mc_gen_successors...line:494
1
Parent Graph Information
file:mc.c...func:mc_gen_successors...line:498
{"id":11,"name":"","atoms":[],"membranes":[{"id":12,"name":"","atoms":[{"id":13,"name":"empty","links":[{"attr":0,"data":14}]},{"id":14,"name":"ch_m","links":[{"attr":0,"data":13}]},{"id":15,"name":"ch_w","links":[{"attr":0,"data":18}]},{"id":16,"name":"m","links":[{"attr":0,"data":19}]},{"id":17,"name":"s3","links":[{"attr":0,"data":20}]},{"id":18,"name":"data","links":[{"attr":0,"data":15}]},{"id":19,"name":"s8","links":[{"attr":0,"data":16}]},{"id":20,"name":"w","links":[{"attr":0,"data":17}]}],"membranes":[]}]}
Child Graph Information
file:mc.c...func:mc_gen_successors...line:513
{"id":11,"name":"","atoms":[],"membranes":[{"id":12,"name":"","atoms":[{"id":13,"name":"empty","links":[{"attr":0,"data":14}]},{"id":23,"name":"empty","links":[{"attr":0,"data":24}]},{"id":14,"name":"ch_m","links":[{"attr":0,"data":13}]},{"id":24,"name":"ch_w","links":[{"attr":0,"data":23}]},{"id":16,"name":"m","links":[{"attr":0,"data":19}]},{"id":21,"name":"s3","links":[{"attr":0,"data":22}]},{"id":19,"name":"s8","links":[{"attr":0,"data":16}]},{"id":22,"name":"w","links":[{"attr":0,"data":21}]}],"membranes":[]}]}
Parent State ID Information
file:mc.c...func:mc_gen_successors...line:550
16
Child State ID Information
file:mc.c...func:mc_store_successors...line:415
15
Succ number Information
file:mc.c...func:mc_gen_successors...line:494
2
Parent Graph Information
file:mc.c...func:mc_gen_successors...line:498
{"id":10,"name":"","atoms":[],"membranes":[{"id":11,"name":"","atoms":[{"id":12,"name":"empty","links":[{"attr":0,"data":15}]},{"id":13,"name":"empty","links":[{"attr":0,"data":14}]},{"id":14,"name":"ch_m","links":[{"attr":0,"data":13}]},{"id":15,"name":"ch_w","links":[{"attr":0,"data":12}]},{"id":16,"name":"w","links":[]},{"id":17,"name":"s1","links":[{"attr":0,"data":18}]},{"id":18,"name":"m","links":[{"attr":0,"data":17}]}],"membranes":[]}]}
Child Graph Information
file:mc.c...func:mc_gen_successors...line:513
{"id":10,"name":"","atoms":[],"membranes":[{"id":11,"name":"","atoms":[{"id":13,"name":"empty","links":[{"attr":0,"data":14}]},{"id":14,"name":"ch_m","links":[{"attr":0,"data":13}]},{"id":22,"name":"ch_w","links":[{"attr":0,"data":21}]},{"id":16,"name":"w","links":[]},{"id":20,"name":"m","links":[{"attr":0,"data":19}]},{"id":19,"name":"s2","links":[{"attr":0,"data":20}]},{"id":21,"name":"ini","links":[{"attr":0,"data":22}]}],"membranes":[]}]}
Child Graph Information
file:mc.c...func:mc_gen_successors...line:513
{"id":10,"name":"","atoms":[],"membranes":[{"id":11,"name":"","atoms":[{"id":12,"name":"empty","links":[{"attr":0,"data":15}]},{"id":13,"name":"empty","links":[{"attr":0,"data":14}]},{"id":14,"name":"ch_m","links":[{"attr":0,"data":13}]},{"id":15,"name":"ch_w","links":[{"attr":0,"data":12}]},{"id":17,"name":"s1","links":[{"attr":0,"data":18}]},{"id":19,"name":"s1","links":[{"attr":0,"data":20}]},{"id":18,"name":"m","links":[{"attr":0,"data":17}]},{"id":20,"name":"w","links":[{"attr":0,"data":19}]}],"membranes":[]}]}
Parent State ID Information
file:mc.c...func:mc_gen_successors...line:550
2
Child State ID Information
file:mc.c...func:mc_store_successors...line:415
24
Child State ID Information
file:mc.c...func:mc_store_successors...line:415
4
Succ number Information
file:mc.c...func:mc_gen_successors...line:494
1
Parent Graph Information
file:mc.c...func:mc_gen_successors...line:498
{"id":10,"name":"","atoms":[],"membranes":[{"id":11,"name":"","atoms":[{"id":12,"name":"empty","links":[{"attr":0,"data":13}]},{"id":13,"name":"ch_m","links":[{"attr":0,"data":12}]},{"id":14,"name":"ch_w","links":[{"attr":0,"data":18}]},{"id":15,"name":"w","links":[]},{"id":16,"name":"m","links":[{"attr":0,"data":17}]},{"id":17,"name":"s2","links":[{"attr":0,"data":16}]},{"id":18,"name":"ini","links":[{"attr":0,"data":14}]}],"membranes":[]}]}
Child Graph Information
file:mc.c...func:mc_gen_successors...line:513
{"id":10,"name":"","atoms":[],"membranes":[{"id":11,"name":"","atoms":[{"id":12,"name":"empty","links":[{"attr":0,"data":13}]},{"id":13,"name":"ch_m","links":[{"attr":0,"data":12}]},{"id":14,"name":"ch_w","links":[{"attr":0,"data":18}]},{"id":19,"name":"s1","links":[{"attr":0,"data":20}]},{"id":16,"name":"m","links":[{"attr":0,"data":17}]},{"id":17,"name":"s2","links":[{"attr":0,"data":16}]},{"id":18,"name":"ini","links":[{"attr":0,"data":14}]},{"id":20,"name":"w","links":[{"attr":0,"data":19}]}],"membranes":[]}]}
Parent State ID Information
file:mc.c...func:mc_gen_successors...line:550
24
Child State ID Information
file:mc.c...func:mc_store_successors...line:415
5
0 : exit (total expand=0)
'# of States'(stored)   = 24.
'# of States'(end)      = 1.
