Succ number Information
file:mc.c...func:run_mc...line:84
1
Parent Graph Information
file:mc.c...func:run_mc...line:88
{"id":1,"name":"","atoms":[],"membranes":[]}
Child Graph Information
file:mc.c...func:run_mc...line:102
{"id":1,"name":"","atoms":[{"id":2,"name":"init","links":[]}],"membranes":[]}
Parent State ID Information
file:mc.c...func:run_mc...line:106
0
Child State ID Information
file:mc.c...func:run_mc...line:109
1
Succ number Information
file:mc.c...func:mc_gen_successors...line:494
1
Parent Graph Information
file:mc.c...func:mc_gen_successors...line:498
{"id":3,"name":"","atoms":[{"id":4,"name":"init","links":[]}],"membranes":[]}
Child Graph Information
file:mc.c...func:mc_gen_successors...line:513
{"id":5,"name":"","atoms":[{"id":15,"name":"a","links":[{"attr":138,"data":4},{"attr":0,"data":16}]},{"id":16,"name":"a","links":[{"attr":1,"data":15},{"attr":0,"data":17}]},{"id":18,"name":"a","links":[{"attr":138,"data":4},{"attr":0,"data":19}]},{"id":19,"name":"a","links":[{"attr":1,"data":18},{"attr":0,"data":20}]},{"id":21,"name":"a","links":[{"attr":138,"data":4},{"attr":0,"data":22}]},{"id":22,"name":"a","links":[{"attr":1,"data":21},{"attr":0,"data":23}]},{"id":24,"name":"a","links":[{"attr":138,"data":4},{"attr":0,"data":25}]},{"id":25,"name":"a","links":[{"attr":1,"data":24},{"attr":0,"data":26}]},{"id":17,"name":"tail","links":[{"attr":1,"data":16}]},{"id":20,"name":"tail","links":[{"attr":1,"data":19}]},{"id":23,"name":"tail","links":[{"attr":1,"data":22}]},{"id":26,"name":"tail","links":[{"attr":1,"data":25}]}],"membranes":[]}
Parent State ID Information
file:mc.c...func:mc_gen_successors...line:550
1
Child State ID Information
file:mc.c...func:mc_store_successors...line:415
2
Succ number Information
file:mc.c...func:mc_gen_successors...line:494
4
Parent Graph Information
file:mc.c...func:mc_gen_successors...line:498
{"id":22,"name":"","atoms":[{"id":23,"name":"a","links":[{"attr":1,"data":24},{"attr":0,"data":39}]},{"id":24,"name":"a","links":[{"attr":138,"data":26},{"attr":0,"data":23}]},{"id":27,"name":"a","links":[{"attr":1,"data":28},{"attr":0,"data":40}]},{"id":28,"name":"a","links":[{"attr":138,"data":26},{"attr":0,"data":27}]},{"id":31,"name":"a","links":[{"attr":1,"data":32},{"attr":0,"data":41}]},{"id":32,"name":"a","links":[{"attr":138,"data":26},{"attr":0,"data":31}]},{"id":35,"name":"a","links":[{"attr":1,"data":36},{"attr":0,"data":42}]},{"id":36,"name":"a","links":[{"attr":138,"data":26},{"attr":0,"data":35}]},{"id":39,"name":"tail","links":[{"attr":1,"data":23}]},{"id":40,"name":"tail","links":[{"attr":1,"data":27}]},{"id":41,"name":"tail","links":[{"attr":1,"data":31}]},{"id":42,"name":"tail","links":[{"attr":1,"data":35}]}],"membranes":[]}
Child Graph Information
file:mc.c...func:mc_gen_successors...line:513
{"id":22,"name":"","atoms":[{"id":23,"name":"a","links":[{"attr":1,"data":24},{"attr":0,"data":43}]},{"id":24,"name":"a","links":[{"attr":138,"data":26},{"attr":0,"data":23}]},{"id":27,"name":"a","links":[{"attr":1,"data":28},{"attr":0,"data":40}]},{"id":28,"name":"a","links":[{"attr":138,"data":26},{"attr":0,"data":27}]},{"id":31,"name":"a","links":[{"attr":1,"data":32},{"attr":0,"data":41}]},{"id":32,"name":"a","links":[{"attr":138,"data":26},{"attr":0,"data":31}]},{"id":35,"name":"a","links":[{"attr":1,"data":36},{"attr":0,"data":42}]},{"id":36,"name":"a","links":[{"attr":138,"data":26},{"attr":0,"data":35}]},{"id":40,"name":"tail","links":[{"attr":1,"data":27}]},{"id":41,"name":"tail","links":[{"attr":1,"data":31}]},{"id":42,"name":"tail","links":[{"attr":1,"data":35}]},{"id":43,"name":"head","links":[{"attr":1,"data":23}]}],"membranes":[]}
Child Graph Information
file:mc.c...func:mc_gen_successors...line:513
{"id":22,"name":"","atoms":[{"id":23,"name":"a","links":[{"attr":1,"data":24},{"attr":0,"data":39}]},{"id":24,"name":"a","links":[{"attr":138,"data":26},{"attr":0,"data":23}]},{"id":27,"name":"a","links":[{"attr":1,"data":28},{"attr":0,"data":43}]},{"id":28,"name":"a","links":[{"attr":138,"data":26},{"attr":0,"data":27}]},{"id":31,"name":"a","links":[{"attr":1,"data":32},{"attr":0,"data":41}]},{"id":32,"name":"a","links":[{"attr":138,"data":26},{"attr":0,"data":31}]},{"id":35,"name":"a","links":[{"attr":1,"data":36},{"attr":0,"data":42}]},{"id":36,"name":"a","links":[{"attr":138,"data":26},{"attr":0,"data":35}]},{"id":39,"name":"tail","links":[{"attr":1,"data":23}]},{"id":41,"name":"tail","links":[{"attr":1,"data":31}]},{"id":42,"name":"tail","links":[{"attr":1,"data":35}]},{"id":43,"name":"head","links":[{"attr":1,"data":27}]}],"membranes":[]}
Child Graph Information
file:mc.c...func:mc_gen_successors...line:513
{"id":22,"name":"","atoms":[{"id":23,"name":"a","links":[{"attr":1,"data":24},{"attr":0,"data":39}]},{"id":24,"name":"a","links":[{"attr":138,"data":26},{"attr":0,"data":23}]},{"id":27,"name":"a","links":[{"attr":1,"data":28},{"attr":0,"data":40}]},{"id":28,"name":"a","links":[{"attr":138,"data":26},{"attr":0,"data":27}]},{"id":31,"name":"a","links":[{"attr":1,"data":32},{"attr":0,"data":43}]},{"id":32,"name":"a","links":[{"attr":138,"data":26},{"attr":0,"data":31}]},{"id":35,"name":"a","links":[{"attr":1,"data":36},{"attr":0,"data":42}]},{"id":36,"name":"a","links":[{"attr":138,"data":26},{"attr":0,"data":35}]},{"id":39,"name":"tail","links":[{"attr":1,"data":23}]},{"id":40,"name":"tail","links":[{"attr":1,"data":27}]},{"id":42,"name":"tail","links":[{"attr":1,"data":35}]},{"id":43,"name":"head","links":[{"attr":1,"data":31}]}],"membranes":[]}
Child Graph Information
file:mc.c...func:mc_gen_successors...line:513
{"id":22,"name":"","atoms":[{"id":23,"name":"a","links":[{"attr":1,"data":24},{"attr":0,"data":39}]},{"id":24,"name":"a","links":[{"attr":138,"data":26},{"attr":0,"data":23}]},{"id":27,"name":"a","links":[{"attr":1,"data":28},{"attr":0,"data":40}]},{"id":28,"name":"a","links":[{"attr":138,"data":26},{"attr":0,"data":27}]},{"id":31,"name":"a","links":[{"attr":1,"data":32},{"attr":0,"data":41}]},{"id":32,"name":"a","links":[{"attr":138,"data":26},{"attr":0,"data":31}]},{"id":35,"name":"a","links":[{"attr":1,"data":36},{"attr":0,"data":43}]},{"id":36,"name":"a","links":[{"attr":138,"data":26},{"attr":0,"data":35}]},{"id":39,"name":"tail","links":[{"attr":1,"data":23}]},{"id":40,"name":"tail","links":[{"attr":1,"data":27}]},{"id":41,"name":"tail","links":[{"attr":1,"data":31}]},{"id":43,"name":"head","links":[{"attr":1,"data":35}]}],"membranes":[]}
Parent State ID Information
file:mc.c...func:mc_gen_successors...line:550
2
Child State ID Information
file:mc.c...func:mc_store_successors...line:415
3
Child State ID Information
file:mc.c...func:mc_store_successors...line:415
3
Child State ID Information
file:mc.c...func:mc_store_successors...line:415
3
Child State ID Information
file:mc.c...func:mc_store_successors...line:415
3
Succ number Information
file:mc.c...func:mc_gen_successors...line:494
3
Parent Graph Information
file:mc.c...func:mc_gen_successors...line:498
{"id":22,"name":"","atoms":[{"id":23,"name":"a","links":[{"attr":1,"data":24},{"attr":0,"data":42}]},{"id":24,"name":"a","links":[{"attr":138,"data":26},{"attr":0,"data":23}]},{"id":27,"name":"a","links":[{"attr":1,"data":28},{"attr":0,"data":39}]},{"id":28,"name":"a","links":[{"attr":138,"data":26},{"attr":0,"data":27}]},{"id":31,"name":"a","links":[{"attr":1,"data":32},{"attr":0,"data":40}]},{"id":32,"name":"a","links":[{"attr":138,"data":26},{"attr":0,"data":31}]},{"id":35,"name":"a","links":[{"attr":1,"data":36},{"attr":0,"data":41}]},{"id":36,"name":"a","links":[{"attr":138,"data":26},{"attr":0,"data":35}]},{"id":39,"name":"tail","links":[{"attr":1,"data":27}]},{"id":40,"name":"tail","links":[{"attr":1,"data":31}]},{"id":41,"name":"tail","links":[{"attr":1,"data":35}]},{"id":42,"name":"head","links":[{"attr":1,"data":23}]}],"membranes":[]}
Child Graph Information
file:mc.c...func:mc_gen_successors...line:513
{"id":22,"name":"","atoms":[{"id":23,"name":"a","links":[{"attr":1,"data":24},{"attr":0,"data":42}]},{"id":24,"name":"a","links":[{"attr":138,"data":26},{"attr":0,"data":23}]},{"id":27,"name":"a","links":[{"attr":1,"data":28},{"attr":0,"data":43}]},{"id":28,"name":"a","links":[{"attr":138,"data":26},{"attr":0,"data":27}]},{"id":31,"name":"a","links":[{"attr":1,"data":32},{"attr":0,"data":40}]},{"id":32,"name":"a","links":[{"attr":138,"data":26},{"attr":0,"data":31}]},{"id":35,"name":"a","links":[{"attr":1,"data":36},{"attr":0,"data":41}]},{"id":36,"name":"a","links":[{"attr":138,"data":26},{"attr":0,"data":35}]},{"id":40,"name":"tail","links":[{"attr":1,"data":31}]},{"id":41,"name":"tail","links":[{"attr":1,"data":35}]},{"id":42,"name":"head","links":[{"attr":1,"data":23}]},{"id":43,"name":"head","links":[{"attr":1,"data":27}]}],"membranes":[]}
Child Graph Information
file:mc.c...func:mc_gen_successors...line:513
{"id":22,"name":"","atoms":[{"id":23,"name":"a","links":[{"attr":1,"data":24},{"attr":0,"data":42}]},{"id":24,"name":"a","links":[{"attr":138,"data":26},{"attr":0,"data":23}]},{"id":27,"name":"a","links":[{"attr":1,"data":28},{"attr":0,"data":39}]},{"id":28,"name":"a","links":[{"attr":138,"data":26},{"attr":0,"data":27}]},{"id":31,"name":"a","links":[{"attr":1,"data":32},{"attr":0,"data":43}]},{"id":32,"name":"a","links":[{"attr":138,"data":26},{"attr":0,"data":31}]},{"id":35,"name":"a","links":[{"attr":1,"data":36},{"attr":0,"data":41}]},{"id":36,"name":"a","links":[{"attr":138,"data":26},{"attr":0,"data":35}]},{"id":39,"name":"tail","links":[{"attr":1,"data":27}]},{"id":41,"name":"tail","links":[{"attr":1,"data":35}]},{"id":42,"name":"head","links":[{"attr":1,"data":23}]},{"id":43,"name":"head","links":[{"attr":1,"data":31}]}],"membranes":[]}
Child Graph Information
file:mc.c...func:mc_gen_successors...line:513
{"id":22,"name":"","atoms":[{"id":23,"name":"a","links":[{"attr":1,"data":24},{"attr":0,"data":42}]},{"id":24,"name":"a","links":[{"attr":138,"data":26},{"attr":0,"data":23}]},{"id":27,"name":"a","links":[{"attr":1,"data":28},{"attr":0,"data":39}]},{"id":28,"name":"a","links":[{"attr":138,"data":26},{"attr":0,"data":27}]},{"id":31,"name":"a","links":[{"attr":1,"data":32},{"attr":0,"data":40}]},{"id":32,"name":"a","links":[{"attr":138,"data":26},{"attr":0,"data":31}]},{"id":35,"name":"a","links":[{"attr":1,"data":36},{"attr":0,"data":43}]},{"id":36,"name":"a","links":[{"attr":138,"data":26},{"attr":0,"data":35}]},{"id":39,"name":"tail","links":[{"attr":1,"data":27}]},{"id":40,"name":"tail","links":[{"attr":1,"data":31}]},{"id":42,"name":"head","links":[{"attr":1,"data":23}]},{"id":43,"name":"head","links":[{"attr":1,"data":35}]}],"membranes":[]}
Parent State ID Information
file:mc.c...func:mc_gen_successors...line:550
3
Child State ID Information
file:mc.c...func:mc_store_successors...line:415
4
Child State ID Information
file:mc.c...func:mc_store_successors...line:415
4
Child State ID Information
file:mc.c...func:mc_store_successors...line:415
4
Succ number Information
file:mc.c...func:mc_gen_successors...line:494
2
Parent Graph Information
file:mc.c...func:mc_gen_successors...line:498
{"id":22,"name":"","atoms":[{"id":23,"name":"a","links":[{"attr":1,"data":24},{"attr":0,"data":41}]},{"id":24,"name":"a","links":[{"attr":138,"data":26},{"attr":0,"data":23}]},{"id":27,"name":"a","links":[{"attr":1,"data":28},{"attr":0,"data":42}]},{"id":28,"name":"a","links":[{"attr":138,"data":26},{"attr":0,"data":27}]},{"id":31,"name":"a","links":[{"attr":1,"data":32},{"attr":0,"data":39}]},{"id":32,"name":"a","links":[{"attr":138,"data":26},{"attr":0,"data":31}]},{"id":35,"name":"a","links":[{"attr":1,"data":36},{"attr":0,"data":40}]},{"id":36,"name":"a","links":[{"attr":138,"data":26},{"attr":0,"data":35}]},{"id":39,"name":"tail","links":[{"attr":1,"data":31}]},{"id":40,"name":"tail","links":[{"attr":1,"data":35}]},{"id":41,"name":"head","links":[{"attr":1,"data":23}]},{"id":42,"name":"head","links":[{"attr":1,"data":27}]}],"membranes":[]}
Child Graph Information
file:mc.c...func:mc_gen_successors...line:513
{"id":22,"name":"","atoms":[{"id":23,"name":"a","links":[{"attr":1,"data":24},{"attr":0,"data":41}]},{"id":24,"name":"a","links":[{"attr":138,"data":26},{"attr":0,"data":23}]},{"id":27,"name":"a","links":[{"attr":1,"data":28},{"attr":0,"data":42}]},{"id":28,"name":"a","links":[{"attr":138,"data":26},{"attr":0,"data":27}]},{"id":31,"name":"a","links":[{"attr":1,"data":32},{"attr":0,"data":43}]},{"id":32,"name":"a","links":[{"attr":138,"data":26},{"attr":0,"data":31}]},{"id":35,"name":"a","links":[{"attr":1,"data":36},{"attr":0,"data":40}]},{"id":36,"name":"a","links":[{"attr":138,"data":26},{"attr":0,"data":35}]},{"id":40,"name":"tail","links":[{"attr":1,"data":35}]},{"id":41,"name":"head","links":[{"attr":1,"data":23}]},{"id":42,"name":"head","links":[{"attr":1,"data":27}]},{"id":43,"name":"head","links":[{"attr":1,"data":31}]}],"membranes":[]}
Child Graph Information
file:mc.c...func:mc_gen_successors...line:513
{"id":22,"name":"","atoms":[{"id":23,"name":"a","links":[{"attr":1,"data":24},{"attr":0,"data":41}]},{"id":24,"name":"a","links":[{"attr":138,"data":26},{"attr":0,"data":23}]},{"id":27,"name":"a","links":[{"attr":1,"data":28},{"attr":0,"data":42}]},{"id":28,"name":"a","links":[{"attr":138,"data":26},{"attr":0,"data":27}]},{"id":31,"name":"a","links":[{"attr":1,"data":32},{"attr":0,"data":39}]},{"id":32,"name":"a","links":[{"attr":138,"data":26},{"attr":0,"data":31}]},{"id":35,"name":"a","links":[{"attr":1,"data":36},{"attr":0,"data":43}]},{"id":36,"name":"a","links":[{"attr":138,"data":26},{"attr":0,"data":35}]},{"id":39,"name":"tail","links":[{"attr":1,"data":31}]},{"id":41,"name":"head","links":[{"attr":1,"data":23}]},{"id":42,"name":"head","links":[{"attr":1,"data":27}]},{"id":43,"name":"head","links":[{"attr":1,"data":35}]}],"membranes":[]}
Parent State ID Information
file:mc.c...func:mc_gen_successors...line:550
4
Child State ID Information
file:mc.c...func:mc_store_successors...line:415
5
Child State ID Information
file:mc.c...func:mc_store_successors...line:415
5
Succ number Information
file:mc.c...func:mc_gen_successors...line:494
1
Parent Graph Information
file:mc.c...func:mc_gen_successors...line:498
{"id":22,"name":"","atoms":[{"id":23,"name":"a","links":[{"attr":1,"data":24},{"attr":0,"data":40}]},{"id":24,"name":"a","links":[{"attr":138,"data":26},{"attr":0,"data":23}]},{"id":27,"name":"a","links":[{"attr":1,"data":28},{"attr":0,"data":41}]},{"id":28,"name":"a","links":[{"attr":138,"data":26},{"attr":0,"data":27}]},{"id":31,"name":"a","links":[{"attr":1,"data":32},{"attr":0,"data":42}]},{"id":32,"name":"a","links":[{"attr":138,"data":26},{"attr":0,"data":31}]},{"id":35,"name":"a","links":[{"attr":1,"data":36},{"attr":0,"data":39}]},{"id":36,"name":"a","links":[{"attr":138,"data":26},{"attr":0,"data":35}]},{"id":39,"name":"tail","links":[{"attr":1,"data":35}]},{"id":40,"name":"head","links":[{"attr":1,"data":23}]},{"id":41,"name":"head","links":[{"attr":1,"data":27}]},{"id":42,"name":"head","links":[{"attr":1,"data":31}]}],"membranes":[]}
Child Graph Information
file:mc.c...func:mc_gen_successors...line:513
{"id":22,"name":"","atoms":[{"id":23,"name":"a","links":[{"attr":1,"data":24},{"attr":0,"data":40}]},{"id":24,"name":"a","links":[{"attr":138,"data":26},{"attr":0,"data":23}]},{"id":27,"name":"a","links":[{"attr":1,"data":28},{"attr":0,"data":41}]},{"id":28,"name":"a","links":[{"attr":138,"data":26},{"attr":0,"data":27}]},{"id":31,"name":"a","links":[{"attr":1,"data":32},{"attr":0,"data":42}]},{"id":32,"name":"a","links":[{"attr":138,"data":26},{"attr":0,"data":31}]},{"id":35,"name":"a","links":[{"attr":1,"data":36},{"attr":0,"data":43}]},{"id":36,"name":"a","links":[{"attr":138,"data":26},{"attr":0,"data":35}]},{"id":40,"name":"head","links":[{"attr":1,"data":23}]},{"id":41,"name":"head","links":[{"attr":1,"data":27}]},{"id":42,"name":"head","links":[{"attr":1,"data":31}]},{"id":43,"name":"head","links":[{"attr":1,"data":35}]}],"membranes":[]}
Parent State ID Information
file:mc.c...func:mc_gen_successors...line:550
5
Child State ID Information
file:mc.c...func:mc_store_successors...line:415
6
Succ number Information
file:mc.c...func:mc_gen_successors...line:494
0
Parent Graph Information
file:mc.c...func:mc_gen_successors...line:498
{"id":22,"name":"","atoms":[{"id":23,"name":"a","links":[{"attr":1,"data":24},{"attr":0,"data":39}]},{"id":24,"name":"a","links":[{"attr":138,"data":26},{"attr":0,"data":23}]},{"id":27,"name":"a","links":[{"attr":1,"data":28},{"attr":0,"data":40}]},{"id":28,"name":"a","links":[{"attr":138,"data":26},{"attr":0,"data":27}]},{"id":31,"name":"a","links":[{"attr":1,"data":32},{"attr":0,"data":41}]},{"id":32,"name":"a","links":[{"attr":138,"data":26},{"attr":0,"data":31}]},{"id":35,"name":"a","links":[{"attr":1,"data":36},{"attr":0,"data":42}]},{"id":36,"name":"a","links":[{"attr":138,"data":26},{"attr":0,"data":35}]},{"id":39,"name":"head","links":[{"attr":1,"data":23}]},{"id":40,"name":"head","links":[{"attr":1,"data":27}]},{"id":41,"name":"head","links":[{"attr":1,"data":31}]},{"id":42,"name":"head","links":[{"attr":1,"data":35}]}],"membranes":[]}
Parent State ID Information
file:mc.c...func:mc_gen_successors...line:550
6
0 : exit (total expand=0)
'# of States'(stored)   = 6.
'# of States'(end)      = 1.
