Succ number Information
file:mc.c...func:run_mc...line:84
1
Parent Graph Information
file:mc.c...func:run_mc...line:88
{"id":1,"name":"","atoms":[],"membranes":[]}
Child Graph Information
file:mc.c...func:run_mc...line:104
{"id":1,"name":"","atoms":[{"id":44,"name":"$out","links":[{"attr":0,"data":11},{"attr":0,"data":38}]},{"id":45,"name":"$out","links":[{"attr":0,"data":12},{"attr":1,"data":37}]},{"id":46,"name":"$out","links":[{"attr":0,"data":15},{"attr":1,"data":38}]},{"id":47,"name":"$out","links":[{"attr":0,"data":16},{"attr":0,"data":39}]},{"id":48,"name":"$out","links":[{"attr":0,"data":19},{"attr":1,"data":39}]},{"id":49,"name":"$out","links":[{"attr":0,"data":20},{"attr":0,"data":40}]},{"id":50,"name":"$out","links":[{"attr":0,"data":23},{"attr":1,"data":40}]},{"id":51,"name":"$out","links":[{"attr":0,"data":24},{"attr":0,"data":41}]},{"id":52,"name":"$out","links":[{"attr":0,"data":27},{"attr":1,"data":41}]},{"id":53,"name":"$out","links":[{"attr":0,"data":28},{"attr":0,"data":42}]},{"id":54,"name":"$out","links":[{"attr":0,"data":31},{"attr":1,"data":42}]},{"id":55,"name":"$out","links":[{"attr":0,"data":32},{"attr":0,"data":43}]},{"id":56,"name":"$out","links":[{"attr":0,"data":35},{"attr":1,"data":43}]},{"id":57,"name":"$out","links":[{"attr":0,"data":36},{"attr":0,"data":37}]},{"id":37,"name":"phi","links":[{"attr":1,"data":57},{"attr":1,"data":45}]},{"id":38,"name":"phi","links":[{"attr":1,"data":44},{"attr":1,"data":46}]},{"id":39,"name":"phi","links":[{"attr":1,"data":47},{"attr":1,"data":48}]},{"id":40,"name":"phi","links":[{"attr":1,"data":49},{"attr":1,"data":50}]},{"id":41,"name":"phi","links":[{"attr":1,"data":51},{"attr":1,"data":52}]},{"id":42,"name":"phi","links":[{"attr":1,"data":53},{"attr":1,"data":54}]},{"id":43,"name":"phi","links":[{"attr":1,"data":55},{"attr":1,"data":56}]}],"membranes":[{"id":8,"name":"fork","atoms":[{"id":35,"name":"$in","links":[{"attr":0,"data":56},{"attr":0,"data":33}]},{"id":36,"name":"$in","links":[{"attr":0,"data":57},{"attr":0,"data":34}]},{"id":33,"name":"+","links":[{"attr":1,"data":35}]},{"id":34,"name":"+","links":[{"attr":1,"data":36}]}],"membranes":[]},{"id":7,"name":"fork","atoms":[{"id":31,"name":"$in","links":[{"attr":0,"data":54},{"attr":0,"data":29}]},{"id":32,"name":"$in","links":[{"attr":0,"data":55},{"attr":0,"data":30}]},{"id":29,"name":"+","links":[{"attr":1,"data":31}]},{"id":30,"name":"+","links":[{"attr":1,"data":32}]}],"membranes":[]},{"id":6,"name":"fork","atoms":[{"id":27,"name":"$in","links":[{"attr":0,"data":52},{"attr":0,"data":25}]},{"id":28,"name":"$in","links":[{"attr":0,"data":53},{"attr":0,"data":26}]},{"id":25,"name":"+","links":[{"attr":1,"data":27}]},{"id":26,"name":"+","links":[{"attr":1,"data":28}]}],"membranes":[]},{"id":5,"name":"fork","atoms":[{"id":23,"name":"$in","links":[{"attr":0,"data":50},{"attr":0,"data":21}]},{"id":24,"name":"$in","links":[{"attr":0,"data":51},{"attr":0,"data":22}]},{"id":21,"name":"+","links":[{"attr":1,"data":23}]},{"id":22,"name":"+","links":[{"attr":1,"data":24}]}],"membranes":[]},{"id":4,"name":"fork","atoms":[{"id":19,"name":"$in","links":[{"attr":0,"data":48},{"attr":0,"data":17}]},{"id":20,"name":"$in","links":[{"attr":0,"data":49},{"attr":0,"data":18}]},{"id":17,"name":"+","links":[{"attr":1,"data":19}]},{"id":18,"name":"+","links":[{"attr":1,"data":20}]}],"membranes":[]},{"id":3,"name":"fork","atoms":[{"id":15,"name":"$in","links":[{"attr":0,"data":46},{"attr":0,"data":13}]},{"id":16,"name":"$in","links":[{"attr":0,"data":47},{"attr":0,"data":14}]},{"id":13,"name":"+","links":[{"attr":1,"data":15}]},{"id":14,"name":"-","links":[{"attr":1,"data":16}]}],"membranes":[]},{"id":2,"name":"fork","atoms":[{"id":11,"name":"$in","links":[{"attr":0,"data":44},{"attr":0,"data":10}]},{"id":12,"name":"$in","links":[{"attr":0,"data":45},{"attr":0,"data":9}]},{"id":10,"name":"+","links":[{"attr":1,"data":11}]},{"id":9,"name":"-","links":[{"attr":1,"data":12}]}],"membranes":[]}]}
Parent State ID Information
file:mc.c...func:run_mc...line:108
0
Child State ID Information
file:mc.c...func:run_mc...line:111
1
Succ number Information
file:mc.c...func:mc_gen_successors...line:519
6
Parent Graph Information
file:mc.c...func:mc_gen_successors...line:523
{"id":58,"name":"","atoms":[{"id":94,"name":"$out","links":[{"attr":0,"data":90},{"attr":0,"data":108}]},{"id":95,"name":"$out","links":[{"attr":0,"data":91},{"attr":1,"data":109}]},{"id":96,"name":"$out","links":[{"attr":0,"data":85},{"attr":0,"data":109}]},{"id":97,"name":"$out","links":[{"attr":0,"data":86},{"attr":1,"data":110}]},{"id":98,"name":"$out","links":[{"attr":0,"data":80},{"attr":0,"data":110}]},{"id":99,"name":"$out","links":[{"attr":0,"data":81},{"attr":1,"data":111}]},{"id":100,"name":"$out","links":[{"attr":0,"data":75},{"attr":0,"data":111}]},{"id":101,"name":"$out","links":[{"attr":0,"data":76},{"attr":1,"data":112}]},{"id":102,"name":"$out","links":[{"attr":0,"data":70},{"attr":0,"data":112}]},{"id":103,"name":"$out","links":[{"attr":0,"data":71},{"attr":1,"data":113}]},{"id":104,"name":"$out","links":[{"attr":0,"data":65},{"attr":0,"data":113}]},{"id":105,"name":"$out","links":[{"attr":0,"data":66},{"attr":1,"data":114}]},{"id":106,"name":"$out","links":[{"attr":0,"data":60},{"attr":0,"data":114}]},{"id":107,"name":"$out","links":[{"attr":0,"data":61},{"attr":1,"data":108}]},{"id":108,"name":"phi","links":[{"attr":1,"data":94},{"attr":1,"data":107}]},{"id":109,"name":"phi","links":[{"attr":1,"data":96},{"attr":1,"data":95}]},{"id":110,"name":"phi","links":[{"attr":1,"data":98},{"attr":1,"data":97}]},{"id":111,"name":"phi","links":[{"attr":1,"data":100},{"attr":1,"data":99}]},{"id":112,"name":"phi","links":[{"attr":1,"data":102},{"attr":1,"data":101}]},{"id":113,"name":"phi","links":[{"attr":1,"data":104},{"attr":1,"data":103}]},{"id":114,"name":"phi","links":[{"attr":1,"data":106},{"attr":1,"data":105}]}],"membranes":[{"id":89,"name":"fork","atoms":[{"id":90,"name":"$in","links":[{"attr":0,"data":94},{"attr":0,"data":92}]},{"id":91,"name":"$in","links":[{"attr":0,"data":95},{"attr":0,"data":93}]},{"id":92,"name":"+","links":[{"attr":1,"data":90}]},{"id":93,"name":"+","links":[{"attr":1,"data":91}]}],"membranes":[]},{"id":84,"name":"fork","atoms":[{"id":85,"name":"$in","links":[{"attr":0,"data":96},{"attr":0,"data":87}]},{"id":86,"name":"$in","links":[{"attr":0,"data":97},{"attr":0,"data":88}]},{"id":87,"name":"+","links":[{"attr":1,"data":85}]},{"id":88,"name":"+","links":[{"attr":1,"data":86}]}],"membranes":[]},{"id":79,"name":"fork","atoms":[{"id":80,"name":"$in","links":[{"attr":0,"data":98},{"attr":0,"data":82}]},{"id":81,"name":"$in","links":[{"attr":0,"data":99},{"attr":0,"data":83}]},{"id":82,"name":"+","links":[{"attr":1,"data":80}]},{"id":83,"name":"+","links":[{"attr":1,"data":81}]}],"membranes":[]},{"id":74,"name":"fork","atoms":[{"id":75,"name":"$in","links":[{"attr":0,"data":100},{"attr":0,"data":77}]},{"id":76,"name":"$in","links":[{"attr":0,"data":101},{"attr":0,"data":78}]},{"id":77,"name":"+","links":[{"attr":1,"data":75}]},{"id":78,"name":"+","links":[{"attr":1,"data":76}]}],"membranes":[]},{"id":69,"name":"fork","atoms":[{"id":70,"name":"$in","links":[{"attr":0,"data":102},{"attr":0,"data":72}]},{"id":71,"name":"$in","links":[{"attr":0,"data":103},{"attr":0,"data":73}]},{"id":72,"name":"+","links":[{"attr":1,"data":70}]},{"id":73,"name":"+","links":[{"attr":1,"data":71}]}],"membranes":[]},{"id":64,"name":"fork","atoms":[{"id":65,"name":"$in","links":[{"attr":0,"data":104},{"attr":0,"data":68}]},{"id":66,"name":"$in","links":[{"attr":0,"data":105},{"attr":0,"data":67}]},{"id":67,"name":"+","links":[{"attr":1,"data":66}]},{"id":68,"name":"-","links":[{"attr":1,"data":65}]}],"membranes":[]},{"id":59,"name":"fork","atoms":[{"id":60,"name":"$in","links":[{"attr":0,"data":106},{"attr":0,"data":62}]},{"id":61,"name":"$in","links":[{"attr":0,"data":107},{"attr":0,"data":63}]},{"id":62,"name":"+","links":[{"attr":1,"data":60}]},{"id":63,"name":"-","links":[{"attr":1,"data":61}]}],"membranes":[]}]}
Child Graph Information
file:mc.c...func:mc_gen_successors...line:540
{"id":58,"name":"","atoms":[{"id":96,"name":"$out","links":[{"attr":0,"data":85},{"attr":0,"data":109}]},{"id":97,"name":"$out","links":[{"attr":0,"data":86},{"attr":1,"data":110}]},{"id":98,"name":"$out","links":[{"attr":0,"data":80},{"attr":0,"data":110}]},{"id":99,"name":"$out","links":[{"attr":0,"data":81},{"attr":1,"data":111}]},{"id":100,"name":"$out","links":[{"attr":0,"data":75},{"attr":0,"data":111}]},{"id":101,"name":"$out","links":[{"attr":0,"data":76},{"attr":1,"data":112}]},{"id":102,"name":"$out","links":[{"attr":0,"data":70},{"attr":0,"data":112}]},{"id":103,"name":"$out","links":[{"attr":0,"data":71},{"attr":1,"data":113}]},{"id":104,"name":"$out","links":[{"attr":0,"data":65},{"attr":0,"data":113}]},{"id":105,"name":"$out","links":[{"attr":0,"data":66},{"attr":1,"data":114}]},{"id":106,"name":"$out","links":[{"attr":0,"data":60},{"attr":0,"data":114}]},{"id":107,"name":"$out","links":[{"attr":0,"data":61},{"attr":1,"data":119}]},{"id":120,"name":"$out","links":[{"attr":0,"data":117},{"attr":1,"data":109}]},{"id":121,"name":"$out","links":[{"attr":0,"data":118},{"attr":0,"data":119}]},{"id":109,"name":"phi","links":[{"attr":1,"data":96},{"attr":1,"data":120}]},{"id":110,"name":"phi","links":[{"attr":1,"data":98},{"attr":1,"data":97}]},{"id":111,"name":"phi","links":[{"attr":1,"data":100},{"attr":1,"data":99}]},{"id":112,"name":"phi","links":[{"attr":1,"data":102},{"attr":1,"data":101}]},{"id":113,"name":"phi","links":[{"attr":1,"data":104},{"attr":1,"data":103}]},{"id":114,"name":"phi","links":[{"attr":1,"data":106},{"attr":1,"data":105}]},{"id":119,"name":"phi","links":[{"attr":1,"data":121},{"attr":1,"data":107}]}],"membranes":[{"id":89,"name":"fork","atoms":[{"id":117,"name":"$in","links":[{"attr":0,"data":120},{"attr":0,"data":115}]},{"id":118,"name":"$in","links":[{"attr":0,"data":121},{"attr":0,"data":116}]},{"id":116,"name":"+","links":[{"attr":1,"data":118}]},{"id":115,"name":"-","links":[{"attr":1,"data":117}]}],"membranes":[]},{"id":84,"name":"fork","atoms":[{"id":85,"name":"$in","links":[{"attr":0,"data":96},{"attr":0,"data":87}]},{"id":86,"name":"$in","links":[{"attr":0,"data":97},{"attr":0,"data":88}]},{"id":87,"name":"+","links":[{"attr":1,"data":85}]},{"id":88,"name":"+","links":[{"attr":1,"data":86}]}],"membranes":[]},{"id":79,"name":"fork","atoms":[{"id":80,"name":"$in","links":[{"attr":0,"data":98},{"attr":0,"data":82}]},{"id":81,"name":"$in","links":[{"attr":0,"data":99},{"attr":0,"data":83}]},{"id":82,"name":"+","links":[{"attr":1,"data":80}]},{"id":83,"name":"+","links":[{"attr":1,"data":81}]}],"membranes":[]},{"id":74,"name":"fork","atoms":[{"id":75,"name":"$in","links":[{"attr":0,"data":100},{"attr":0,"data":77}]},{"id":76,"name":"$in","links":[{"attr":0,"data":101},{"attr":0,"data":78}]},{"id":77,"name":"+","links":[{"attr":1,"data":75}]},{"id":78,"name":"+","links":[{"attr":1,"data":76}]}],"membranes":[]},{"id":69,"name":"fork","atoms":[{"id":70,"name":"$in","links":[{"attr":0,"data":102},{"attr":0,"data":72}]},{"id":71,"name":"$in","links":[{"attr":0,"data":103},{"attr":0,"data":73}]},{"id":72,"name":"+","links":[{"attr":1,"data":70}]},{"id":73,"name":"+","links":[{"attr":1,"data":71}]}],"membranes":[]},{"id":64,"name":"fork","atoms":[{"id":65,"name":"$in","links":[{"attr":0,"data":104},{"attr":0,"data":68}]},{"id":66,"name":"$in","links":[{"attr":0,"data":105},{"attr":0,"data":67}]},{"id":67,"name":"+","links":[{"attr":1,"data":66}]},{"id":68,"name":"-","links":[{"attr":1,"data":65}]}],"membranes":[]},{"id":59,"name":"fork","atoms":[{"id":60,"name":"$in","links":[{"attr":0,"data":106},{"attr":0,"data":62}]},{"id":61,"name":"$in","links":[{"attr":0,"data":107},{"attr":0,"data":63}]},{"id":62,"name":"+","links":[{"attr":1,"data":60}]},{"id":63,"name":"-","links":[{"attr":1,"data":61}]}],"membranes":[]}]}
