Succ number Information
file:mc.c...func:run_mc...line:84
1
Parent Graph Information
file:mc.c...func:run_mc...line:88
{"id":1,"name":"","atoms":[],"membranes":[]}
Child Graph Information
file:mc.c...func:run_mc...line:102
{"id":1,"name":"","atoms":[{"id":4,"name":".","links":[{"attr":128,"data":5},{"attr":0,"data":3},{"attr":1,"data":5}]},{"id":5,"name":".","links":[{"attr":128,"data":4},{"attr":2,"data":4},{"attr":1,"data":6}]},{"id":6,"name":".","links":[{"attr":128,"data":3},{"attr":2,"data":5},{"attr":1,"data":7}]},{"id":7,"name":".","links":[{"attr":128,"data":2},{"attr":2,"data":6},{"attr":1,"data":8}]},{"id":8,"name":".","links":[{"attr":128,"data":1},{"attr":2,"data":7},{"attr":0,"data":12}]},{"id":10,"name":".","links":[{"attr":128,"data":7},{"attr":0,"data":9},{"attr":1,"data":11}]},{"id":11,"name":".","links":[{"attr":128,"data":6},{"attr":2,"data":10},{"attr":1,"data":12}]},{"id":3,"name":"[]","links":[{"attr":1,"data":4}]},{"id":9,"name":"[]","links":[{"attr":1,"data":10}]},{"id":2,"name":"ret","links":[{"attr":2,"data":12}]},{"id":12,"name":"append","links":[{"attr":2,"data":8},{"attr":2,"data":11},{"attr":0,"data":2}]}],"membranes":[]}
Parent State ID Information
file:mc.c...func:run_mc...line:106
0
Child State ID Information
file:mc.c...func:run_mc...line:109
1
Succ number Information
file:mc.c...func:mc_gen_successors...line:494
1
Parent Graph Information
file:mc.c...func:mc_gen_successors...line:498
{"id":13,"name":"","atoms":[{"id":14,"name":".","links":[{"attr":128,"data":1},{"attr":2,"data":15},{"attr":0,"data":24}]},{"id":15,"name":".","links":[{"attr":128,"data":2},{"attr":2,"data":16},{"attr":1,"data":14}]},{"id":16,"name":".","links":[{"attr":128,"data":3},{"attr":2,"data":17},{"attr":1,"data":15}]},{"id":17,"name":".","links":[{"attr":128,"data":4},{"attr":2,"data":18},{"attr":1,"data":16}]},{"id":18,"name":".","links":[{"attr":128,"data":5},{"attr":0,"data":21},{"attr":1,"data":17}]},{"id":19,"name":".","links":[{"attr":128,"data":6},{"attr":2,"data":20},{"attr":1,"data":24}]},{"id":20,"name":".","links":[{"attr":128,"data":7},{"attr":0,"data":22},{"attr":1,"data":19}]},{"id":21,"name":"[]","links":[{"attr":1,"data":18}]},{"id":22,"name":"[]","links":[{"attr":1,"data":20}]},{"id":23,"name":"ret","links":[{"attr":2,"data":24}]},{"id":24,"name":"append","links":[{"attr":2,"data":14},{"attr":2,"data":19},{"attr":0,"data":23}]}],"membranes":[]}
Child Graph Information
file:mc.c...func:mc_gen_successors...line:513
{"id":13,"name":"","atoms":[{"id":15,"name":".","links":[{"attr":128,"data":2},{"attr":2,"data":16},{"attr":0,"data":26}]},{"id":16,"name":".","links":[{"attr":128,"data":3},{"attr":2,"data":17},{"attr":1,"data":15}]},{"id":17,"name":".","links":[{"attr":128,"data":4},{"attr":2,"data":18},{"attr":1,"data":16}]},{"id":18,"name":".","links":[{"attr":128,"data":5},{"attr":0,"data":21},{"attr":1,"data":17}]},{"id":19,"name":".","links":[{"attr":128,"data":6},{"attr":2,"data":20},{"attr":1,"data":26}]},{"id":20,"name":".","links":[{"attr":128,"data":7},{"attr":0,"data":22},{"attr":1,"data":19}]},{"id":25,"name":".","links":[{"attr":128,"data":1},{"attr":2,"data":26},{"attr":0,"data":23}]},{"id":21,"name":"[]","links":[{"attr":1,"data":18}]},{"id":22,"name":"[]","links":[{"attr":1,"data":20}]},{"id":23,"name":"ret","links":[{"attr":2,"data":25}]},{"id":26,"name":"append","links":[{"attr":2,"data":15},{"attr":2,"data":19},{"attr":1,"data":25}]}],"membranes":[]}
Parent State ID Information
file:mc.c...func:mc_gen_successors...line:550
1
Child State ID Information
file:mc.c...func:mc_store_successors...line:415
2
Succ number Information
file:mc.c...func:mc_gen_successors...line:494
1
Parent Graph Information
file:mc.c...func:mc_gen_successors...line:498
{"id":13,"name":"","atoms":[{"id":14,"name":".","links":[{"attr":128,"data":2},{"attr":2,"data":15},{"attr":0,"data":24}]},{"id":15,"name":".","links":[{"attr":128,"data":3},{"attr":2,"data":16},{"attr":1,"data":14}]},{"id":16,"name":".","links":[{"attr":128,"data":4},{"attr":2,"data":17},{"attr":1,"data":15}]},{"id":17,"name":".","links":[{"attr":128,"data":5},{"attr":0,"data":21},{"attr":1,"data":16}]},{"id":18,"name":".","links":[{"attr":128,"data":6},{"attr":2,"data":19},{"attr":1,"data":24}]},{"id":19,"name":".","links":[{"attr":128,"data":7},{"attr":0,"data":22},{"attr":1,"data":18}]},{"id":20,"name":".","links":[{"attr":128,"data":1},{"attr":2,"data":24},{"attr":0,"data":23}]},{"id":21,"name":"[]","links":[{"attr":1,"data":17}]},{"id":22,"name":"[]","links":[{"attr":1,"data":19}]},{"id":23,"name":"ret","links":[{"attr":2,"data":20}]},{"id":24,"name":"append","links":[{"attr":2,"data":14},{"attr":2,"data":18},{"attr":1,"data":20}]}],"membranes":[]}
Child Graph Information
file:mc.c...func:mc_gen_successors...line:513
{"id":13,"name":"","atoms":[{"id":15,"name":".","links":[{"attr":128,"data":3},{"attr":2,"data":16},{"attr":0,"data":26}]},{"id":16,"name":".","links":[{"attr":128,"data":4},{"attr":2,"data":17},{"attr":1,"data":15}]},{"id":17,"name":".","links":[{"attr":128,"data":5},{"attr":0,"data":21},{"attr":1,"data":16}]},{"id":18,"name":".","links":[{"attr":128,"data":6},{"attr":2,"data":19},{"attr":1,"data":26}]},{"id":19,"name":".","links":[{"attr":128,"data":7},{"attr":0,"data":22},{"attr":1,"data":18}]},{"id":20,"name":".","links":[{"attr":128,"data":1},{"attr":2,"data":25},{"attr":0,"data":23}]},{"id":25,"name":".","links":[{"attr":128,"data":2},{"attr":2,"data":26},{"attr":1,"data":20}]},{"id":21,"name":"[]","links":[{"attr":1,"data":17}]},{"id":22,"name":"[]","links":[{"attr":1,"data":19}]},{"id":23,"name":"ret","links":[{"attr":2,"data":20}]},{"id":26,"name":"append","links":[{"attr":2,"data":15},{"attr":2,"data":18},{"attr":1,"data":25}]}],"membranes":[]}
Parent State ID Information
file:mc.c...func:mc_gen_successors...line:550
2
Child State ID Information
file:mc.c...func:mc_store_successors...line:415
3
Succ number Information
file:mc.c...func:mc_gen_successors...line:494
1
Parent Graph Information
file:mc.c...func:mc_gen_successors...line:498
{"id":13,"name":"","atoms":[{"id":14,"name":".","links":[{"attr":128,"data":3},{"attr":2,"data":15},{"attr":0,"data":24}]},{"id":15,"name":".","links":[{"attr":128,"data":4},{"attr":2,"data":16},{"attr":1,"data":14}]},{"id":16,"name":".","links":[{"attr":128,"data":5},{"attr":0,"data":21},{"attr":1,"data":15}]},{"id":17,"name":".","links":[{"attr":128,"data":6},{"attr":2,"data":18},{"attr":1,"data":24}]},{"id":18,"name":".","links":[{"attr":128,"data":7},{"attr":0,"data":22},{"attr":1,"data":17}]},{"id":19,"name":".","links":[{"attr":128,"data":2},{"attr":2,"data":24},{"attr":1,"data":20}]},{"id":20,"name":".","links":[{"attr":128,"data":1},{"attr":2,"data":19},{"attr":0,"data":23}]},{"id":21,"name":"[]","links":[{"attr":1,"data":16}]},{"id":22,"name":"[]","links":[{"attr":1,"data":18}]},{"id":23,"name":"ret","links":[{"attr":2,"data":20}]},{"id":24,"name":"append","links":[{"attr":2,"data":14},{"attr":2,"data":17},{"attr":1,"data":19}]}],"membranes":[]}
Child Graph Information
file:mc.c...func:mc_gen_successors...line:513
{"id":13,"name":"","atoms":[{"id":15,"name":".","links":[{"attr":128,"data":4},{"attr":2,"data":16},{"attr":0,"data":26}]},{"id":16,"name":".","links":[{"attr":128,"data":5},{"attr":0,"data":21},{"attr":1,"data":15}]},{"id":17,"name":".","links":[{"attr":128,"data":6},{"attr":2,"data":18},{"attr":1,"data":26}]},{"id":18,"name":".","links":[{"attr":128,"data":7},{"attr":0,"data":22},{"attr":1,"data":17}]},{"id":19,"name":".","links":[{"attr":128,"data":2},{"attr":2,"data":25},{"attr":1,"data":20}]},{"id":20,"name":".","links":[{"attr":128,"data":1},{"attr":2,"data":19},{"attr":0,"data":23}]},{"id":25,"name":".","links":[{"attr":128,"data":3},{"attr":2,"data":26},{"attr":1,"data":19}]},{"id":21,"name":"[]","links":[{"attr":1,"data":16}]},{"id":22,"name":"[]","links":[{"attr":1,"data":18}]},{"id":23,"name":"ret","links":[{"attr":2,"data":20}]},{"id":26,"name":"append","links":[{"attr":2,"data":15},{"attr":2,"data":17},{"attr":1,"data":25}]}],"membranes":[]}
Parent State ID Information
file:mc.c...func:mc_gen_successors...line:550
3
Child State ID Information
file:mc.c...func:mc_store_successors...line:415
4
Succ number Information
file:mc.c...func:mc_gen_successors...line:494
1
Parent Graph Information
file:mc.c...func:mc_gen_successors...line:498
{"id":13,"name":"","atoms":[{"id":14,"name":".","links":[{"attr":128,"data":4},{"attr":2,"data":15},{"attr":0,"data":24}]},{"id":15,"name":".","links":[{"attr":128,"data":5},{"attr":0,"data":21},{"attr":1,"data":14}]},{"id":16,"name":".","links":[{"attr":128,"data":6},{"attr":2,"data":17},{"attr":1,"data":24}]},{"id":17,"name":".","links":[{"attr":128,"data":7},{"attr":0,"data":22},{"attr":1,"data":16}]},{"id":18,"name":".","links":[{"attr":128,"data":3},{"attr":2,"data":24},{"attr":1,"data":19}]},{"id":19,"name":".","links":[{"attr":128,"data":2},{"attr":2,"data":18},{"attr":1,"data":20}]},{"id":20,"name":".","links":[{"attr":128,"data":1},{"attr":2,"data":19},{"attr":0,"data":23}]},{"id":21,"name":"[]","links":[{"attr":1,"data":15}]},{"id":22,"name":"[]","links":[{"attr":1,"data":17}]},{"id":23,"name":"ret","links":[{"attr":2,"data":20}]},{"id":24,"name":"append","links":[{"attr":2,"data":14},{"attr":2,"data":16},{"attr":1,"data":18}]}],"membranes":[]}
Child Graph Information
file:mc.c...func:mc_gen_successors...line:513
{"id":13,"name":"","atoms":[{"id":15,"name":".","links":[{"attr":128,"data":5},{"attr":0,"data":21},{"attr":0,"data":26}]},{"id":16,"name":".","links":[{"attr":128,"data":6},{"attr":2,"data":17},{"attr":1,"data":26}]},{"id":17,"name":".","links":[{"attr":128,"data":7},{"attr":0,"data":22},{"attr":1,"data":16}]},{"id":18,"name":".","links":[{"attr":128,"data":3},{"attr":2,"data":25},{"attr":1,"data":19}]},{"id":19,"name":".","links":[{"attr":128,"data":2},{"attr":2,"data":18},{"attr":1,"data":20}]},{"id":20,"name":".","links":[{"attr":128,"data":1},{"attr":2,"data":19},{"attr":0,"data":23}]},{"id":25,"name":".","links":[{"attr":128,"data":4},{"attr":2,"data":26},{"attr":1,"data":18}]},{"id":21,"name":"[]","links":[{"attr":1,"data":15}]},{"id":22,"name":"[]","links":[{"attr":1,"data":17}]},{"id":23,"name":"ret","links":[{"attr":2,"data":20}]},{"id":26,"name":"append","links":[{"attr":2,"data":15},{"attr":2,"data":16},{"attr":1,"data":25}]}],"membranes":[]}
Parent State ID Information
file:mc.c...func:mc_gen_successors...line:550
4
Child State ID Information
file:mc.c...func:mc_store_successors...line:415
5
Succ number Information
file:mc.c...func:mc_gen_successors...line:494
1
Parent Graph Information
file:mc.c...func:mc_gen_successors...line:498
{"id":13,"name":"","atoms":[{"id":14,"name":".","links":[{"attr":128,"data":5},{"attr":0,"data":21},{"attr":0,"data":24}]},{"id":15,"name":".","links":[{"attr":128,"data":6},{"attr":2,"data":16},{"attr":1,"data":24}]},{"id":16,"name":".","links":[{"attr":128,"data":7},{"attr":0,"data":22},{"attr":1,"data":15}]},{"id":17,"name":".","links":[{"attr":128,"data":4},{"attr":2,"data":24},{"attr":1,"data":18}]},{"id":18,"name":".","links":[{"attr":128,"data":3},{"attr":2,"data":17},{"attr":1,"data":19}]},{"id":19,"name":".","links":[{"attr":128,"data":2},{"attr":2,"data":18},{"attr":1,"data":20}]},{"id":20,"name":".","links":[{"attr":128,"data":1},{"attr":2,"data":19},{"attr":0,"data":23}]},{"id":21,"name":"[]","links":[{"attr":1,"data":14}]},{"id":22,"name":"[]","links":[{"attr":1,"data":16}]},{"id":23,"name":"ret","links":[{"attr":2,"data":20}]},{"id":24,"name":"append","links":[{"attr":2,"data":14},{"attr":2,"data":15},{"attr":1,"data":17}]}],"membranes":[]}
Child Graph Information
file:mc.c...func:mc_gen_successors...line:513
{"id":13,"name":"","atoms":[{"id":15,"name":".","links":[{"attr":128,"data":6},{"attr":2,"data":16},{"attr":1,"data":26}]},{"id":16,"name":".","links":[{"attr":128,"data":7},{"attr":0,"data":22},{"attr":1,"data":15}]},{"id":17,"name":".","links":[{"attr":128,"data":4},{"attr":2,"data":25},{"attr":1,"data":18}]},{"id":18,"name":".","links":[{"attr":128,"data":3},{"attr":2,"data":17},{"attr":1,"data":19}]},{"id":19,"name":".","links":[{"attr":128,"data":2},{"attr":2,"data":18},{"attr":1,"data":20}]},{"id":20,"name":".","links":[{"attr":128,"data":1},{"attr":2,"data":19},{"attr":0,"data":23}]},{"id":25,"name":".","links":[{"attr":128,"data":5},{"attr":2,"data":26},{"attr":1,"data":17}]},{"id":21,"name":"[]","links":[{"attr":0,"data":26}]},{"id":22,"name":"[]","links":[{"attr":1,"data":16}]},{"id":23,"name":"ret","links":[{"attr":2,"data":20}]},{"id":26,"name":"append","links":[{"attr":0,"data":21},{"attr":2,"data":15},{"attr":1,"data":25}]}],"membranes":[]}
Parent State ID Information
file:mc.c...func:mc_gen_successors...line:550
5
Child State ID Information
file:mc.c...func:mc_store_successors...line:415
6
Succ number Information
file:mc.c...func:mc_gen_successors...line:494
1
Parent Graph Information
file:mc.c...func:mc_gen_successors...line:498
{"id":13,"name":"","atoms":[{"id":14,"name":".","links":[{"attr":128,"data":6},{"attr":2,"data":15},{"attr":1,"data":24}]},{"id":15,"name":".","links":[{"attr":128,"data":7},{"attr":0,"data":22},{"attr":1,"data":14}]},{"id":16,"name":".","links":[{"attr":128,"data":5},{"attr":2,"data":24},{"attr":1,"data":17}]},{"id":17,"name":".","links":[{"attr":128,"data":4},{"attr":2,"data":16},{"attr":1,"data":18}]},{"id":18,"name":".","links":[{"attr":128,"data":3},{"attr":2,"data":17},{"attr":1,"data":19}]},{"id":19,"name":".","links":[{"attr":128,"data":2},{"attr":2,"data":18},{"attr":1,"data":20}]},{"id":20,"name":".","links":[{"attr":128,"data":1},{"attr":2,"data":19},{"attr":0,"data":23}]},{"id":21,"name":"[]","links":[{"attr":0,"data":24}]},{"id":22,"name":"[]","links":[{"attr":1,"data":15}]},{"id":23,"name":"ret","links":[{"attr":2,"data":20}]},{"id":24,"name":"append","links":[{"attr":0,"data":21},{"attr":2,"data":14},{"attr":1,"data":16}]}],"membranes":[]}
Child Graph Information
file:mc.c...func:mc_gen_successors...line:513
{"id":13,"name":"","atoms":[{"id":14,"name":".","links":[{"attr":128,"data":6},{"attr":2,"data":15},{"attr":1,"data":16}]},{"id":15,"name":".","links":[{"attr":128,"data":7},{"attr":0,"data":22},{"attr":1,"data":14}]},{"id":16,"name":".","links":[{"attr":128,"data":5},{"attr":2,"data":14},{"attr":1,"data":17}]},{"id":17,"name":".","links":[{"attr":128,"data":4},{"attr":2,"data":16},{"attr":1,"data":18}]},{"id":18,"name":".","links":[{"attr":128,"data":3},{"attr":2,"data":17},{"attr":1,"data":19}]},{"id":19,"name":".","links":[{"attr":128,"data":2},{"attr":2,"data":18},{"attr":1,"data":20}]},{"id":20,"name":".","links":[{"attr":128,"data":1},{"attr":2,"data":19},{"attr":0,"data":23}]},{"id":22,"name":"[]","links":[{"attr":1,"data":15}]},{"id":23,"name":"ret","links":[{"attr":2,"data":20}]}],"membranes":[]}
Parent State ID Information
file:mc.c...func:mc_gen_successors...line:550
6
Child State ID Information
file:mc.c...func:mc_store_successors...line:415
7
Succ number Information
file:mc.c...func:mc_gen_successors...line:494
0
Parent Graph Information
file:mc.c...func:mc_gen_successors...line:498
{"id":11,"name":"","atoms":[{"id":12,"name":".","links":[{"attr":128,"data":1},{"attr":2,"data":13},{"attr":0,"data":20}]},{"id":13,"name":".","links":[{"attr":128,"data":2},{"attr":2,"data":14},{"attr":1,"data":12}]},{"id":14,"name":".","links":[{"attr":128,"data":3},{"attr":2,"data":15},{"attr":1,"data":13}]},{"id":15,"name":".","links":[{"attr":128,"data":4},{"attr":2,"data":16},{"attr":1,"data":14}]},{"id":16,"name":".","links":[{"attr":128,"data":5},{"attr":2,"data":17},{"attr":1,"data":15}]},{"id":17,"name":".","links":[{"attr":128,"data":6},{"attr":2,"data":18},{"attr":1,"data":16}]},{"id":18,"name":".","links":[{"attr":128,"data":7},{"attr":0,"data":19},{"attr":1,"data":17}]},{"id":19,"name":"[]","links":[{"attr":1,"data":18}]},{"id":20,"name":"ret","links":[{"attr":2,"data":12}]}],"membranes":[]}
Parent State ID Information
file:mc.c...func:mc_gen_successors...line:550
7
0 : exit (total expand=0)
'# of States'(stored)   = 7.
'# of States'(end)      = 1.
