Succ number Information
file:mc.c...func:run_mc...line:83
1
Parent Graph Information
file:mc.c...func:run_mc...line:87
{"id":1,"name":"","atoms":[],"membranes":[]}
Child Graph Information
file:mc.c...func:run_mc...line:101
{"id":1,"name":"","atoms":[{"id":26,"name":"$out","links":[{"attr":0,"data":8},{"attr":0,"data":23}]},{"id":27,"name":"$out","links":[{"attr":0,"data":9},{"attr":1,"data":22}]},{"id":28,"name":"$out","links":[{"attr":0,"data":12},{"attr":1,"data":23}]},{"id":29,"name":"$out","links":[{"attr":0,"data":13},{"attr":0,"data":24}]},{"id":30,"name":"$out","links":[{"attr":0,"data":16},{"attr":1,"data":24}]},{"id":31,"name":"$out","links":[{"attr":0,"data":17},{"attr":0,"data":25}]},{"id":32,"name":"$out","links":[{"attr":0,"data":20},{"attr":1,"data":25}]},{"id":33,"name":"$out","links":[{"attr":0,"data":21},{"attr":0,"data":22}]},{"id":22,"name":"phi","links":[{"attr":1,"data":33},{"attr":1,"data":27}]},{"id":23,"name":"phi","links":[{"attr":1,"data":26},{"attr":1,"data":28}]},{"id":24,"name":"phi","links":[{"attr":1,"data":29},{"attr":1,"data":30}]},{"id":25,"name":"phi","links":[{"attr":1,"data":31},{"attr":1,"data":32}]}],"membranes":[{"id":5,"name":"fork","atoms":[{"id":20,"name":"$in","links":[{"attr":0,"data":32},{"attr":0,"data":18}]},{"id":21,"name":"$in","links":[{"attr":0,"data":33},{"attr":0,"data":19}]},{"id":18,"name":"+","links":[{"attr":1,"data":20}]},{"id":19,"name":"+","links":[{"attr":1,"data":21}]}],"membranes":[]},{"id":4,"name":"fork","atoms":[{"id":16,"name":"$in","links":[{"attr":0,"data":30},{"attr":0,"data":14}]},{"id":17,"name":"$in","links":[{"attr":0,"data":31},{"attr":0,"data":15}]},{"id":14,"name":"+","links":[{"attr":1,"data":16}]},{"id":15,"name":"+","links":[{"attr":1,"data":17}]}],"membranes":[]},{"id":3,"name":"fork","atoms":[{"id":12,"name":"$in","links":[{"attr":0,"data":28},{"attr":0,"data":10}]},{"id":13,"name":"$in","links":[{"attr":0,"data":29},{"attr":0,"data":11}]},{"id":10,"name":"+","links":[{"attr":1,"data":12}]},{"id":11,"name":"-","links":[{"attr":1,"data":13}]}],"membranes":[]},{"id":2,"name":"fork","atoms":[{"id":8,"name":"$in","links":[{"attr":0,"data":26},{"attr":0,"data":7}]},{"id":9,"name":"$in","links":[{"attr":0,"data":27},{"attr":0,"data":6}]},{"id":7,"name":"+","links":[{"attr":1,"data":8}]},{"id":6,"name":"-","links":[{"attr":1,"data":9}]}],"membranes":[]}]}
Parent State ID Information
file:mc.c...func:run_mc...line:105
0
Child State ID Information
file:mc.c...func:run_mc...line:108
1
Succ number Information
file:mc.c...func:mc_gen_successors...line:514
3
Parent Graph Information
file:mc.c...func:mc_gen_successors...line:518
{"id":34,"name":"","atoms":[{"id":55,"name":"$out","links":[{"attr":0,"data":51},{"attr":0,"data":63}]},{"id":56,"name":"$out","links":[{"attr":0,"data":52},{"attr":1,"data":64}]},{"id":57,"name":"$out","links":[{"attr":0,"data":46},{"attr":0,"data":64}]},{"id":58,"name":"$out","links":[{"attr":0,"data":47},{"attr":1,"data":65}]},{"id":59,"name":"$out","links":[{"attr":0,"data":41},{"attr":0,"data":65}]},{"id":60,"name":"$out","links":[{"attr":0,"data":42},{"attr":1,"data":66}]},{"id":61,"name":"$out","links":[{"attr":0,"data":36},{"attr":0,"data":66}]},{"id":62,"name":"$out","links":[{"attr":0,"data":37},{"attr":1,"data":63}]},{"id":63,"name":"phi","links":[{"attr":1,"data":55},{"attr":1,"data":62}]},{"id":64,"name":"phi","links":[{"attr":1,"data":57},{"attr":1,"data":56}]},{"id":65,"name":"phi","links":[{"attr":1,"data":59},{"attr":1,"data":58}]},{"id":66,"name":"phi","links":[{"attr":1,"data":61},{"attr":1,"data":60}]}],"membranes":[{"id":50,"name":"fork","atoms":[{"id":51,"name":"$in","links":[{"attr":0,"data":55},{"attr":0,"data":53}]},{"id":52,"name":"$in","links":[{"attr":0,"data":56},{"attr":0,"data":54}]},{"id":53,"name":"+","links":[{"attr":1,"data":51}]},{"id":54,"name":"+","links":[{"attr":1,"data":52}]}],"membranes":[]},{"id":45,"name":"fork","atoms":[{"id":46,"name":"$in","links":[{"attr":0,"data":57},{"attr":0,"data":48}]},{"id":47,"name":"$in","links":[{"attr":0,"data":58},{"attr":0,"data":49}]},{"id":48,"name":"+","links":[{"attr":1,"data":46}]},{"id":49,"name":"+","links":[{"attr":1,"data":47}]}],"membranes":[]},{"id":40,"name":"fork","atoms":[{"id":41,"name":"$in","links":[{"attr":0,"data":59},{"attr":0,"data":44}]},{"id":42,"name":"$in","links":[{"attr":0,"data":60},{"attr":0,"data":43}]},{"id":43,"name":"+","links":[{"attr":1,"data":42}]},{"id":44,"name":"-","links":[{"attr":1,"data":41}]}],"membranes":[]},{"id":35,"name":"fork","atoms":[{"id":36,"name":"$in","links":[{"attr":0,"data":61},{"attr":0,"data":38}]},{"id":37,"name":"$in","links":[{"attr":0,"data":62},{"attr":0,"data":39}]},{"id":38,"name":"+","links":[{"attr":1,"data":36}]},{"id":39,"name":"-","links":[{"attr":1,"data":37}]}],"membranes":[]}]}
Child Graph Information
file:mc.c...func:mc_gen_successors...line:533
{"id":34,"name":"","atoms":[{"id":57,"name":"$out","links":[{"attr":0,"data":46},{"attr":0,"data":64}]},{"id":58,"name":"$out","links":[{"attr":0,"data":47},{"attr":1,"data":65}]},{"id":59,"name":"$out","links":[{"attr":0,"data":41},{"attr":0,"data":65}]},{"id":60,"name":"$out","links":[{"attr":0,"data":42},{"attr":1,"data":66}]},{"id":61,"name":"$out","links":[{"attr":0,"data":36},{"attr":0,"data":66}]},{"id":62,"name":"$out","links":[{"attr":0,"data":37},{"attr":1,"data":71}]},{"id":72,"name":"$out","links":[{"attr":0,"data":69},{"attr":1,"data":64}]},{"id":73,"name":"$out","links":[{"attr":0,"data":70},{"attr":0,"data":71}]},{"id":64,"name":"phi","links":[{"attr":1,"data":57},{"attr":1,"data":72}]},{"id":65,"name":"phi","links":[{"attr":1,"data":59},{"attr":1,"data":58}]},{"id":66,"name":"phi","links":[{"attr":1,"data":61},{"attr":1,"data":60}]},{"id":71,"name":"phi","links":[{"attr":1,"data":73},{"attr":1,"data":62}]}],"membranes":[{"id":50,"name":"fork","atoms":[{"id":69,"name":"$in","links":[{"attr":0,"data":72},{"attr":0,"data":67}]},{"id":70,"name":"$in","links":[{"attr":0,"data":73},{"attr":0,"data":68}]},{"id":68,"name":"+","links":[{"attr":1,"data":70}]},{"id":67,"name":"-","links":[{"attr":1,"data":69}]}],"membranes":[]},{"id":45,"name":"fork","atoms":[{"id":46,"name":"$in","links":[{"attr":0,"data":57},{"attr":0,"data":48}]},{"id":47,"name":"$in","links":[{"attr":0,"data":58},{"attr":0,"data":49}]},{"id":48,"name":"+","links":[{"attr":1,"data":46}]},{"id":49,"name":"+","links":[{"attr":1,"data":47}]}],"membranes":[]},{"id":40,"name":"fork","atoms":[{"id":41,"name":"$in","links":[{"attr":0,"data":59},{"attr":0,"data":44}]},{"id":42,"name":"$in","links":[{"attr":0,"data":60},{"attr":0,"data":43}]},{"id":43,"name":"+","links":[{"attr":1,"data":42}]},{"id":44,"name":"-","links":[{"attr":1,"data":41}]}],"membranes":[]},{"id":35,"name":"fork","atoms":[{"id":36,"name":"$in","links":[{"attr":0,"data":61},{"attr":0,"data":38}]},{"id":37,"name":"$in","links":[{"attr":0,"data":62},{"attr":0,"data":39}]},{"id":38,"name":"+","links":[{"attr":1,"data":36}]},{"id":39,"name":"-","links":[{"attr":1,"data":37}]}],"membranes":[]}]}
Child Graph Information
file:mc.c...func:mc_gen_successors...line:533
{"id":34,"name":"","atoms":[{"id":55,"name":"$out","links":[{"attr":0,"data":51},{"attr":0,"data":63}]},{"id":56,"name":"$out","links":[{"attr":0,"data":52},{"attr":1,"data":71}]},{"id":59,"name":"$out","links":[{"attr":0,"data":41},{"attr":0,"data":65}]},{"id":60,"name":"$out","links":[{"attr":0,"data":42},{"attr":1,"data":66}]},{"id":61,"name":"$out","links":[{"attr":0,"data":36},{"attr":0,"data":66}]},{"id":62,"name":"$out","links":[{"attr":0,"data":37},{"attr":1,"data":63}]},{"id":72,"name":"$out","links":[{"attr":0,"data":69},{"attr":1,"data":65}]},{"id":73,"name":"$out","links":[{"attr":0,"data":70},{"attr":0,"data":71}]},{"id":63,"name":"phi","links":[{"attr":1,"data":55},{"attr":1,"data":62}]},{"id":65,"name":"phi","links":[{"attr":1,"data":59},{"attr":1,"data":72}]},{"id":66,"name":"phi","links":[{"attr":1,"data":61},{"attr":1,"data":60}]},{"id":71,"name":"phi","links":[{"attr":1,"data":73},{"attr":1,"data":56}]}],"membranes":[{"id":50,"name":"fork","atoms":[{"id":51,"name":"$in","links":[{"attr":0,"data":55},{"attr":0,"data":53}]},{"id":52,"name":"$in","links":[{"attr":0,"data":56},{"attr":0,"data":54}]},{"id":53,"name":"+","links":[{"attr":1,"data":51}]},{"id":54,"name":"+","links":[{"attr":1,"data":52}]}],"membranes":[]},{"id":45,"name":"fork","atoms":[{"id":69,"name":"$in","links":[{"attr":0,"data":72},{"attr":0,"data":67}]},{"id":70,"name":"$in","links":[{"attr":0,"data":73},{"attr":0,"data":68}]},{"id":68,"name":"+","links":[{"attr":1,"data":70}]},{"id":67,"name":"-","links":[{"attr":1,"data":69}]}],"membranes":[]},{"id":40,"name":"fork","atoms":[{"id":41,"name":"$in","links":[{"attr":0,"data":59},{"attr":0,"data":44}]},{"id":42,"name":"$in","links":[{"attr":0,"data":60},{"attr":0,"data":43}]},{"id":43,"name":"+","links":[{"attr":1,"data":42}]},{"id":44,"name":"-","links":[{"attr":1,"data":41}]}],"membranes":[]},{"id":35,"name":"fork","atoms":[{"id":36,"name":"$in","links":[{"attr":0,"data":61},{"attr":0,"data":38}]},{"id":37,"name":"$in","links":[{"attr":0,"data":62},{"attr":0,"data":39}]},{"id":38,"name":"+","links":[{"attr":1,"data":36}]},{"id":39,"name":"-","links":[{"attr":1,"data":37}]}],"membranes":[]}]}
Child Graph Information
file:mc.c...func:mc_gen_successors...line:533
{"id":34,"name":"","atoms":[{"id":55,"name":"$out","links":[{"attr":0,"data":51},{"attr":0,"data":63}]},{"id":56,"name":"$out","links":[{"attr":0,"data":52},{"attr":1,"data":64}]},{"id":57,"name":"$out","links":[{"attr":0,"data":46},{"attr":0,"data":64}]},{"id":58,"name":"$out","links":[{"attr":0,"data":47},{"attr":1,"data":65}]},{"id":76,"name":"$out","links":[{"attr":0,"data":69},{"attr":1,"data":63}]},{"id":77,"name":"$out","links":[{"attr":0,"data":70},{"attr":0,"data":75}]},{"id":78,"name":"$out","links":[{"attr":0,"data":73},{"attr":1,"data":75}]},{"id":79,"name":"$out","links":[{"attr":0,"data":74},{"attr":0,"data":65}]},{"id":63,"name":"phi","links":[{"attr":1,"data":55},{"attr":1,"data":76}]},{"id":64,"name":"phi","links":[{"attr":1,"data":57},{"attr":1,"data":56}]},{"id":65,"name":"phi","links":[{"attr":1,"data":79},{"attr":1,"data":58}]},{"id":75,"name":"phi","links":[{"attr":1,"data":77},{"attr":1,"data":78}]}],"membranes":[{"id":50,"name":"fork","atoms":[{"id":51,"name":"$in","links":[{"attr":0,"data":55},{"attr":0,"data":53}]},{"id":52,"name":"$in","links":[{"attr":0,"data":56},{"attr":0,"data":54}]},{"id":53,"name":"+","links":[{"attr":1,"data":51}]},{"id":54,"name":"+","links":[{"attr":1,"data":52}]}],"membranes":[]},{"id":45,"name":"fork","atoms":[{"id":46,"name":"$in","links":[{"attr":0,"data":57},{"attr":0,"data":48}]},{"id":47,"name":"$in","links":[{"attr":0,"data":58},{"attr":0,"data":49}]},{"id":48,"name":"+","links":[{"attr":1,"data":46}]},{"id":49,"name":"+","links":[{"attr":1,"data":47}]}],"membranes":[]},{"id":40,"name":"fork","atoms":[{"id":73,"name":"$in","links":[{"attr":0,"data":78},{"attr":0,"data":71}]},{"id":74,"name":"$in","links":[{"attr":0,"data":79},{"attr":0,"data":72}]},{"id":71,"name":"+","links":[{"attr":1,"data":73}]},{"id":72,"name":"+","links":[{"attr":1,"data":74}]}],"membranes":[]},{"id":35,"name":"fork","atoms":[{"id":69,"name":"$in","links":[{"attr":0,"data":76},{"attr":0,"data":67}]},{"id":70,"name":"$in","links":[{"attr":0,"data":77},{"attr":0,"data":68}]},{"id":67,"name":"+","links":[{"attr":1,"data":69}]},{"id":68,"name":"+","links":[{"attr":1,"data":70}]}],"membranes":[]}]}
Parent State ID Information
file:mc.c...func:mc_gen_successors...line:571
1
Succ number Information
file:mc.c...func:mc_gen_successors...line:514
4
Parent Graph Information
file:mc.c...func:mc_gen_successors...line:518
{"id":34,"name":"","atoms":[{"id":55,"name":"$out","links":[{"attr":0,"data":51},{"attr":0,"data":63}]},{"id":56,"name":"$out","links":[{"attr":0,"data":52},{"attr":1,"data":64}]},{"id":57,"name":"$out","links":[{"attr":0,"data":46},{"attr":0,"data":64}]},{"id":58,"name":"$out","links":[{"attr":0,"data":47},{"attr":1,"data":65}]},{"id":59,"name":"$out","links":[{"attr":0,"data":41},{"attr":0,"data":65}]},{"id":60,"name":"$out","links":[{"attr":0,"data":42},{"attr":1,"data":66}]},{"id":61,"name":"$out","links":[{"attr":0,"data":36},{"attr":0,"data":66}]},{"id":62,"name":"$out","links":[{"attr":0,"data":37},{"attr":1,"data":63}]},{"id":63,"name":"phi","links":[{"attr":1,"data":55},{"attr":1,"data":62}]},{"id":64,"name":"phi","links":[{"attr":1,"data":57},{"attr":1,"data":56}]},{"id":65,"name":"phi","links":[{"attr":1,"data":59},{"attr":1,"data":58}]},{"id":66,"name":"phi","links":[{"attr":1,"data":61},{"attr":1,"data":60}]}],"membranes":[{"id":50,"name":"fork","atoms":[{"id":51,"name":"$in","links":[{"attr":0,"data":55},{"attr":0,"data":53}]},{"id":52,"name":"$in","links":[{"attr":0,"data":56},{"attr":0,"data":54}]},{"id":53,"name":"+","links":[{"attr":1,"data":51}]},{"id":54,"name":"+","links":[{"attr":1,"data":52}]}],"membranes":[]},{"id":45,"name":"fork","atoms":[{"id":46,"name":"$in","links":[{"attr":0,"data":57},{"attr":0,"data":48}]},{"id":47,"name":"$in","links":[{"attr":0,"data":58},{"attr":0,"data":49}]},{"id":48,"name":"+","links":[{"attr":1,"data":46}]},{"id":49,"name":"+","links":[{"attr":1,"data":47}]}],"membranes":[]},{"id":40,"name":"fork","atoms":[{"id":41,"name":"$in","links":[{"attr":0,"data":59},{"attr":0,"data":43}]},{"id":42,"name":"$in","links":[{"attr":0,"data":60},{"attr":0,"data":44}]},{"id":43,"name":"+","links":[{"attr":1,"data":41}]},{"id":44,"name":"+","links":[{"attr":1,"data":42}]}],"membranes":[]},{"id":35,"name":"fork","atoms":[{"id":36,"name":"$in","links":[{"attr":0,"data":61},{"attr":0,"data":38}]},{"id":37,"name":"$in","links":[{"attr":0,"data":62},{"attr":0,"data":39}]},{"id":38,"name":"+","links":[{"attr":1,"data":36}]},{"id":39,"name":"+","links":[{"attr":1,"data":37}]}],"membranes":[]}]}
Child Graph Information
file:mc.c...func:mc_gen_successors...line:533
{"id":34,"name":"","atoms":[{"id":57,"name":"$out","links":[{"attr":0,"data":46},{"attr":0,"data":64}]},{"id":58,"name":"$out","links":[{"attr":0,"data":47},{"attr":1,"data":65}]},{"id":59,"name":"$out","links":[{"attr":0,"data":41},{"attr":0,"data":65}]},{"id":60,"name":"$out","links":[{"attr":0,"data":42},{"attr":1,"data":66}]},{"id":61,"name":"$out","links":[{"attr":0,"data":36},{"attr":0,"data":66}]},{"id":62,"name":"$out","links":[{"attr":0,"data":37},{"attr":1,"data":71}]},{"id":72,"name":"$out","links":[{"attr":0,"data":69},{"attr":1,"data":64}]},{"id":73,"name":"$out","links":[{"attr":0,"data":70},{"attr":0,"data":71}]},{"id":64,"name":"phi","links":[{"attr":1,"data":57},{"attr":1,"data":72}]},{"id":65,"name":"phi","links":[{"attr":1,"data":59},{"attr":1,"data":58}]},{"id":66,"name":"phi","links":[{"attr":1,"data":61},{"attr":1,"data":60}]},{"id":71,"name":"phi","links":[{"attr":1,"data":73},{"attr":1,"data":62}]}],"membranes":[{"id":50,"name":"fork","atoms":[{"id":69,"name":"$in","links":[{"attr":0,"data":72},{"attr":0,"data":67}]},{"id":70,"name":"$in","links":[{"attr":0,"data":73},{"attr":0,"data":68}]},{"id":68,"name":"+","links":[{"attr":1,"data":70}]},{"id":67,"name":"-","links":[{"attr":1,"data":69}]}],"membranes":[]},{"id":45,"name":"fork","atoms":[{"id":46,"name":"$in","links":[{"attr":0,"data":57},{"attr":0,"data":48}]},{"id":47,"name":"$in","links":[{"attr":0,"data":58},{"attr":0,"data":49}]},{"id":48,"name":"+","links":[{"attr":1,"data":46}]},{"id":49,"name":"+","links":[{"attr":1,"data":47}]}],"membranes":[]},{"id":40,"name":"fork","atoms":[{"id":41,"name":"$in","links":[{"attr":0,"data":59},{"attr":0,"data":43}]},{"id":42,"name":"$in","links":[{"attr":0,"data":60},{"attr":0,"data":44}]},{"id":43,"name":"+","links":[{"attr":1,"data":41}]},{"id":44,"name":"+","links":[{"attr":1,"data":42}]}],"membranes":[]},{"id":35,"name":"fork","atoms":[{"id":36,"name":"$in","links":[{"attr":0,"data":61},{"attr":0,"data":38}]},{"id":37,"name":"$in","links":[{"attr":0,"data":62},{"attr":0,"data":39}]},{"id":38,"name":"+","links":[{"attr":1,"data":36}]},{"id":39,"name":"+","links":[{"attr":1,"data":37}]}],"membranes":[]}]}
Child Graph Information
file:mc.c...func:mc_gen_successors...line:533
{"id":34,"name":"","atoms":[{"id":55,"name":"$out","links":[{"attr":0,"data":51},{"attr":0,"data":63}]},{"id":56,"name":"$out","links":[{"attr":0,"data":52},{"attr":1,"data":71}]},{"id":59,"name":"$out","links":[{"attr":0,"data":41},{"attr":0,"data":65}]},{"id":60,"name":"$out","links":[{"attr":0,"data":42},{"attr":1,"data":66}]},{"id":61,"name":"$out","links":[{"attr":0,"data":36},{"attr":0,"data":66}]},{"id":62,"name":"$out","links":[{"attr":0,"data":37},{"attr":1,"data":63}]},{"id":72,"name":"$out","links":[{"attr":0,"data":69},{"attr":1,"data":65}]},{"id":73,"name":"$out","links":[{"attr":0,"data":70},{"attr":0,"data":71}]},{"id":63,"name":"phi","links":[{"attr":1,"data":55},{"attr":1,"data":62}]},{"id":65,"name":"phi","links":[{"attr":1,"data":59},{"attr":1,"data":72}]},{"id":66,"name":"phi","links":[{"attr":1,"data":61},{"attr":1,"data":60}]},{"id":71,"name":"phi","links":[{"attr":1,"data":73},{"attr":1,"data":56}]}],"membranes":[{"id":50,"name":"fork","atoms":[{"id":51,"name":"$in","links":[{"attr":0,"data":55},{"attr":0,"data":53}]},{"id":52,"name":"$in","links":[{"attr":0,"data":56},{"attr":0,"data":54}]},{"id":53,"name":"+","links":[{"attr":1,"data":51}]},{"id":54,"name":"+","links":[{"attr":1,"data":52}]}],"membranes":[]},{"id":45,"name":"fork","atoms":[{"id":69,"name":"$in","links":[{"attr":0,"data":72},{"attr":0,"data":67}]},{"id":70,"name":"$in","links":[{"attr":0,"data":73},{"attr":0,"data":68}]},{"id":68,"name":"+","links":[{"attr":1,"data":70}]},{"id":67,"name":"-","links":[{"attr":1,"data":69}]}],"membranes":[]},{"id":40,"name":"fork","atoms":[{"id":41,"name":"$in","links":[{"attr":0,"data":59},{"attr":0,"data":43}]},{"id":42,"name":"$in","links":[{"attr":0,"data":60},{"attr":0,"data":44}]},{"id":43,"name":"+","links":[{"attr":1,"data":41}]},{"id":44,"name":"+","links":[{"attr":1,"data":42}]}],"membranes":[]},{"id":35,"name":"fork","atoms":[{"id":36,"name":"$in","links":[{"attr":0,"data":61},{"attr":0,"data":38}]},{"id":37,"name":"$in","links":[{"attr":0,"data":62},{"attr":0,"data":39}]},{"id":38,"name":"+","links":[{"attr":1,"data":36}]},{"id":39,"name":"+","links":[{"attr":1,"data":37}]}],"membranes":[]}]}
Child Graph Information
file:mc.c...func:mc_gen_successors...line:533
{"id":34,"name":"","atoms":[{"id":55,"name":"$out","links":[{"attr":0,"data":51},{"attr":0,"data":63}]},{"id":56,"name":"$out","links":[{"attr":0,"data":52},{"attr":1,"data":64}]},{"id":57,"name":"$out","links":[{"attr":0,"data":46},{"attr":0,"data":64}]},{"id":58,"name":"$out","links":[{"attr":0,"data":47},{"attr":1,"data":71}]},{"id":61,"name":"$out","links":[{"attr":0,"data":36},{"attr":0,"data":66}]},{"id":62,"name":"$out","links":[{"attr":0,"data":37},{"attr":1,"data":63}]},{"id":72,"name":"$out","links":[{"attr":0,"data":69},{"attr":1,"data":66}]},{"id":73,"name":"$out","links":[{"attr":0,"data":70},{"attr":0,"data":71}]},{"id":63,"name":"phi","links":[{"attr":1,"data":55},{"attr":1,"data":62}]},{"id":64,"name":"phi","links":[{"attr":1,"data":57},{"attr":1,"data":56}]},{"id":66,"name":"phi","links":[{"attr":1,"data":61},{"attr":1,"data":72}]},{"id":71,"name":"phi","links":[{"attr":1,"data":73},{"attr":1,"data":58}]}],"membranes":[{"id":50,"name":"fork","atoms":[{"id":51,"name":"$in","links":[{"attr":0,"data":55},{"attr":0,"data":53}]},{"id":52,"name":"$in","links":[{"attr":0,"data":56},{"attr":0,"data":54}]},{"id":53,"name":"+","links":[{"attr":1,"data":51}]},{"id":54,"name":"+","links":[{"attr":1,"data":52}]}],"membranes":[]},{"id":45,"name":"fork","atoms":[{"id":46,"name":"$in","links":[{"attr":0,"data":57},{"attr":0,"data":48}]},{"id":47,"name":"$in","links":[{"attr":0,"data":58},{"attr":0,"data":49}]},{"id":48,"name":"+","links":[{"attr":1,"data":46}]},{"id":49,"name":"+","links":[{"attr":1,"data":47}]}],"membranes":[]},{"id":40,"name":"fork","atoms":[{"id":69,"name":"$in","links":[{"attr":0,"data":72},{"attr":0,"data":67}]},{"id":70,"name":"$in","links":[{"attr":0,"data":73},{"attr":0,"data":68}]},{"id":68,"name":"+","links":[{"attr":1,"data":70}]},{"id":67,"name":"-","links":[{"attr":1,"data":69}]}],"membranes":[]},{"id":35,"name":"fork","atoms":[{"id":36,"name":"$in","links":[{"attr":0,"data":61},{"attr":0,"data":38}]},{"id":37,"name":"$in","links":[{"attr":0,"data":62},{"attr":0,"data":39}]},{"id":38,"name":"+","links":[{"attr":1,"data":36}]},{"id":39,"name":"+","links":[{"attr":1,"data":37}]}],"membranes":[]}]}
Child Graph Information
file:mc.c...func:mc_gen_successors...line:533
{"id":34,"name":"","atoms":[{"id":55,"name":"$out","links":[{"attr":0,"data":51},{"attr":0,"data":63}]},{"id":56,"name":"$out","links":[{"attr":0,"data":52},{"attr":1,"data":64}]},{"id":57,"name":"$out","links":[{"attr":0,"data":46},{"attr":0,"data":64}]},{"id":58,"name":"$out","links":[{"attr":0,"data":47},{"attr":1,"data":65}]},{"id":59,"name":"$out","links":[{"attr":0,"data":41},{"attr":0,"data":65}]},{"id":60,"name":"$out","links":[{"attr":0,"data":42},{"attr":1,"data":71}]},{"id":72,"name":"$out","links":[{"attr":0,"data":69},{"attr":1,"data":63}]},{"id":73,"name":"$out","links":[{"attr":0,"data":70},{"attr":0,"data":71}]},{"id":63,"name":"phi","links":[{"attr":1,"data":55},{"attr":1,"data":72}]},{"id":64,"name":"phi","links":[{"attr":1,"data":57},{"attr":1,"data":56}]},{"id":65,"name":"phi","links":[{"attr":1,"data":59},{"attr":1,"data":58}]},{"id":71,"name":"phi","links":[{"attr":1,"data":73},{"attr":1,"data":60}]}],"membranes":[{"id":50,"name":"fork","atoms":[{"id":51,"name":"$in","links":[{"attr":0,"data":55},{"attr":0,"data":53}]},{"id":52,"name":"$in","links":[{"attr":0,"data":56},{"attr":0,"data":54}]},{"id":53,"name":"+","links":[{"attr":1,"data":51}]},{"id":54,"name":"+","links":[{"attr":1,"data":52}]}],"membranes":[]},{"id":45,"name":"fork","atoms":[{"id":46,"name":"$in","links":[{"attr":0,"data":57},{"attr":0,"data":48}]},{"id":47,"name":"$in","links":[{"attr":0,"data":58},{"attr":0,"data":49}]},{"id":48,"name":"+","links":[{"attr":1,"data":46}]},{"id":49,"name":"+","links":[{"attr":1,"data":47}]}],"membranes":[]},{"id":40,"name":"fork","atoms":[{"id":41,"name":"$in","links":[{"attr":0,"data":59},{"attr":0,"data":43}]},{"id":42,"name":"$in","links":[{"attr":0,"data":60},{"attr":0,"data":44}]},{"id":43,"name":"+","links":[{"attr":1,"data":41}]},{"id":44,"name":"+","links":[{"attr":1,"data":42}]}],"membranes":[]},{"id":35,"name":"fork","atoms":[{"id":69,"name":"$in","links":[{"attr":0,"data":72},{"attr":0,"data":67}]},{"id":70,"name":"$in","links":[{"attr":0,"data":73},{"attr":0,"data":68}]},{"id":68,"name":"+","links":[{"attr":1,"data":70}]},{"id":67,"name":"-","links":[{"attr":1,"data":69}]}],"membranes":[]}]}
Parent State ID Information
file:mc.c...func:mc_gen_successors...line:571
4
Succ number Information
file:mc.c...func:mc_gen_successors...line:514
4
Parent Graph Information
file:mc.c...func:mc_gen_successors...line:518
{"id":34,"name":"","atoms":[{"id":55,"name":"$out","links":[{"attr":0,"data":51},{"attr":0,"data":63}]},{"id":56,"name":"$out","links":[{"attr":0,"data":52},{"attr":1,"data":64}]},{"id":57,"name":"$out","links":[{"attr":0,"data":46},{"attr":0,"data":64}]},{"id":58,"name":"$out","links":[{"attr":0,"data":47},{"attr":1,"data":65}]},{"id":59,"name":"$out","links":[{"attr":0,"data":41},{"attr":0,"data":65}]},{"id":60,"name":"$out","links":[{"attr":0,"data":42},{"attr":1,"data":66}]},{"id":61,"name":"$out","links":[{"attr":0,"data":36},{"attr":0,"data":66}]},{"id":62,"name":"$out","links":[{"attr":0,"data":37},{"attr":1,"data":63}]},{"id":63,"name":"phi","links":[{"attr":1,"data":55},{"attr":1,"data":62}]},{"id":64,"name":"phi","links":[{"attr":1,"data":57},{"attr":1,"data":56}]},{"id":65,"name":"phi","links":[{"attr":1,"data":59},{"attr":1,"data":58}]},{"id":66,"name":"phi","links":[{"attr":1,"data":61},{"attr":1,"data":60}]}],"membranes":[{"id":50,"name":"fork","atoms":[{"id":51,"name":"$in","links":[{"attr":0,"data":55},{"attr":0,"data":53}]},{"id":52,"name":"$in","links":[{"attr":0,"data":56},{"attr":0,"data":54}]},{"id":53,"name":"+","links":[{"attr":1,"data":51}]},{"id":54,"name":"-","links":[{"attr":1,"data":52}]}],"membranes":[]},{"id":45,"name":"fork","atoms":[{"id":46,"name":"$in","links":[{"attr":0,"data":57},{"attr":0,"data":48}]},{"id":47,"name":"$in","links":[{"attr":0,"data":58},{"attr":0,"data":49}]},{"id":48,"name":"+","links":[{"attr":1,"data":46}]},{"id":49,"name":"+","links":[{"attr":1,"data":47}]}],"membranes":[]},{"id":40,"name":"fork","atoms":[{"id":41,"name":"$in","links":[{"attr":0,"data":59},{"attr":0,"data":43}]},{"id":42,"name":"$in","links":[{"attr":0,"data":60},{"attr":0,"data":44}]},{"id":43,"name":"+","links":[{"attr":1,"data":41}]},{"id":44,"name":"+","links":[{"attr":1,"data":42}]}],"membranes":[]},{"id":35,"name":"fork","atoms":[{"id":36,"name":"$in","links":[{"attr":0,"data":61},{"attr":0,"data":38}]},{"id":37,"name":"$in","links":[{"attr":0,"data":62},{"attr":0,"data":39}]},{"id":38,"name":"+","links":[{"attr":1,"data":36}]},{"id":39,"name":"+","links":[{"attr":1,"data":37}]}],"membranes":[]}]}
Child Graph Information
file:mc.c...func:mc_gen_successors...line:533
{"id":34,"name":"","atoms":[{"id":55,"name":"$out","links":[{"attr":0,"data":51},{"attr":0,"data":63}]},{"id":56,"name":"$out","links":[{"attr":0,"data":52},{"attr":1,"data":71}]},{"id":59,"name":"$out","links":[{"attr":0,"data":41},{"attr":0,"data":65}]},{"id":60,"name":"$out","links":[{"attr":0,"data":42},{"attr":1,"data":66}]},{"id":61,"name":"$out","links":[{"attr":0,"data":36},{"attr":0,"data":66}]},{"id":62,"name":"$out","links":[{"attr":0,"data":37},{"attr":1,"data":63}]},{"id":72,"name":"$out","links":[{"attr":0,"data":69},{"attr":1,"data":65}]},{"id":73,"name":"$out","links":[{"attr":0,"data":70},{"attr":0,"data":71}]},{"id":63,"name":"phi","links":[{"attr":1,"data":55},{"attr":1,"data":62}]},{"id":65,"name":"phi","links":[{"attr":1,"data":59},{"attr":1,"data":72}]},{"id":66,"name":"phi","links":[{"attr":1,"data":61},{"attr":1,"data":60}]},{"id":71,"name":"phi","links":[{"attr":1,"data":73},{"attr":1,"data":56}]}],"membranes":[{"id":50,"name":"fork","atoms":[{"id":51,"name":"$in","links":[{"attr":0,"data":55},{"attr":0,"data":53}]},{"id":52,"name":"$in","links":[{"attr":0,"data":56},{"attr":0,"data":54}]},{"id":53,"name":"+","links":[{"attr":1,"data":51}]},{"id":54,"name":"-","links":[{"attr":1,"data":52}]}],"membranes":[]},{"id":45,"name":"fork","atoms":[{"id":69,"name":"$in","links":[{"attr":0,"data":72},{"attr":0,"data":67}]},{"id":70,"name":"$in","links":[{"attr":0,"data":73},{"attr":0,"data":68}]},{"id":68,"name":"+","links":[{"attr":1,"data":70}]},{"id":67,"name":"-","links":[{"attr":1,"data":69}]}],"membranes":[]},{"id":40,"name":"fork","atoms":[{"id":41,"name":"$in","links":[{"attr":0,"data":59},{"attr":0,"data":43}]},{"id":42,"name":"$in","links":[{"attr":0,"data":60},{"attr":0,"data":44}]},{"id":43,"name":"+","links":[{"attr":1,"data":41}]},{"id":44,"name":"+","links":[{"attr":1,"data":42}]}],"membranes":[]},{"id":35,"name":"fork","atoms":[{"id":36,"name":"$in","links":[{"attr":0,"data":61},{"attr":0,"data":38}]},{"id":37,"name":"$in","links":[{"attr":0,"data":62},{"attr":0,"data":39}]},{"id":38,"name":"+","links":[{"attr":1,"data":36}]},{"id":39,"name":"+","links":[{"attr":1,"data":37}]}],"membranes":[]}]}
Child Graph Information
file:mc.c...func:mc_gen_successors...line:533
{"id":34,"name":"","atoms":[{"id":55,"name":"$out","links":[{"attr":0,"data":51},{"attr":0,"data":63}]},{"id":56,"name":"$out","links":[{"attr":0,"data":52},{"attr":1,"data":64}]},{"id":57,"name":"$out","links":[{"attr":0,"data":46},{"attr":0,"data":64}]},{"id":58,"name":"$out","links":[{"attr":0,"data":47},{"attr":1,"data":71}]},{"id":61,"name":"$out","links":[{"attr":0,"data":36},{"attr":0,"data":66}]},{"id":62,"name":"$out","links":[{"attr":0,"data":37},{"attr":1,"data":63}]},{"id":72,"name":"$out","links":[{"attr":0,"data":69},{"attr":1,"data":66}]},{"id":73,"name":"$out","links":[{"attr":0,"data":70},{"attr":0,"data":71}]},{"id":63,"name":"phi","links":[{"attr":1,"data":55},{"attr":1,"data":62}]},{"id":64,"name":"phi","links":[{"attr":1,"data":57},{"attr":1,"data":56}]},{"id":66,"name":"phi","links":[{"attr":1,"data":61},{"attr":1,"data":72}]},{"id":71,"name":"phi","links":[{"attr":1,"data":73},{"attr":1,"data":58}]}],"membranes":[{"id":50,"name":"fork","atoms":[{"id":51,"name":"$in","links":[{"attr":0,"data":55},{"attr":0,"data":53}]},{"id":52,"name":"$in","links":[{"attr":0,"data":56},{"attr":0,"data":54}]},{"id":53,"name":"+","links":[{"attr":1,"data":51}]},{"id":54,"name":"-","links":[{"attr":1,"data":52}]}],"membranes":[]},{"id":45,"name":"fork","atoms":[{"id":46,"name":"$in","links":[{"attr":0,"data":57},{"attr":0,"data":48}]},{"id":47,"name":"$in","links":[{"attr":0,"data":58},{"attr":0,"data":49}]},{"id":48,"name":"+","links":[{"attr":1,"data":46}]},{"id":49,"name":"+","links":[{"attr":1,"data":47}]}],"membranes":[]},{"id":40,"name":"fork","atoms":[{"id":69,"name":"$in","links":[{"attr":0,"data":72},{"attr":0,"data":67}]},{"id":70,"name":"$in","links":[{"attr":0,"data":73},{"attr":0,"data":68}]},{"id":68,"name":"+","links":[{"attr":1,"data":70}]},{"id":67,"name":"-","links":[{"attr":1,"data":69}]}],"membranes":[]},{"id":35,"name":"fork","atoms":[{"id":36,"name":"$in","links":[{"attr":0,"data":61},{"attr":0,"data":38}]},{"id":37,"name":"$in","links":[{"attr":0,"data":62},{"attr":0,"data":39}]},{"id":38,"name":"+","links":[{"attr":1,"data":36}]},{"id":39,"name":"+","links":[{"attr":1,"data":37}]}],"membranes":[]}]}
Child Graph Information
file:mc.c...func:mc_gen_successors...line:533
{"id":34,"name":"","atoms":[{"id":55,"name":"$out","links":[{"attr":0,"data":51},{"attr":0,"data":63}]},{"id":56,"name":"$out","links":[{"attr":0,"data":52},{"attr":1,"data":64}]},{"id":57,"name":"$out","links":[{"attr":0,"data":46},{"attr":0,"data":64}]},{"id":58,"name":"$out","links":[{"attr":0,"data":47},{"attr":1,"data":65}]},{"id":59,"name":"$out","links":[{"attr":0,"data":41},{"attr":0,"data":65}]},{"id":60,"name":"$out","links":[{"attr":0,"data":42},{"attr":1,"data":71}]},{"id":72,"name":"$out","links":[{"attr":0,"data":69},{"attr":1,"data":63}]},{"id":73,"name":"$out","links":[{"attr":0,"data":70},{"attr":0,"data":71}]},{"id":63,"name":"phi","links":[{"attr":1,"data":55},{"attr":1,"data":72}]},{"id":64,"name":"phi","links":[{"attr":1,"data":57},{"attr":1,"data":56}]},{"id":65,"name":"phi","links":[{"attr":1,"data":59},{"attr":1,"data":58}]},{"id":71,"name":"phi","links":[{"attr":1,"data":73},{"attr":1,"data":60}]}],"membranes":[{"id":50,"name":"fork","atoms":[{"id":51,"name":"$in","links":[{"attr":0,"data":55},{"attr":0,"data":53}]},{"id":52,"name":"$in","links":[{"attr":0,"data":56},{"attr":0,"data":54}]},{"id":53,"name":"+","links":[{"attr":1,"data":51}]},{"id":54,"name":"-","links":[{"attr":1,"data":52}]}],"membranes":[]},{"id":45,"name":"fork","atoms":[{"id":46,"name":"$in","links":[{"attr":0,"data":57},{"attr":0,"data":48}]},{"id":47,"name":"$in","links":[{"attr":0,"data":58},{"attr":0,"data":49}]},{"id":48,"name":"+","links":[{"attr":1,"data":46}]},{"id":49,"name":"+","links":[{"attr":1,"data":47}]}],"membranes":[]},{"id":40,"name":"fork","atoms":[{"id":41,"name":"$in","links":[{"attr":0,"data":59},{"attr":0,"data":43}]},{"id":42,"name":"$in","links":[{"attr":0,"data":60},{"attr":0,"data":44}]},{"id":43,"name":"+","links":[{"attr":1,"data":41}]},{"id":44,"name":"+","links":[{"attr":1,"data":42}]}],"membranes":[]},{"id":35,"name":"fork","atoms":[{"id":69,"name":"$in","links":[{"attr":0,"data":72},{"attr":0,"data":67}]},{"id":70,"name":"$in","links":[{"attr":0,"data":73},{"attr":0,"data":68}]},{"id":68,"name":"+","links":[{"attr":1,"data":70}]},{"id":67,"name":"-","links":[{"attr":1,"data":69}]}],"membranes":[]}]}
Child Graph Information
file:mc.c...func:mc_gen_successors...line:533
{"id":34,"name":"","atoms":[{"id":57,"name":"$out","links":[{"attr":0,"data":46},{"attr":0,"data":64}]},{"id":58,"name":"$out","links":[{"attr":0,"data":47},{"attr":1,"data":65}]},{"id":59,"name":"$out","links":[{"attr":0,"data":41},{"attr":0,"data":65}]},{"id":60,"name":"$out","links":[{"attr":0,"data":42},{"attr":1,"data":66}]},{"id":76,"name":"$out","links":[{"attr":0,"data":69},{"attr":1,"data":64}]},{"id":77,"name":"$out","links":[{"attr":0,"data":70},{"attr":0,"data":75}]},{"id":78,"name":"$out","links":[{"attr":0,"data":73},{"attr":1,"data":75}]},{"id":79,"name":"$out","links":[{"attr":0,"data":74},{"attr":0,"data":66}]},{"id":64,"name":"phi","links":[{"attr":1,"data":57},{"attr":1,"data":76}]},{"id":65,"name":"phi","links":[{"attr":1,"data":59},{"attr":1,"data":58}]},{"id":66,"name":"phi","links":[{"attr":1,"data":79},{"attr":1,"data":60}]},{"id":75,"name":"phi","links":[{"attr":1,"data":77},{"attr":1,"data":78}]}],"membranes":[{"id":50,"name":"fork","atoms":[{"id":69,"name":"$in","links":[{"attr":0,"data":76},{"attr":0,"data":67}]},{"id":70,"name":"$in","links":[{"attr":0,"data":77},{"attr":0,"data":68}]},{"id":68,"name":"+","links":[{"attr":1,"data":70}]},{"id":67,"name":"-","links":[{"attr":1,"data":69}]}],"membranes":[]},{"id":45,"name":"fork","atoms":[{"id":46,"name":"$in","links":[{"attr":0,"data":57},{"attr":0,"data":48}]},{"id":47,"name":"$in","links":[{"attr":0,"data":58},{"attr":0,"data":49}]},{"id":48,"name":"+","links":[{"attr":1,"data":46}]},{"id":49,"name":"+","links":[{"attr":1,"data":47}]}],"membranes":[]},{"id":40,"name":"fork","atoms":[{"id":41,"name":"$in","links":[{"attr":0,"data":59},{"attr":0,"data":43}]},{"id":42,"name":"$in","links":[{"attr":0,"data":60},{"attr":0,"data":44}]},{"id":43,"name":"+","links":[{"attr":1,"data":41}]},{"id":44,"name":"+","links":[{"attr":1,"data":42}]}],"membranes":[]},{"id":35,"name":"fork","atoms":[{"id":73,"name":"$in","links":[{"attr":0,"data":78},{"attr":0,"data":71}]},{"id":74,"name":"$in","links":[{"attr":0,"data":79},{"attr":0,"data":72}]},{"id":71,"name":"+","links":[{"attr":1,"data":73}]},{"id":72,"name":"-","links":[{"attr":1,"data":74}]}],"membranes":[]}]}
Parent State ID Information
file:mc.c...func:mc_gen_successors...line:571
5
Succ number Information
file:mc.c...func:mc_gen_successors...line:514
4
Parent Graph Information
file:mc.c...func:mc_gen_successors...line:518
{"id":34,"name":"","atoms":[{"id":55,"name":"$out","links":[{"attr":0,"data":51},{"attr":0,"data":63}]},{"id":56,"name":"$out","links":[{"attr":0,"data":52},{"attr":1,"data":64}]},{"id":57,"name":"$out","links":[{"attr":0,"data":46},{"attr":0,"data":64}]},{"id":58,"name":"$out","links":[{"attr":0,"data":47},{"attr":1,"data":65}]},{"id":59,"name":"$out","links":[{"attr":0,"data":41},{"attr":0,"data":65}]},{"id":60,"name":"$out","links":[{"attr":0,"data":42},{"attr":1,"data":66}]},{"id":61,"name":"$out","links":[{"attr":0,"data":36},{"attr":0,"data":66}]},{"id":62,"name":"$out","links":[{"attr":0,"data":37},{"attr":1,"data":63}]},{"id":63,"name":"phi","links":[{"attr":1,"data":55},{"attr":1,"data":62}]},{"id":64,"name":"phi","links":[{"attr":1,"data":57},{"attr":1,"data":56}]},{"id":65,"name":"phi","links":[{"attr":1,"data":59},{"attr":1,"data":58}]},{"id":66,"name":"phi","links":[{"attr":1,"data":61},{"attr":1,"data":60}]}],"membranes":[{"id":50,"name":"fork","atoms":[{"id":51,"name":"$in","links":[{"attr":0,"data":55},{"attr":0,"data":53}]},{"id":52,"name":"$in","links":[{"attr":0,"data":56},{"attr":0,"data":54}]},{"id":53,"name":"+","links":[{"attr":1,"data":51}]},{"id":54,"name":"-","links":[{"attr":1,"data":52}]}],"membranes":[]},{"id":45,"name":"fork","atoms":[{"id":46,"name":"$in","links":[{"attr":0,"data":57},{"attr":0,"data":48}]},{"id":47,"name":"$in","links":[{"attr":0,"data":58},{"attr":0,"data":49}]},{"id":48,"name":"+","links":[{"attr":1,"data":46}]},{"id":49,"name":"+","links":[{"attr":1,"data":47}]}],"membranes":[]},{"id":40,"name":"fork","atoms":[{"id":41,"name":"$in","links":[{"attr":0,"data":59},{"attr":0,"data":43}]},{"id":42,"name":"$in","links":[{"attr":0,"data":60},{"attr":0,"data":44}]},{"id":43,"name":"+","links":[{"attr":1,"data":41}]},{"id":44,"name":"-","links":[{"attr":1,"data":42}]}],"membranes":[]},{"id":35,"name":"fork","atoms":[{"id":36,"name":"$in","links":[{"attr":0,"data":61},{"attr":0,"data":38}]},{"id":37,"name":"$in","links":[{"attr":0,"data":62},{"attr":0,"data":39}]},{"id":38,"name":"+","links":[{"attr":1,"data":36}]},{"id":39,"name":"+","links":[{"attr":1,"data":37}]}],"membranes":[]}]}
Child Graph Information
file:mc.c...func:mc_gen_successors...line:533
{"id":34,"name":"","atoms":[{"id":55,"name":"$out","links":[{"attr":0,"data":51},{"attr":0,"data":63}]},{"id":56,"name":"$out","links":[{"attr":0,"data":52},{"attr":1,"data":71}]},{"id":59,"name":"$out","links":[{"attr":0,"data":41},{"attr":0,"data":65}]},{"id":60,"name":"$out","links":[{"attr":0,"data":42},{"attr":1,"data":66}]},{"id":61,"name":"$out","links":[{"attr":0,"data":36},{"attr":0,"data":66}]},{"id":62,"name":"$out","links":[{"attr":0,"data":37},{"attr":1,"data":63}]},{"id":72,"name":"$out","links":[{"attr":0,"data":69},{"attr":1,"data":65}]},{"id":73,"name":"$out","links":[{"attr":0,"data":70},{"attr":0,"data":71}]},{"id":63,"name":"phi","links":[{"attr":1,"data":55},{"attr":1,"data":62}]},{"id":65,"name":"phi","links":[{"attr":1,"data":59},{"attr":1,"data":72}]},{"id":66,"name":"phi","links":[{"attr":1,"data":61},{"attr":1,"data":60}]},{"id":71,"name":"phi","links":[{"attr":1,"data":73},{"attr":1,"data":56}]}],"membranes":[{"id":50,"name":"fork","atoms":[{"id":51,"name":"$in","links":[{"attr":0,"data":55},{"attr":0,"data":53}]},{"id":52,"name":"$in","links":[{"attr":0,"data":56},{"attr":0,"data":54}]},{"id":53,"name":"+","links":[{"attr":1,"data":51}]},{"id":54,"name":"-","links":[{"attr":1,"data":52}]}],"membranes":[]},{"id":45,"name":"fork","atoms":[{"id":69,"name":"$in","links":[{"attr":0,"data":72},{"attr":0,"data":67}]},{"id":70,"name":"$in","links":[{"attr":0,"data":73},{"attr":0,"data":68}]},{"id":68,"name":"+","links":[{"attr":1,"data":70}]},{"id":67,"name":"-","links":[{"attr":1,"data":69}]}],"membranes":[]},{"id":40,"name":"fork","atoms":[{"id":41,"name":"$in","links":[{"attr":0,"data":59},{"attr":0,"data":43}]},{"id":42,"name":"$in","links":[{"attr":0,"data":60},{"attr":0,"data":44}]},{"id":43,"name":"+","links":[{"attr":1,"data":41}]},{"id":44,"name":"-","links":[{"attr":1,"data":42}]}],"membranes":[]},{"id":35,"name":"fork","atoms":[{"id":36,"name":"$in","links":[{"attr":0,"data":61},{"attr":0,"data":38}]},{"id":37,"name":"$in","links":[{"attr":0,"data":62},{"attr":0,"data":39}]},{"id":38,"name":"+","links":[{"attr":1,"data":36}]},{"id":39,"name":"+","links":[{"attr":1,"data":37}]}],"membranes":[]}]}
Child Graph Information
file:mc.c...func:mc_gen_successors...line:533
{"id":34,"name":"","atoms":[{"id":55,"name":"$out","links":[{"attr":0,"data":51},{"attr":0,"data":63}]},{"id":56,"name":"$out","links":[{"attr":0,"data":52},{"attr":1,"data":64}]},{"id":57,"name":"$out","links":[{"attr":0,"data":46},{"attr":0,"data":64}]},{"id":58,"name":"$out","links":[{"attr":0,"data":47},{"attr":1,"data":65}]},{"id":59,"name":"$out","links":[{"attr":0,"data":41},{"attr":0,"data":65}]},{"id":60,"name":"$out","links":[{"attr":0,"data":42},{"attr":1,"data":71}]},{"id":72,"name":"$out","links":[{"attr":0,"data":69},{"attr":1,"data":63}]},{"id":73,"name":"$out","links":[{"attr":0,"data":70},{"attr":0,"data":71}]},{"id":63,"name":"phi","links":[{"attr":1,"data":55},{"attr":1,"data":72}]},{"id":64,"name":"phi","links":[{"attr":1,"data":57},{"attr":1,"data":56}]},{"id":65,"name":"phi","links":[{"attr":1,"data":59},{"attr":1,"data":58}]},{"id":71,"name":"phi","links":[{"attr":1,"data":73},{"attr":1,"data":60}]}],"membranes":[{"id":50,"name":"fork","atoms":[{"id":51,"name":"$in","links":[{"attr":0,"data":55},{"attr":0,"data":53}]},{"id":52,"name":"$in","links":[{"attr":0,"data":56},{"attr":0,"data":54}]},{"id":53,"name":"+","links":[{"attr":1,"data":51}]},{"id":54,"name":"-","links":[{"attr":1,"data":52}]}],"membranes":[]},{"id":45,"name":"fork","atoms":[{"id":46,"name":"$in","links":[{"attr":0,"data":57},{"attr":0,"data":48}]},{"id":47,"name":"$in","links":[{"attr":0,"data":58},{"attr":0,"data":49}]},{"id":48,"name":"+","links":[{"attr":1,"data":46}]},{"id":49,"name":"+","links":[{"attr":1,"data":47}]}],"membranes":[]},{"id":40,"name":"fork","atoms":[{"id":41,"name":"$in","links":[{"attr":0,"data":59},{"attr":0,"data":43}]},{"id":42,"name":"$in","links":[{"attr":0,"data":60},{"attr":0,"data":44}]},{"id":43,"name":"+","links":[{"attr":1,"data":41}]},{"id":44,"name":"-","links":[{"attr":1,"data":42}]}],"membranes":[]},{"id":35,"name":"fork","atoms":[{"id":69,"name":"$in","links":[{"attr":0,"data":72},{"attr":0,"data":67}]},{"id":70,"name":"$in","links":[{"attr":0,"data":73},{"attr":0,"data":68}]},{"id":68,"name":"+","links":[{"attr":1,"data":70}]},{"id":67,"name":"-","links":[{"attr":1,"data":69}]}],"membranes":[]}]}
Child Graph Information
file:mc.c...func:mc_gen_successors...line:533
{"id":34,"name":"","atoms":[{"id":57,"name":"$out","links":[{"attr":0,"data":46},{"attr":0,"data":64}]},{"id":58,"name":"$out","links":[{"attr":0,"data":47},{"attr":1,"data":65}]},{"id":59,"name":"$out","links":[{"attr":0,"data":41},{"attr":0,"data":65}]},{"id":60,"name":"$out","links":[{"attr":0,"data":42},{"attr":1,"data":66}]},{"id":76,"name":"$out","links":[{"attr":0,"data":69},{"attr":1,"data":64}]},{"id":77,"name":"$out","links":[{"attr":0,"data":70},{"attr":0,"data":75}]},{"id":78,"name":"$out","links":[{"attr":0,"data":73},{"attr":1,"data":75}]},{"id":79,"name":"$out","links":[{"attr":0,"data":74},{"attr":0,"data":66}]},{"id":64,"name":"phi","links":[{"attr":1,"data":57},{"attr":1,"data":76}]},{"id":65,"name":"phi","links":[{"attr":1,"data":59},{"attr":1,"data":58}]},{"id":66,"name":"phi","links":[{"attr":1,"data":79},{"attr":1,"data":60}]},{"id":75,"name":"phi","links":[{"attr":1,"data":77},{"attr":1,"data":78}]}],"membranes":[{"id":50,"name":"fork","atoms":[{"id":69,"name":"$in","links":[{"attr":0,"data":76},{"attr":0,"data":67}]},{"id":70,"name":"$in","links":[{"attr":0,"data":77},{"attr":0,"data":68}]},{"id":68,"name":"+","links":[{"attr":1,"data":70}]},{"id":67,"name":"-","links":[{"attr":1,"data":69}]}],"membranes":[]},{"id":45,"name":"fork","atoms":[{"id":46,"name":"$in","links":[{"attr":0,"data":57},{"attr":0,"data":48}]},{"id":47,"name":"$in","links":[{"attr":0,"data":58},{"attr":0,"data":49}]},{"id":48,"name":"+","links":[{"attr":1,"data":46}]},{"id":49,"name":"+","links":[{"attr":1,"data":47}]}],"membranes":[]},{"id":40,"name":"fork","atoms":[{"id":41,"name":"$in","links":[{"attr":0,"data":59},{"attr":0,"data":43}]},{"id":42,"name":"$in","links":[{"attr":0,"data":60},{"attr":0,"data":44}]},{"id":43,"name":"+","links":[{"attr":1,"data":41}]},{"id":44,"name":"-","links":[{"attr":1,"data":42}]}],"membranes":[]},{"id":35,"name":"fork","atoms":[{"id":73,"name":"$in","links":[{"attr":0,"data":78},{"attr":0,"data":71}]},{"id":74,"name":"$in","links":[{"attr":0,"data":79},{"attr":0,"data":72}]},{"id":71,"name":"+","links":[{"attr":1,"data":73}]},{"id":72,"name":"-","links":[{"attr":1,"data":74}]}],"membranes":[]}]}
Child Graph Information
file:mc.c...func:mc_gen_successors...line:533
{"id":34,"name":"","atoms":[{"id":55,"name":"$out","links":[{"attr":0,"data":51},{"attr":0,"data":63}]},{"id":56,"name":"$out","links":[{"attr":0,"data":52},{"attr":1,"data":64}]},{"id":61,"name":"$out","links":[{"attr":0,"data":36},{"attr":0,"data":66}]},{"id":62,"name":"$out","links":[{"attr":0,"data":37},{"attr":1,"data":63}]},{"id":76,"name":"$out","links":[{"attr":0,"data":69},{"attr":1,"data":66}]},{"id":77,"name":"$out","links":[{"attr":0,"data":70},{"attr":0,"data":75}]},{"id":78,"name":"$out","links":[{"attr":0,"data":73},{"attr":1,"data":75}]},{"id":79,"name":"$out","links":[{"attr":0,"data":74},{"attr":0,"data":64}]},{"id":63,"name":"phi","links":[{"attr":1,"data":55},{"attr":1,"data":62}]},{"id":64,"name":"phi","links":[{"attr":1,"data":79},{"attr":1,"data":56}]},{"id":66,"name":"phi","links":[{"attr":1,"data":61},{"attr":1,"data":76}]},{"id":75,"name":"phi","links":[{"attr":1,"data":77},{"attr":1,"data":78}]}],"membranes":[{"id":50,"name":"fork","atoms":[{"id":51,"name":"$in","links":[{"attr":0,"data":55},{"attr":0,"data":53}]},{"id":52,"name":"$in","links":[{"attr":0,"data":56},{"attr":0,"data":54}]},{"id":53,"name":"+","links":[{"attr":1,"data":51}]},{"id":54,"name":"-","links":[{"attr":1,"data":52}]}],"membranes":[]},{"id":45,"name":"fork","atoms":[{"id":73,"name":"$in","links":[{"attr":0,"data":78},{"attr":0,"data":71}]},{"id":74,"name":"$in","links":[{"attr":0,"data":79},{"attr":0,"data":72}]},{"id":71,"name":"+","links":[{"attr":1,"data":73}]},{"id":72,"name":"-","links":[{"attr":1,"data":74}]}],"membranes":[]},{"id":40,"name":"fork","atoms":[{"id":69,"name":"$in","links":[{"attr":0,"data":76},{"attr":0,"data":67}]},{"id":70,"name":"$in","links":[{"attr":0,"data":77},{"attr":0,"data":68}]},{"id":68,"name":"+","links":[{"attr":1,"data":70}]},{"id":67,"name":"-","links":[{"attr":1,"data":69}]}],"membranes":[]},{"id":35,"name":"fork","atoms":[{"id":36,"name":"$in","links":[{"attr":0,"data":61},{"attr":0,"data":38}]},{"id":37,"name":"$in","links":[{"attr":0,"data":62},{"attr":0,"data":39}]},{"id":38,"name":"+","links":[{"attr":1,"data":36}]},{"id":39,"name":"+","links":[{"attr":1,"data":37}]}],"membranes":[]}]}
Parent State ID Information
file:mc.c...func:mc_gen_successors...line:571
7
Succ number Information
file:mc.c...func:mc_gen_successors...line:514
3
Parent Graph Information
file:mc.c...func:mc_gen_successors...line:518
{"id":34,"name":"","atoms":[{"id":55,"name":"$out","links":[{"attr":0,"data":51},{"attr":0,"data":63}]},{"id":56,"name":"$out","links":[{"attr":0,"data":52},{"attr":1,"data":64}]},{"id":57,"name":"$out","links":[{"attr":0,"data":46},{"attr":0,"data":64}]},{"id":58,"name":"$out","links":[{"attr":0,"data":47},{"attr":1,"data":65}]},{"id":59,"name":"$out","links":[{"attr":0,"data":41},{"attr":0,"data":65}]},{"id":60,"name":"$out","links":[{"attr":0,"data":42},{"attr":1,"data":66}]},{"id":61,"name":"$out","links":[{"attr":0,"data":36},{"attr":0,"data":66}]},{"id":62,"name":"$out","links":[{"attr":0,"data":37},{"attr":1,"data":63}]},{"id":63,"name":"phi","links":[{"attr":1,"data":55},{"attr":1,"data":62}]},{"id":64,"name":"phi","links":[{"attr":1,"data":57},{"attr":1,"data":56}]},{"id":65,"name":"phi","links":[{"attr":1,"data":59},{"attr":1,"data":58}]},{"id":66,"name":"phi","links":[{"attr":1,"data":61},{"attr":1,"data":60}]}],"membranes":[{"id":50,"name":"fork","atoms":[{"id":51,"name":"$in","links":[{"attr":0,"data":55},{"attr":0,"data":54}]},{"id":52,"name":"$in","links":[{"attr":0,"data":56},{"attr":0,"data":53}]},{"id":53,"name":"+","links":[{"attr":1,"data":52}]},{"id":54,"name":"-","links":[{"attr":1,"data":51}]}],"membranes":[]},{"id":45,"name":"fork","atoms":[{"id":46,"name":"$in","links":[{"attr":0,"data":57},{"attr":0,"data":48}]},{"id":47,"name":"$in","links":[{"attr":0,"data":58},{"attr":0,"data":49}]},{"id":48,"name":"+","links":[{"attr":1,"data":46}]},{"id":49,"name":"-","links":[{"attr":1,"data":47}]}],"membranes":[]},{"id":40,"name":"fork","atoms":[{"id":41,"name":"$in","links":[{"attr":0,"data":59},{"attr":0,"data":43}]},{"id":42,"name":"$in","links":[{"attr":0,"data":60},{"attr":0,"data":44}]},{"id":43,"name":"+","links":[{"attr":1,"data":41}]},{"id":44,"name":"+","links":[{"attr":1,"data":42}]}],"membranes":[]},{"id":35,"name":"fork","atoms":[{"id":36,"name":"$in","links":[{"attr":0,"data":61},{"attr":0,"data":38}]},{"id":37,"name":"$in","links":[{"attr":0,"data":62},{"attr":0,"data":39}]},{"id":38,"name":"+","links":[{"attr":1,"data":36}]},{"id":39,"name":"-","links":[{"attr":1,"data":37}]}],"membranes":[]}]}
Child Graph Information
file:mc.c...func:mc_gen_successors...line:533
{"id":34,"name":"","atoms":[{"id":55,"name":"$out","links":[{"attr":0,"data":51},{"attr":0,"data":63}]},{"id":56,"name":"$out","links":[{"attr":0,"data":52},{"attr":1,"data":64}]},{"id":57,"name":"$out","links":[{"attr":0,"data":46},{"attr":0,"data":64}]},{"id":58,"name":"$out","links":[{"attr":0,"data":47},{"attr":1,"data":71}]},{"id":61,"name":"$out","links":[{"attr":0,"data":36},{"attr":0,"data":66}]},{"id":62,"name":"$out","links":[{"attr":0,"data":37},{"attr":1,"data":63}]},{"id":72,"name":"$out","links":[{"attr":0,"data":69},{"attr":1,"data":66}]},{"id":73,"name":"$out","links":[{"attr":0,"data":70},{"attr":0,"data":71}]},{"id":63,"name":"phi","links":[{"attr":1,"data":55},{"attr":1,"data":62}]},{"id":64,"name":"phi","links":[{"attr":1,"data":57},{"attr":1,"data":56}]},{"id":66,"name":"phi","links":[{"attr":1,"data":61},{"attr":1,"data":72}]},{"id":71,"name":"phi","links":[{"attr":1,"data":73},{"attr":1,"data":58}]}],"membranes":[{"id":50,"name":"fork","atoms":[{"id":51,"name":"$in","links":[{"attr":0,"data":55},{"attr":0,"data":54}]},{"id":52,"name":"$in","links":[{"attr":0,"data":56},{"attr":0,"data":53}]},{"id":53,"name":"+","links":[{"attr":1,"data":52}]},{"id":54,"name":"-","links":[{"attr":1,"data":51}]}],"membranes":[]},{"id":45,"name":"fork","atoms":[{"id":46,"name":"$in","links":[{"attr":0,"data":57},{"attr":0,"data":48}]},{"id":47,"name":"$in","links":[{"attr":0,"data":58},{"attr":0,"data":49}]},{"id":48,"name":"+","links":[{"attr":1,"data":46}]},{"id":49,"name":"-","links":[{"attr":1,"data":47}]}],"membranes":[]},{"id":40,"name":"fork","atoms":[{"id":69,"name":"$in","links":[{"attr":0,"data":72},{"attr":0,"data":67}]},{"id":70,"name":"$in","links":[{"attr":0,"data":73},{"attr":0,"data":68}]},{"id":68,"name":"+","links":[{"attr":1,"data":70}]},{"id":67,"name":"-","links":[{"attr":1,"data":69}]}],"membranes":[]},{"id":35,"name":"fork","atoms":[{"id":36,"name":"$in","links":[{"attr":0,"data":61},{"attr":0,"data":38}]},{"id":37,"name":"$in","links":[{"attr":0,"data":62},{"attr":0,"data":39}]},{"id":38,"name":"+","links":[{"attr":1,"data":36}]},{"id":39,"name":"-","links":[{"attr":1,"data":37}]}],"membranes":[]}]}
Child Graph Information
file:mc.c...func:mc_gen_successors...line:533
{"id":34,"name":"","atoms":[{"id":55,"name":"$out","links":[{"attr":0,"data":51},{"attr":0,"data":63}]},{"id":56,"name":"$out","links":[{"attr":0,"data":52},{"attr":1,"data":64}]},{"id":57,"name":"$out","links":[{"attr":0,"data":46},{"attr":0,"data":64}]},{"id":58,"name":"$out","links":[{"attr":0,"data":47},{"attr":1,"data":65}]},{"id":76,"name":"$out","links":[{"attr":0,"data":69},{"attr":1,"data":63}]},{"id":77,"name":"$out","links":[{"attr":0,"data":70},{"attr":0,"data":75}]},{"id":78,"name":"$out","links":[{"attr":0,"data":73},{"attr":1,"data":75}]},{"id":79,"name":"$out","links":[{"attr":0,"data":74},{"attr":0,"data":65}]},{"id":63,"name":"phi","links":[{"attr":1,"data":55},{"attr":1,"data":76}]},{"id":64,"name":"phi","links":[{"attr":1,"data":57},{"attr":1,"data":56}]},{"id":65,"name":"phi","links":[{"attr":1,"data":79},{"attr":1,"data":58}]},{"id":75,"name":"phi","links":[{"attr":1,"data":77},{"attr":1,"data":78}]}],"membranes":[{"id":50,"name":"fork","atoms":[{"id":51,"name":"$in","links":[{"attr":0,"data":55},{"attr":0,"data":54}]},{"id":52,"name":"$in","links":[{"attr":0,"data":56},{"attr":0,"data":53}]},{"id":53,"name":"+","links":[{"attr":1,"data":52}]},{"id":54,"name":"-","links":[{"attr":1,"data":51}]}],"membranes":[]},{"id":45,"name":"fork","atoms":[{"id":46,"name":"$in","links":[{"attr":0,"data":57},{"attr":0,"data":48}]},{"id":47,"name":"$in","links":[{"attr":0,"data":58},{"attr":0,"data":49}]},{"id":48,"name":"+","links":[{"attr":1,"data":46}]},{"id":49,"name":"-","links":[{"attr":1,"data":47}]}],"membranes":[]},{"id":40,"name":"fork","atoms":[{"id":73,"name":"$in","links":[{"attr":0,"data":78},{"attr":0,"data":71}]},{"id":74,"name":"$in","links":[{"attr":0,"data":79},{"attr":0,"data":72}]},{"id":71,"name":"+","links":[{"attr":1,"data":73}]},{"id":72,"name":"-","links":[{"attr":1,"data":74}]}],"membranes":[]},{"id":35,"name":"fork","atoms":[{"id":69,"name":"$in","links":[{"attr":0,"data":76},{"attr":0,"data":67}]},{"id":70,"name":"$in","links":[{"attr":0,"data":77},{"attr":0,"data":68}]},{"id":68,"name":"+","links":[{"attr":1,"data":70}]},{"id":67,"name":"-","links":[{"attr":1,"data":69}]}],"membranes":[]}]}
Child Graph Information
file:mc.c...func:mc_gen_successors...line:533
{"id":34,"name":"","atoms":[{"id":59,"name":"$out","links":[{"attr":0,"data":41},{"attr":0,"data":65}]},{"id":60,"name":"$out","links":[{"attr":0,"data":42},{"attr":1,"data":66}]},{"id":61,"name":"$out","links":[{"attr":0,"data":36},{"attr":0,"data":66}]},{"id":62,"name":"$out","links":[{"attr":0,"data":37},{"attr":1,"data":63}]},{"id":76,"name":"$out","links":[{"attr":0,"data":69},{"attr":1,"data":65}]},{"id":77,"name":"$out","links":[{"attr":0,"data":70},{"attr":0,"data":75}]},{"id":78,"name":"$out","links":[{"attr":0,"data":73},{"attr":1,"data":75}]},{"id":79,"name":"$out","links":[{"attr":0,"data":74},{"attr":0,"data":63}]},{"id":63,"name":"phi","links":[{"attr":1,"data":79},{"attr":1,"data":62}]},{"id":65,"name":"phi","links":[{"attr":1,"data":59},{"attr":1,"data":76}]},{"id":66,"name":"phi","links":[{"attr":1,"data":61},{"attr":1,"data":60}]},{"id":75,"name":"phi","links":[{"attr":1,"data":77},{"attr":1,"data":78}]}],"membranes":[{"id":50,"name":"fork","atoms":[{"id":73,"name":"$in","links":[{"attr":0,"data":78},{"attr":0,"data":71}]},{"id":74,"name":"$in","links":[{"attr":0,"data":79},{"attr":0,"data":72}]},{"id":71,"name":"+","links":[{"attr":1,"data":73}]},{"id":72,"name":"+","links":[{"attr":1,"data":74}]}],"membranes":[]},{"id":45,"name":"fork","atoms":[{"id":69,"name":"$in","links":[{"attr":0,"data":76},{"attr":0,"data":67}]},{"id":70,"name":"$in","links":[{"attr":0,"data":77},{"attr":0,"data":68}]},{"id":67,"name":"+","links":[{"attr":1,"data":69}]},{"id":68,"name":"+","links":[{"attr":1,"data":70}]}],"membranes":[]},{"id":40,"name":"fork","atoms":[{"id":41,"name":"$in","links":[{"attr":0,"data":59},{"attr":0,"data":43}]},{"id":42,"name":"$in","links":[{"attr":0,"data":60},{"attr":0,"data":44}]},{"id":43,"name":"+","links":[{"attr":1,"data":41}]},{"id":44,"name":"+","links":[{"attr":1,"data":42}]}],"membranes":[]},{"id":35,"name":"fork","atoms":[{"id":36,"name":"$in","links":[{"attr":0,"data":61},{"attr":0,"data":38}]},{"id":37,"name":"$in","links":[{"attr":0,"data":62},{"attr":0,"data":39}]},{"id":38,"name":"+","links":[{"attr":1,"data":36}]},{"id":39,"name":"-","links":[{"attr":1,"data":37}]}],"membranes":[]}]}
Parent State ID Information
file:mc.c...func:mc_gen_successors...line:571
3
Succ number Information
file:mc.c...func:mc_gen_successors...line:514
2
Parent Graph Information
file:mc.c...func:mc_gen_successors...line:518
{"id":34,"name":"","atoms":[{"id":55,"name":"$out","links":[{"attr":0,"data":51},{"attr":0,"data":63}]},{"id":56,"name":"$out","links":[{"attr":0,"data":52},{"attr":1,"data":64}]},{"id":57,"name":"$out","links":[{"attr":0,"data":46},{"attr":0,"data":64}]},{"id":58,"name":"$out","links":[{"attr":0,"data":47},{"attr":1,"data":65}]},{"id":59,"name":"$out","links":[{"attr":0,"data":41},{"attr":0,"data":65}]},{"id":60,"name":"$out","links":[{"attr":0,"data":42},{"attr":1,"data":66}]},{"id":61,"name":"$out","links":[{"attr":0,"data":36},{"attr":0,"data":66}]},{"id":62,"name":"$out","links":[{"attr":0,"data":37},{"attr":1,"data":63}]},{"id":63,"name":"phi","links":[{"attr":1,"data":55},{"attr":1,"data":62}]},{"id":64,"name":"phi","links":[{"attr":1,"data":57},{"attr":1,"data":56}]},{"id":65,"name":"phi","links":[{"attr":1,"data":59},{"attr":1,"data":58}]},{"id":66,"name":"phi","links":[{"attr":1,"data":61},{"attr":1,"data":60}]}],"membranes":[{"id":50,"name":"fork","atoms":[{"id":51,"name":"$in","links":[{"attr":0,"data":55},{"attr":0,"data":54}]},{"id":52,"name":"$in","links":[{"attr":0,"data":56},{"attr":0,"data":53}]},{"id":53,"name":"+","links":[{"attr":1,"data":52}]},{"id":54,"name":"-","links":[{"attr":1,"data":51}]}],"membranes":[]},{"id":45,"name":"fork","atoms":[{"id":46,"name":"$in","links":[{"attr":0,"data":57},{"attr":0,"data":48}]},{"id":47,"name":"$in","links":[{"attr":0,"data":58},{"attr":0,"data":49}]},{"id":48,"name":"+","links":[{"attr":1,"data":46}]},{"id":49,"name":"-","links":[{"attr":1,"data":47}]}],"membranes":[]},{"id":40,"name":"fork","atoms":[{"id":41,"name":"$in","links":[{"attr":0,"data":59},{"attr":0,"data":44}]},{"id":42,"name":"$in","links":[{"attr":0,"data":60},{"attr":0,"data":43}]},{"id":43,"name":"+","links":[{"attr":1,"data":42}]},{"id":44,"name":"-","links":[{"attr":1,"data":41}]}],"membranes":[]},{"id":35,"name":"fork","atoms":[{"id":36,"name":"$in","links":[{"attr":0,"data":61},{"attr":0,"data":38}]},{"id":37,"name":"$in","links":[{"attr":0,"data":62},{"attr":0,"data":39}]},{"id":38,"name":"+","links":[{"attr":1,"data":36}]},{"id":39,"name":"-","links":[{"attr":1,"data":37}]}],"membranes":[]}]}
Child Graph Information
file:mc.c...func:mc_gen_successors...line:533
{"id":34,"name":"","atoms":[{"id":59,"name":"$out","links":[{"attr":0,"data":41},{"attr":0,"data":65}]},{"id":60,"name":"$out","links":[{"attr":0,"data":42},{"attr":1,"data":66}]},{"id":61,"name":"$out","links":[{"attr":0,"data":36},{"attr":0,"data":66}]},{"id":62,"name":"$out","links":[{"attr":0,"data":37},{"attr":1,"data":63}]},{"id":76,"name":"$out","links":[{"attr":0,"data":69},{"attr":1,"data":65}]},{"id":77,"name":"$out","links":[{"attr":0,"data":70},{"attr":0,"data":75}]},{"id":78,"name":"$out","links":[{"attr":0,"data":73},{"attr":1,"data":75}]},{"id":79,"name":"$out","links":[{"attr":0,"data":74},{"attr":0,"data":63}]},{"id":63,"name":"phi","links":[{"attr":1,"data":79},{"attr":1,"data":62}]},{"id":65,"name":"phi","links":[{"attr":1,"data":59},{"attr":1,"data":76}]},{"id":66,"name":"phi","links":[{"attr":1,"data":61},{"attr":1,"data":60}]},{"id":75,"name":"phi","links":[{"attr":1,"data":77},{"attr":1,"data":78}]}],"membranes":[{"id":50,"name":"fork","atoms":[{"id":73,"name":"$in","links":[{"attr":0,"data":78},{"attr":0,"data":71}]},{"id":74,"name":"$in","links":[{"attr":0,"data":79},{"attr":0,"data":72}]},{"id":71,"name":"+","links":[{"attr":1,"data":73}]},{"id":72,"name":"+","links":[{"attr":1,"data":74}]}],"membranes":[]},{"id":45,"name":"fork","atoms":[{"id":69,"name":"$in","links":[{"attr":0,"data":76},{"attr":0,"data":67}]},{"id":70,"name":"$in","links":[{"attr":0,"data":77},{"attr":0,"data":68}]},{"id":67,"name":"+","links":[{"attr":1,"data":69}]},{"id":68,"name":"+","links":[{"attr":1,"data":70}]}],"membranes":[]},{"id":40,"name":"fork","atoms":[{"id":41,"name":"$in","links":[{"attr":0,"data":59},{"attr":0,"data":44}]},{"id":42,"name":"$in","links":[{"attr":0,"data":60},{"attr":0,"data":43}]},{"id":43,"name":"+","links":[{"attr":1,"data":42}]},{"id":44,"name":"-","links":[{"attr":1,"data":41}]}],"membranes":[]},{"id":35,"name":"fork","atoms":[{"id":36,"name":"$in","links":[{"attr":0,"data":61},{"attr":0,"data":38}]},{"id":37,"name":"$in","links":[{"attr":0,"data":62},{"attr":0,"data":39}]},{"id":38,"name":"+","links":[{"attr":1,"data":36}]},{"id":39,"name":"-","links":[{"attr":1,"data":37}]}],"membranes":[]}]}
Child Graph Information
file:mc.c...func:mc_gen_successors...line:533
{"id":34,"name":"","atoms":[{"id":55,"name":"$out","links":[{"attr":0,"data":51},{"attr":0,"data":63}]},{"id":56,"name":"$out","links":[{"attr":0,"data":52},{"attr":1,"data":64}]},{"id":57,"name":"$out","links":[{"attr":0,"data":46},{"attr":0,"data":64}]},{"id":58,"name":"$out","links":[{"attr":0,"data":47},{"attr":1,"data":65}]},{"id":76,"name":"$out","links":[{"attr":0,"data":69},{"attr":1,"data":63}]},{"id":77,"name":"$out","links":[{"attr":0,"data":70},{"attr":0,"data":75}]},{"id":78,"name":"$out","links":[{"attr":0,"data":73},{"attr":1,"data":75}]},{"id":79,"name":"$out","links":[{"attr":0,"data":74},{"attr":0,"data":65}]},{"id":63,"name":"phi","links":[{"attr":1,"data":55},{"attr":1,"data":76}]},{"id":64,"name":"phi","links":[{"attr":1,"data":57},{"attr":1,"data":56}]},{"id":65,"name":"phi","links":[{"attr":1,"data":79},{"attr":1,"data":58}]},{"id":75,"name":"phi","links":[{"attr":1,"data":77},{"attr":1,"data":78}]}],"membranes":[{"id":50,"name":"fork","atoms":[{"id":51,"name":"$in","links":[{"attr":0,"data":55},{"attr":0,"data":54}]},{"id":52,"name":"$in","links":[{"attr":0,"data":56},{"attr":0,"data":53}]},{"id":53,"name":"+","links":[{"attr":1,"data":52}]},{"id":54,"name":"-","links":[{"attr":1,"data":51}]}],"membranes":[]},{"id":45,"name":"fork","atoms":[{"id":46,"name":"$in","links":[{"attr":0,"data":57},{"attr":0,"data":48}]},{"id":47,"name":"$in","links":[{"attr":0,"data":58},{"attr":0,"data":49}]},{"id":48,"name":"+","links":[{"attr":1,"data":46}]},{"id":49,"name":"-","links":[{"attr":1,"data":47}]}],"membranes":[]},{"id":40,"name":"fork","atoms":[{"id":73,"name":"$in","links":[{"attr":0,"data":78},{"attr":0,"data":71}]},{"id":74,"name":"$in","links":[{"attr":0,"data":79},{"attr":0,"data":72}]},{"id":71,"name":"+","links":[{"attr":1,"data":73}]},{"id":72,"name":"+","links":[{"attr":1,"data":74}]}],"membranes":[]},{"id":35,"name":"fork","atoms":[{"id":69,"name":"$in","links":[{"attr":0,"data":76},{"attr":0,"data":67}]},{"id":70,"name":"$in","links":[{"attr":0,"data":77},{"attr":0,"data":68}]},{"id":67,"name":"+","links":[{"attr":1,"data":69}]},{"id":68,"name":"+","links":[{"attr":1,"data":70}]}],"membranes":[]}]}
Parent State ID Information
file:mc.c...func:mc_gen_successors...line:571
10
Succ number Information
file:mc.c...func:mc_gen_successors...line:514
1
Parent Graph Information
file:mc.c...func:mc_gen_successors...line:518
{"id":34,"name":"","atoms":[{"id":55,"name":"$out","links":[{"attr":0,"data":51},{"attr":0,"data":63}]},{"id":56,"name":"$out","links":[{"attr":0,"data":52},{"attr":1,"data":64}]},{"id":57,"name":"$out","links":[{"attr":0,"data":46},{"attr":0,"data":64}]},{"id":58,"name":"$out","links":[{"attr":0,"data":47},{"attr":1,"data":65}]},{"id":59,"name":"$out","links":[{"attr":0,"data":41},{"attr":0,"data":65}]},{"id":60,"name":"$out","links":[{"attr":0,"data":42},{"attr":1,"data":66}]},{"id":61,"name":"$out","links":[{"attr":0,"data":36},{"attr":0,"data":66}]},{"id":62,"name":"$out","links":[{"attr":0,"data":37},{"attr":1,"data":63}]},{"id":63,"name":"phi","links":[{"attr":1,"data":55},{"attr":1,"data":62}]},{"id":64,"name":"phi","links":[{"attr":1,"data":57},{"attr":1,"data":56}]},{"id":65,"name":"phi","links":[{"attr":1,"data":59},{"attr":1,"data":58}]},{"id":66,"name":"phi","links":[{"attr":1,"data":61},{"attr":1,"data":60}]}],"membranes":[{"id":50,"name":"fork","atoms":[{"id":51,"name":"$in","links":[{"attr":0,"data":55},{"attr":0,"data":54}]},{"id":52,"name":"$in","links":[{"attr":0,"data":56},{"attr":0,"data":53}]},{"id":53,"name":"+","links":[{"attr":1,"data":52}]},{"id":54,"name":"-","links":[{"attr":1,"data":51}]}],"membranes":[]},{"id":45,"name":"fork","atoms":[{"id":46,"name":"$in","links":[{"attr":0,"data":57},{"attr":0,"data":48}]},{"id":47,"name":"$in","links":[{"attr":0,"data":58},{"attr":0,"data":49}]},{"id":48,"name":"+","links":[{"attr":1,"data":46}]},{"id":49,"name":"-","links":[{"attr":1,"data":47}]}],"membranes":[]},{"id":40,"name":"fork","atoms":[{"id":41,"name":"$in","links":[{"attr":0,"data":59},{"attr":0,"data":43}]},{"id":42,"name":"$in","links":[{"attr":0,"data":60},{"attr":0,"data":44}]},{"id":43,"name":"+","links":[{"attr":1,"data":41}]},{"id":44,"name":"-","links":[{"attr":1,"data":42}]}],"membranes":[]},{"id":35,"name":"fork","atoms":[{"id":36,"name":"$in","links":[{"attr":0,"data":61},{"attr":0,"data":38}]},{"id":37,"name":"$in","links":[{"attr":0,"data":62},{"attr":0,"data":39}]},{"id":38,"name":"+","links":[{"attr":1,"data":36}]},{"id":39,"name":"-","links":[{"attr":1,"data":37}]}],"membranes":[]}]}
Child Graph Information
file:mc.c...func:mc_gen_successors...line:533
{"id":34,"name":"","atoms":[{"id":59,"name":"$out","links":[{"attr":0,"data":41},{"attr":0,"data":65}]},{"id":60,"name":"$out","links":[{"attr":0,"data":42},{"attr":1,"data":66}]},{"id":61,"name":"$out","links":[{"attr":0,"data":36},{"attr":0,"data":66}]},{"id":62,"name":"$out","links":[{"attr":0,"data":37},{"attr":1,"data":63}]},{"id":76,"name":"$out","links":[{"attr":0,"data":69},{"attr":1,"data":65}]},{"id":77,"name":"$out","links":[{"attr":0,"data":70},{"attr":0,"data":75}]},{"id":78,"name":"$out","links":[{"attr":0,"data":73},{"attr":1,"data":75}]},{"id":79,"name":"$out","links":[{"attr":0,"data":74},{"attr":0,"data":63}]},{"id":63,"name":"phi","links":[{"attr":1,"data":79},{"attr":1,"data":62}]},{"id":65,"name":"phi","links":[{"attr":1,"data":59},{"attr":1,"data":76}]},{"id":66,"name":"phi","links":[{"attr":1,"data":61},{"attr":1,"data":60}]},{"id":75,"name":"phi","links":[{"attr":1,"data":77},{"attr":1,"data":78}]}],"membranes":[{"id":50,"name":"fork","atoms":[{"id":73,"name":"$in","links":[{"attr":0,"data":78},{"attr":0,"data":71}]},{"id":74,"name":"$in","links":[{"attr":0,"data":79},{"attr":0,"data":72}]},{"id":71,"name":"+","links":[{"attr":1,"data":73}]},{"id":72,"name":"+","links":[{"attr":1,"data":74}]}],"membranes":[]},{"id":45,"name":"fork","atoms":[{"id":69,"name":"$in","links":[{"attr":0,"data":76},{"attr":0,"data":67}]},{"id":70,"name":"$in","links":[{"attr":0,"data":77},{"attr":0,"data":68}]},{"id":67,"name":"+","links":[{"attr":1,"data":69}]},{"id":68,"name":"+","links":[{"attr":1,"data":70}]}],"membranes":[]},{"id":40,"name":"fork","atoms":[{"id":41,"name":"$in","links":[{"attr":0,"data":59},{"attr":0,"data":43}]},{"id":42,"name":"$in","links":[{"attr":0,"data":60},{"attr":0,"data":44}]},{"id":43,"name":"+","links":[{"attr":1,"data":41}]},{"id":44,"name":"-","links":[{"attr":1,"data":42}]}],"membranes":[]},{"id":35,"name":"fork","atoms":[{"id":36,"name":"$in","links":[{"attr":0,"data":61},{"attr":0,"data":38}]},{"id":37,"name":"$in","links":[{"attr":0,"data":62},{"attr":0,"data":39}]},{"id":38,"name":"+","links":[{"attr":1,"data":36}]},{"id":39,"name":"-","links":[{"attr":1,"data":37}]}],"membranes":[]}]}
Parent State ID Information
file:mc.c...func:mc_gen_successors...line:571
9
Succ number Information
file:mc.c...func:mc_gen_successors...line:514
3
Parent Graph Information
file:mc.c...func:mc_gen_successors...line:518
{"id":34,"name":"","atoms":[{"id":55,"name":"$out","links":[{"attr":0,"data":51},{"attr":0,"data":63}]},{"id":56,"name":"$out","links":[{"attr":0,"data":52},{"attr":1,"data":64}]},{"id":57,"name":"$out","links":[{"attr":0,"data":46},{"attr":0,"data":64}]},{"id":58,"name":"$out","links":[{"attr":0,"data":47},{"attr":1,"data":65}]},{"id":59,"name":"$out","links":[{"attr":0,"data":41},{"attr":0,"data":65}]},{"id":60,"name":"$out","links":[{"attr":0,"data":42},{"attr":1,"data":66}]},{"id":61,"name":"$out","links":[{"attr":0,"data":36},{"attr":0,"data":66}]},{"id":62,"name":"$out","links":[{"attr":0,"data":37},{"attr":1,"data":63}]},{"id":63,"name":"phi","links":[{"attr":1,"data":55},{"attr":1,"data":62}]},{"id":64,"name":"phi","links":[{"attr":1,"data":57},{"attr":1,"data":56}]},{"id":65,"name":"phi","links":[{"attr":1,"data":59},{"attr":1,"data":58}]},{"id":66,"name":"phi","links":[{"attr":1,"data":61},{"attr":1,"data":60}]}],"membranes":[{"id":50,"name":"fork","atoms":[{"id":51,"name":"$in","links":[{"attr":0,"data":55},{"attr":0,"data":53}]},{"id":52,"name":"$in","links":[{"attr":0,"data":56},{"attr":0,"data":54}]},{"id":53,"name":"+","links":[{"attr":1,"data":51}]},{"id":54,"name":"-","links":[{"attr":1,"data":52}]}],"membranes":[]},{"id":45,"name":"fork","atoms":[{"id":46,"name":"$in","links":[{"attr":0,"data":57},{"attr":0,"data":48}]},{"id":47,"name":"$in","links":[{"attr":0,"data":58},{"attr":0,"data":49}]},{"id":48,"name":"+","links":[{"attr":1,"data":46}]},{"id":49,"name":"-","links":[{"attr":1,"data":47}]}],"membranes":[]},{"id":40,"name":"fork","atoms":[{"id":41,"name":"$in","links":[{"attr":0,"data":59},{"attr":0,"data":43}]},{"id":42,"name":"$in","links":[{"attr":0,"data":60},{"attr":0,"data":44}]},{"id":43,"name":"+","links":[{"attr":1,"data":41}]},{"id":44,"name":"+","links":[{"attr":1,"data":42}]}],"membranes":[]},{"id":35,"name":"fork","atoms":[{"id":36,"name":"$in","links":[{"attr":0,"data":61},{"attr":0,"data":38}]},{"id":37,"name":"$in","links":[{"attr":0,"data":62},{"attr":0,"data":39}]},{"id":38,"name":"+","links":[{"attr":1,"data":36}]},{"id":39,"name":"+","links":[{"attr":1,"data":37}]}],"membranes":[]}]}
Child Graph Information
file:mc.c...func:mc_gen_successors...line:533
{"id":34,"name":"","atoms":[{"id":55,"name":"$out","links":[{"attr":0,"data":51},{"attr":0,"data":63}]},{"id":56,"name":"$out","links":[{"attr":0,"data":52},{"attr":1,"data":64}]},{"id":57,"name":"$out","links":[{"attr":0,"data":46},{"attr":0,"data":64}]},{"id":58,"name":"$out","links":[{"attr":0,"data":47},{"attr":1,"data":71}]},{"id":61,"name":"$out","links":[{"attr":0,"data":36},{"attr":0,"data":66}]},{"id":62,"name":"$out","links":[{"attr":0,"data":37},{"attr":1,"data":63}]},{"id":72,"name":"$out","links":[{"attr":0,"data":69},{"attr":1,"data":66}]},{"id":73,"name":"$out","links":[{"attr":0,"data":70},{"attr":0,"data":71}]},{"id":63,"name":"phi","links":[{"attr":1,"data":55},{"attr":1,"data":62}]},{"id":64,"name":"phi","links":[{"attr":1,"data":57},{"attr":1,"data":56}]},{"id":66,"name":"phi","links":[{"attr":1,"data":61},{"attr":1,"data":72}]},{"id":71,"name":"phi","links":[{"attr":1,"data":73},{"attr":1,"data":58}]}],"membranes":[{"id":50,"name":"fork","atoms":[{"id":51,"name":"$in","links":[{"attr":0,"data":55},{"attr":0,"data":53}]},{"id":52,"name":"$in","links":[{"attr":0,"data":56},{"attr":0,"data":54}]},{"id":53,"name":"+","links":[{"attr":1,"data":51}]},{"id":54,"name":"-","links":[{"attr":1,"data":52}]}],"membranes":[]},{"id":45,"name":"fork","atoms":[{"id":46,"name":"$in","links":[{"attr":0,"data":57},{"attr":0,"data":48}]},{"id":47,"name":"$in","links":[{"attr":0,"data":58},{"attr":0,"data":49}]},{"id":48,"name":"+","links":[{"attr":1,"data":46}]},{"id":49,"name":"-","links":[{"attr":1,"data":47}]}],"membranes":[]},{"id":40,"name":"fork","atoms":[{"id":69,"name":"$in","links":[{"attr":0,"data":72},{"attr":0,"data":67}]},{"id":70,"name":"$in","links":[{"attr":0,"data":73},{"attr":0,"data":68}]},{"id":68,"name":"+","links":[{"attr":1,"data":70}]},{"id":67,"name":"-","links":[{"attr":1,"data":69}]}],"membranes":[]},{"id":35,"name":"fork","atoms":[{"id":36,"name":"$in","links":[{"attr":0,"data":61},{"attr":0,"data":38}]},{"id":37,"name":"$in","links":[{"attr":0,"data":62},{"attr":0,"data":39}]},{"id":38,"name":"+","links":[{"attr":1,"data":36}]},{"id":39,"name":"+","links":[{"attr":1,"data":37}]}],"membranes":[]}]}
Child Graph Information
file:mc.c...func:mc_gen_successors...line:533
{"id":34,"name":"","atoms":[{"id":55,"name":"$out","links":[{"attr":0,"data":51},{"attr":0,"data":63}]},{"id":56,"name":"$out","links":[{"attr":0,"data":52},{"attr":1,"data":64}]},{"id":57,"name":"$out","links":[{"attr":0,"data":46},{"attr":0,"data":64}]},{"id":58,"name":"$out","links":[{"attr":0,"data":47},{"attr":1,"data":65}]},{"id":59,"name":"$out","links":[{"attr":0,"data":41},{"attr":0,"data":65}]},{"id":60,"name":"$out","links":[{"attr":0,"data":42},{"attr":1,"data":71}]},{"id":72,"name":"$out","links":[{"attr":0,"data":69},{"attr":1,"data":63}]},{"id":73,"name":"$out","links":[{"attr":0,"data":70},{"attr":0,"data":71}]},{"id":63,"name":"phi","links":[{"attr":1,"data":55},{"attr":1,"data":72}]},{"id":64,"name":"phi","links":[{"attr":1,"data":57},{"attr":1,"data":56}]},{"id":65,"name":"phi","links":[{"attr":1,"data":59},{"attr":1,"data":58}]},{"id":71,"name":"phi","links":[{"attr":1,"data":73},{"attr":1,"data":60}]}],"membranes":[{"id":50,"name":"fork","atoms":[{"id":51,"name":"$in","links":[{"attr":0,"data":55},{"attr":0,"data":53}]},{"id":52,"name":"$in","links":[{"attr":0,"data":56},{"attr":0,"data":54}]},{"id":53,"name":"+","links":[{"attr":1,"data":51}]},{"id":54,"name":"-","links":[{"attr":1,"data":52}]}],"membranes":[]},{"id":45,"name":"fork","atoms":[{"id":46,"name":"$in","links":[{"attr":0,"data":57},{"attr":0,"data":48}]},{"id":47,"name":"$in","links":[{"attr":0,"data":58},{"attr":0,"data":49}]},{"id":48,"name":"+","links":[{"attr":1,"data":46}]},{"id":49,"name":"-","links":[{"attr":1,"data":47}]}],"membranes":[]},{"id":40,"name":"fork","atoms":[{"id":41,"name":"$in","links":[{"attr":0,"data":59},{"attr":0,"data":43}]},{"id":42,"name":"$in","links":[{"attr":0,"data":60},{"attr":0,"data":44}]},{"id":43,"name":"+","links":[{"attr":1,"data":41}]},{"id":44,"name":"+","links":[{"attr":1,"data":42}]}],"membranes":[]},{"id":35,"name":"fork","atoms":[{"id":69,"name":"$in","links":[{"attr":0,"data":72},{"attr":0,"data":67}]},{"id":70,"name":"$in","links":[{"attr":0,"data":73},{"attr":0,"data":68}]},{"id":68,"name":"+","links":[{"attr":1,"data":70}]},{"id":67,"name":"-","links":[{"attr":1,"data":69}]}],"membranes":[]}]}
Child Graph Information
file:mc.c...func:mc_gen_successors...line:533
{"id":34,"name":"","atoms":[{"id":57,"name":"$out","links":[{"attr":0,"data":46},{"attr":0,"data":64}]},{"id":58,"name":"$out","links":[{"attr":0,"data":47},{"attr":1,"data":65}]},{"id":59,"name":"$out","links":[{"attr":0,"data":41},{"attr":0,"data":65}]},{"id":60,"name":"$out","links":[{"attr":0,"data":42},{"attr":1,"data":66}]},{"id":76,"name":"$out","links":[{"attr":0,"data":69},{"attr":1,"data":64}]},{"id":77,"name":"$out","links":[{"attr":0,"data":70},{"attr":0,"data":75}]},{"id":78,"name":"$out","links":[{"attr":0,"data":73},{"attr":1,"data":75}]},{"id":79,"name":"$out","links":[{"attr":0,"data":74},{"attr":0,"data":66}]},{"id":64,"name":"phi","links":[{"attr":1,"data":57},{"attr":1,"data":76}]},{"id":65,"name":"phi","links":[{"attr":1,"data":59},{"attr":1,"data":58}]},{"id":66,"name":"phi","links":[{"attr":1,"data":79},{"attr":1,"data":60}]},{"id":75,"name":"phi","links":[{"attr":1,"data":77},{"attr":1,"data":78}]}],"membranes":[{"id":50,"name":"fork","atoms":[{"id":69,"name":"$in","links":[{"attr":0,"data":76},{"attr":0,"data":67}]},{"id":70,"name":"$in","links":[{"attr":0,"data":77},{"attr":0,"data":68}]},{"id":68,"name":"+","links":[{"attr":1,"data":70}]},{"id":67,"name":"-","links":[{"attr":1,"data":69}]}],"membranes":[]},{"id":45,"name":"fork","atoms":[{"id":46,"name":"$in","links":[{"attr":0,"data":57},{"attr":0,"data":48}]},{"id":47,"name":"$in","links":[{"attr":0,"data":58},{"attr":0,"data":49}]},{"id":48,"name":"+","links":[{"attr":1,"data":46}]},{"id":49,"name":"-","links":[{"attr":1,"data":47}]}],"membranes":[]},{"id":40,"name":"fork","atoms":[{"id":41,"name":"$in","links":[{"attr":0,"data":59},{"attr":0,"data":43}]},{"id":42,"name":"$in","links":[{"attr":0,"data":60},{"attr":0,"data":44}]},{"id":43,"name":"+","links":[{"attr":1,"data":41}]},{"id":44,"name":"+","links":[{"attr":1,"data":42}]}],"membranes":[]},{"id":35,"name":"fork","atoms":[{"id":73,"name":"$in","links":[{"attr":0,"data":78},{"attr":0,"data":71}]},{"id":74,"name":"$in","links":[{"attr":0,"data":79},{"attr":0,"data":72}]},{"id":71,"name":"+","links":[{"attr":1,"data":73}]},{"id":72,"name":"-","links":[{"attr":1,"data":74}]}],"membranes":[]}]}
Parent State ID Information
file:mc.c...func:mc_gen_successors...line:571
6
Succ number Information
file:mc.c...func:mc_gen_successors...line:514
2
Parent Graph Information
file:mc.c...func:mc_gen_successors...line:518
{"id":34,"name":"","atoms":[{"id":55,"name":"$out","links":[{"attr":0,"data":51},{"attr":0,"data":63}]},{"id":56,"name":"$out","links":[{"attr":0,"data":52},{"attr":1,"data":64}]},{"id":57,"name":"$out","links":[{"attr":0,"data":46},{"attr":0,"data":64}]},{"id":58,"name":"$out","links":[{"attr":0,"data":47},{"attr":1,"data":65}]},{"id":59,"name":"$out","links":[{"attr":0,"data":41},{"attr":0,"data":65}]},{"id":60,"name":"$out","links":[{"attr":0,"data":42},{"attr":1,"data":66}]},{"id":61,"name":"$out","links":[{"attr":0,"data":36},{"attr":0,"data":66}]},{"id":62,"name":"$out","links":[{"attr":0,"data":37},{"attr":1,"data":63}]},{"id":63,"name":"phi","links":[{"attr":1,"data":55},{"attr":1,"data":62}]},{"id":64,"name":"phi","links":[{"attr":1,"data":57},{"attr":1,"data":56}]},{"id":65,"name":"phi","links":[{"attr":1,"data":59},{"attr":1,"data":58}]},{"id":66,"name":"phi","links":[{"attr":1,"data":61},{"attr":1,"data":60}]}],"membranes":[{"id":50,"name":"fork","atoms":[{"id":51,"name":"$in","links":[{"attr":0,"data":55},{"attr":0,"data":54}]},{"id":52,"name":"$in","links":[{"attr":0,"data":56},{"attr":0,"data":53}]},{"id":53,"name":"+","links":[{"attr":1,"data":52}]},{"id":54,"name":"-","links":[{"attr":1,"data":51}]}],"membranes":[]},{"id":45,"name":"fork","atoms":[{"id":46,"name":"$in","links":[{"attr":0,"data":57},{"attr":0,"data":48}]},{"id":47,"name":"$in","links":[{"attr":0,"data":58},{"attr":0,"data":49}]},{"id":48,"name":"+","links":[{"attr":1,"data":46}]},{"id":49,"name":"-","links":[{"attr":1,"data":47}]}],"membranes":[]},{"id":40,"name":"fork","atoms":[{"id":41,"name":"$in","links":[{"attr":0,"data":59},{"attr":0,"data":43}]},{"id":42,"name":"$in","links":[{"attr":0,"data":60},{"attr":0,"data":44}]},{"id":43,"name":"+","links":[{"attr":1,"data":41}]},{"id":44,"name":"-","links":[{"attr":1,"data":42}]}],"membranes":[]},{"id":35,"name":"fork","atoms":[{"id":36,"name":"$in","links":[{"attr":0,"data":61},{"attr":0,"data":38}]},{"id":37,"name":"$in","links":[{"attr":0,"data":62},{"attr":0,"data":39}]},{"id":38,"name":"+","links":[{"attr":1,"data":36}]},{"id":39,"name":"+","links":[{"attr":1,"data":37}]}],"membranes":[]}]}
Child Graph Information
file:mc.c...func:mc_gen_successors...line:533
{"id":34,"name":"","atoms":[{"id":55,"name":"$out","links":[{"attr":0,"data":51},{"attr":0,"data":63}]},{"id":56,"name":"$out","links":[{"attr":0,"data":52},{"attr":1,"data":64}]},{"id":57,"name":"$out","links":[{"attr":0,"data":46},{"attr":0,"data":64}]},{"id":58,"name":"$out","links":[{"attr":0,"data":47},{"attr":1,"data":65}]},{"id":59,"name":"$out","links":[{"attr":0,"data":41},{"attr":0,"data":65}]},{"id":60,"name":"$out","links":[{"attr":0,"data":42},{"attr":1,"data":71}]},{"id":72,"name":"$out","links":[{"attr":0,"data":69},{"attr":1,"data":63}]},{"id":73,"name":"$out","links":[{"attr":0,"data":70},{"attr":0,"data":71}]},{"id":63,"name":"phi","links":[{"attr":1,"data":55},{"attr":1,"data":72}]},{"id":64,"name":"phi","links":[{"attr":1,"data":57},{"attr":1,"data":56}]},{"id":65,"name":"phi","links":[{"attr":1,"data":59},{"attr":1,"data":58}]},{"id":71,"name":"phi","links":[{"attr":1,"data":73},{"attr":1,"data":60}]}],"membranes":[{"id":50,"name":"fork","atoms":[{"id":51,"name":"$in","links":[{"attr":0,"data":55},{"attr":0,"data":54}]},{"id":52,"name":"$in","links":[{"attr":0,"data":56},{"attr":0,"data":53}]},{"id":53,"name":"+","links":[{"attr":1,"data":52}]},{"id":54,"name":"-","links":[{"attr":1,"data":51}]}],"membranes":[]},{"id":45,"name":"fork","atoms":[{"id":46,"name":"$in","links":[{"attr":0,"data":57},{"attr":0,"data":48}]},{"id":47,"name":"$in","links":[{"attr":0,"data":58},{"attr":0,"data":49}]},{"id":48,"name":"+","links":[{"attr":1,"data":46}]},{"id":49,"name":"-","links":[{"attr":1,"data":47}]}],"membranes":[]},{"id":40,"name":"fork","atoms":[{"id":41,"name":"$in","links":[{"attr":0,"data":59},{"attr":0,"data":43}]},{"id":42,"name":"$in","links":[{"attr":0,"data":60},{"attr":0,"data":44}]},{"id":43,"name":"+","links":[{"attr":1,"data":41}]},{"id":44,"name":"-","links":[{"attr":1,"data":42}]}],"membranes":[]},{"id":35,"name":"fork","atoms":[{"id":69,"name":"$in","links":[{"attr":0,"data":72},{"attr":0,"data":67}]},{"id":70,"name":"$in","links":[{"attr":0,"data":73},{"attr":0,"data":68}]},{"id":68,"name":"+","links":[{"attr":1,"data":70}]},{"id":67,"name":"-","links":[{"attr":1,"data":69}]}],"membranes":[]}]}
Child Graph Information
file:mc.c...func:mc_gen_successors...line:533
{"id":34,"name":"","atoms":[{"id":59,"name":"$out","links":[{"attr":0,"data":41},{"attr":0,"data":65}]},{"id":60,"name":"$out","links":[{"attr":0,"data":42},{"attr":1,"data":66}]},{"id":61,"name":"$out","links":[{"attr":0,"data":36},{"attr":0,"data":66}]},{"id":62,"name":"$out","links":[{"attr":0,"data":37},{"attr":1,"data":63}]},{"id":76,"name":"$out","links":[{"attr":0,"data":69},{"attr":1,"data":65}]},{"id":77,"name":"$out","links":[{"attr":0,"data":70},{"attr":0,"data":75}]},{"id":78,"name":"$out","links":[{"attr":0,"data":73},{"attr":1,"data":75}]},{"id":79,"name":"$out","links":[{"attr":0,"data":74},{"attr":0,"data":63}]},{"id":63,"name":"phi","links":[{"attr":1,"data":79},{"attr":1,"data":62}]},{"id":65,"name":"phi","links":[{"attr":1,"data":59},{"attr":1,"data":76}]},{"id":66,"name":"phi","links":[{"attr":1,"data":61},{"attr":1,"data":60}]},{"id":75,"name":"phi","links":[{"attr":1,"data":77},{"attr":1,"data":78}]}],"membranes":[{"id":50,"name":"fork","atoms":[{"id":73,"name":"$in","links":[{"attr":0,"data":78},{"attr":0,"data":71}]},{"id":74,"name":"$in","links":[{"attr":0,"data":79},{"attr":0,"data":72}]},{"id":71,"name":"+","links":[{"attr":1,"data":73}]},{"id":72,"name":"+","links":[{"attr":1,"data":74}]}],"membranes":[]},{"id":45,"name":"fork","atoms":[{"id":69,"name":"$in","links":[{"attr":0,"data":76},{"attr":0,"data":67}]},{"id":70,"name":"$in","links":[{"attr":0,"data":77},{"attr":0,"data":68}]},{"id":67,"name":"+","links":[{"attr":1,"data":69}]},{"id":68,"name":"+","links":[{"attr":1,"data":70}]}],"membranes":[]},{"id":40,"name":"fork","atoms":[{"id":41,"name":"$in","links":[{"attr":0,"data":59},{"attr":0,"data":43}]},{"id":42,"name":"$in","links":[{"attr":0,"data":60},{"attr":0,"data":44}]},{"id":43,"name":"+","links":[{"attr":1,"data":41}]},{"id":44,"name":"-","links":[{"attr":1,"data":42}]}],"membranes":[]},{"id":35,"name":"fork","atoms":[{"id":36,"name":"$in","links":[{"attr":0,"data":61},{"attr":0,"data":38}]},{"id":37,"name":"$in","links":[{"attr":0,"data":62},{"attr":0,"data":39}]},{"id":38,"name":"+","links":[{"attr":1,"data":36}]},{"id":39,"name":"+","links":[{"attr":1,"data":37}]}],"membranes":[]}]}
Parent State ID Information
file:mc.c...func:mc_gen_successors...line:571
2
Succ number Information
file:mc.c...func:mc_gen_successors...line:514
2
Parent Graph Information
file:mc.c...func:mc_gen_successors...line:518
{"id":34,"name":"","atoms":[{"id":55,"name":"$out","links":[{"attr":0,"data":51},{"attr":0,"data":63}]},{"id":56,"name":"$out","links":[{"attr":0,"data":52},{"attr":1,"data":64}]},{"id":57,"name":"$out","links":[{"attr":0,"data":46},{"attr":0,"data":64}]},{"id":58,"name":"$out","links":[{"attr":0,"data":47},{"attr":1,"data":65}]},{"id":59,"name":"$out","links":[{"attr":0,"data":41},{"attr":0,"data":65}]},{"id":60,"name":"$out","links":[{"attr":0,"data":42},{"attr":1,"data":66}]},{"id":61,"name":"$out","links":[{"attr":0,"data":36},{"attr":0,"data":66}]},{"id":62,"name":"$out","links":[{"attr":0,"data":37},{"attr":1,"data":63}]},{"id":63,"name":"phi","links":[{"attr":1,"data":55},{"attr":1,"data":62}]},{"id":64,"name":"phi","links":[{"attr":1,"data":57},{"attr":1,"data":56}]},{"id":65,"name":"phi","links":[{"attr":1,"data":59},{"attr":1,"data":58}]},{"id":66,"name":"phi","links":[{"attr":1,"data":61},{"attr":1,"data":60}]}],"membranes":[{"id":50,"name":"fork","atoms":[{"id":51,"name":"$in","links":[{"attr":0,"data":55},{"attr":0,"data":53}]},{"id":52,"name":"$in","links":[{"attr":0,"data":56},{"attr":0,"data":54}]},{"id":53,"name":"+","links":[{"attr":1,"data":51}]},{"id":54,"name":"-","links":[{"attr":1,"data":52}]}],"membranes":[]},{"id":45,"name":"fork","atoms":[{"id":46,"name":"$in","links":[{"attr":0,"data":57},{"attr":0,"data":48}]},{"id":47,"name":"$in","links":[{"attr":0,"data":58},{"attr":0,"data":49}]},{"id":48,"name":"+","links":[{"attr":1,"data":46}]},{"id":49,"name":"-","links":[{"attr":1,"data":47}]}],"membranes":[]},{"id":40,"name":"fork","atoms":[{"id":41,"name":"$in","links":[{"attr":0,"data":59},{"attr":0,"data":43}]},{"id":42,"name":"$in","links":[{"attr":0,"data":60},{"attr":0,"data":44}]},{"id":43,"name":"+","links":[{"attr":1,"data":41}]},{"id":44,"name":"-","links":[{"attr":1,"data":42}]}],"membranes":[]},{"id":35,"name":"fork","atoms":[{"id":36,"name":"$in","links":[{"attr":0,"data":61},{"attr":0,"data":38}]},{"id":37,"name":"$in","links":[{"attr":0,"data":62},{"attr":0,"data":39}]},{"id":38,"name":"+","links":[{"attr":1,"data":36}]},{"id":39,"name":"+","links":[{"attr":1,"data":37}]}],"membranes":[]}]}
Child Graph Information
file:mc.c...func:mc_gen_successors...line:533
{"id":34,"name":"","atoms":[{"id":55,"name":"$out","links":[{"attr":0,"data":51},{"attr":0,"data":63}]},{"id":56,"name":"$out","links":[{"attr":0,"data":52},{"attr":1,"data":64}]},{"id":57,"name":"$out","links":[{"attr":0,"data":46},{"attr":0,"data":64}]},{"id":58,"name":"$out","links":[{"attr":0,"data":47},{"attr":1,"data":65}]},{"id":59,"name":"$out","links":[{"attr":0,"data":41},{"attr":0,"data":65}]},{"id":60,"name":"$out","links":[{"attr":0,"data":42},{"attr":1,"data":71}]},{"id":72,"name":"$out","links":[{"attr":0,"data":69},{"attr":1,"data":63}]},{"id":73,"name":"$out","links":[{"attr":0,"data":70},{"attr":0,"data":71}]},{"id":63,"name":"phi","links":[{"attr":1,"data":55},{"attr":1,"data":72}]},{"id":64,"name":"phi","links":[{"attr":1,"data":57},{"attr":1,"data":56}]},{"id":65,"name":"phi","links":[{"attr":1,"data":59},{"attr":1,"data":58}]},{"id":71,"name":"phi","links":[{"attr":1,"data":73},{"attr":1,"data":60}]}],"membranes":[{"id":50,"name":"fork","atoms":[{"id":51,"name":"$in","links":[{"attr":0,"data":55},{"attr":0,"data":53}]},{"id":52,"name":"$in","links":[{"attr":0,"data":56},{"attr":0,"data":54}]},{"id":53,"name":"+","links":[{"attr":1,"data":51}]},{"id":54,"name":"-","links":[{"attr":1,"data":52}]}],"membranes":[]},{"id":45,"name":"fork","atoms":[{"id":46,"name":"$in","links":[{"attr":0,"data":57},{"attr":0,"data":48}]},{"id":47,"name":"$in","links":[{"attr":0,"data":58},{"attr":0,"data":49}]},{"id":48,"name":"+","links":[{"attr":1,"data":46}]},{"id":49,"name":"-","links":[{"attr":1,"data":47}]}],"membranes":[]},{"id":40,"name":"fork","atoms":[{"id":41,"name":"$in","links":[{"attr":0,"data":59},{"attr":0,"data":43}]},{"id":42,"name":"$in","links":[{"attr":0,"data":60},{"attr":0,"data":44}]},{"id":43,"name":"+","links":[{"attr":1,"data":41}]},{"id":44,"name":"-","links":[{"attr":1,"data":42}]}],"membranes":[]},{"id":35,"name":"fork","atoms":[{"id":69,"name":"$in","links":[{"attr":0,"data":72},{"attr":0,"data":67}]},{"id":70,"name":"$in","links":[{"attr":0,"data":73},{"attr":0,"data":68}]},{"id":68,"name":"+","links":[{"attr":1,"data":70}]},{"id":67,"name":"-","links":[{"attr":1,"data":69}]}],"membranes":[]}]}
Child Graph Information
file:mc.c...func:mc_gen_successors...line:533
{"id":34,"name":"","atoms":[{"id":57,"name":"$out","links":[{"attr":0,"data":46},{"attr":0,"data":64}]},{"id":58,"name":"$out","links":[{"attr":0,"data":47},{"attr":1,"data":65}]},{"id":59,"name":"$out","links":[{"attr":0,"data":41},{"attr":0,"data":65}]},{"id":60,"name":"$out","links":[{"attr":0,"data":42},{"attr":1,"data":66}]},{"id":76,"name":"$out","links":[{"attr":0,"data":69},{"attr":1,"data":64}]},{"id":77,"name":"$out","links":[{"attr":0,"data":70},{"attr":0,"data":75}]},{"id":78,"name":"$out","links":[{"attr":0,"data":73},{"attr":1,"data":75}]},{"id":79,"name":"$out","links":[{"attr":0,"data":74},{"attr":0,"data":66}]},{"id":64,"name":"phi","links":[{"attr":1,"data":57},{"attr":1,"data":76}]},{"id":65,"name":"phi","links":[{"attr":1,"data":59},{"attr":1,"data":58}]},{"id":66,"name":"phi","links":[{"attr":1,"data":79},{"attr":1,"data":60}]},{"id":75,"name":"phi","links":[{"attr":1,"data":77},{"attr":1,"data":78}]}],"membranes":[{"id":50,"name":"fork","atoms":[{"id":69,"name":"$in","links":[{"attr":0,"data":76},{"attr":0,"data":67}]},{"id":70,"name":"$in","links":[{"attr":0,"data":77},{"attr":0,"data":68}]},{"id":68,"name":"+","links":[{"attr":1,"data":70}]},{"id":67,"name":"-","links":[{"attr":1,"data":69}]}],"membranes":[]},{"id":45,"name":"fork","atoms":[{"id":46,"name":"$in","links":[{"attr":0,"data":57},{"attr":0,"data":48}]},{"id":47,"name":"$in","links":[{"attr":0,"data":58},{"attr":0,"data":49}]},{"id":48,"name":"+","links":[{"attr":1,"data":46}]},{"id":49,"name":"-","links":[{"attr":1,"data":47}]}],"membranes":[]},{"id":40,"name":"fork","atoms":[{"id":41,"name":"$in","links":[{"attr":0,"data":59},{"attr":0,"data":43}]},{"id":42,"name":"$in","links":[{"attr":0,"data":60},{"attr":0,"data":44}]},{"id":43,"name":"+","links":[{"attr":1,"data":41}]},{"id":44,"name":"-","links":[{"attr":1,"data":42}]}],"membranes":[]},{"id":35,"name":"fork","atoms":[{"id":73,"name":"$in","links":[{"attr":0,"data":78},{"attr":0,"data":71}]},{"id":74,"name":"$in","links":[{"attr":0,"data":79},{"attr":0,"data":72}]},{"id":71,"name":"+","links":[{"attr":1,"data":73}]},{"id":72,"name":"-","links":[{"attr":1,"data":74}]}],"membranes":[]}]}
Parent State ID Information
file:mc.c...func:mc_gen_successors...line:571
8
Succ number Information
file:mc.c...func:mc_gen_successors...line:514
0
Parent Graph Information
file:mc.c...func:mc_gen_successors...line:518
{"id":34,"name":"","atoms":[{"id":55,"name":"$out","links":[{"attr":0,"data":51},{"attr":0,"data":63}]},{"id":56,"name":"$out","links":[{"attr":0,"data":52},{"attr":1,"data":64}]},{"id":57,"name":"$out","links":[{"attr":0,"data":46},{"attr":0,"data":64}]},{"id":58,"name":"$out","links":[{"attr":0,"data":47},{"attr":1,"data":65}]},{"id":59,"name":"$out","links":[{"attr":0,"data":41},{"attr":0,"data":65}]},{"id":60,"name":"$out","links":[{"attr":0,"data":42},{"attr":1,"data":66}]},{"id":61,"name":"$out","links":[{"attr":0,"data":36},{"attr":0,"data":66}]},{"id":62,"name":"$out","links":[{"attr":0,"data":37},{"attr":1,"data":63}]},{"id":63,"name":"phi","links":[{"attr":1,"data":55},{"attr":1,"data":62}]},{"id":64,"name":"phi","links":[{"attr":1,"data":57},{"attr":1,"data":56}]},{"id":65,"name":"phi","links":[{"attr":1,"data":59},{"attr":1,"data":58}]},{"id":66,"name":"phi","links":[{"attr":1,"data":61},{"attr":1,"data":60}]}],"membranes":[{"id":50,"name":"fork","atoms":[{"id":51,"name":"$in","links":[{"attr":0,"data":55},{"attr":0,"data":53}]},{"id":52,"name":"$in","links":[{"attr":0,"data":56},{"attr":0,"data":54}]},{"id":53,"name":"+","links":[{"attr":1,"data":51}]},{"id":54,"name":"-","links":[{"attr":1,"data":52}]}],"membranes":[]},{"id":45,"name":"fork","atoms":[{"id":46,"name":"$in","links":[{"attr":0,"data":57},{"attr":0,"data":48}]},{"id":47,"name":"$in","links":[{"attr":0,"data":58},{"attr":0,"data":49}]},{"id":48,"name":"+","links":[{"attr":1,"data":46}]},{"id":49,"name":"-","links":[{"attr":1,"data":47}]}],"membranes":[]},{"id":40,"name":"fork","atoms":[{"id":41,"name":"$in","links":[{"attr":0,"data":59},{"attr":0,"data":43}]},{"id":42,"name":"$in","links":[{"attr":0,"data":60},{"attr":0,"data":44}]},{"id":43,"name":"+","links":[{"attr":1,"data":41}]},{"id":44,"name":"-","links":[{"attr":1,"data":42}]}],"membranes":[]},{"id":35,"name":"fork","atoms":[{"id":36,"name":"$in","links":[{"attr":0,"data":61},{"attr":0,"data":38}]},{"id":37,"name":"$in","links":[{"attr":0,"data":62},{"attr":0,"data":39}]},{"id":38,"name":"+","links":[{"attr":1,"data":36}]},{"id":39,"name":"-","links":[{"attr":1,"data":37}]}],"membranes":[]}]}
Parent State ID Information
file:mc.c...func:mc_gen_successors...line:571
11
'# of States'(stored)    = 11.
'# of States'(end)       = 1.
'# of States'(conflicted)= 18.
