Succ number Information
file:mc.c...func:run_mc...line:84
1
Parent Graph Information
file:mc.c...func:run_mc...line:88
{"id":1,"name":"","atoms":[],"membranes":[]}
Child Graph Information
file:mc.c...func:run_mc...line:104
{"id":1,"name":"","atoms":[{"id":4,"name":".","links":[{"attr":128,"data":1},{"attr":0,"data":3},{"attr":1,"data":5}]},{"id":5,"name":".","links":[{"attr":128,"data":2},{"attr":2,"data":4},{"attr":1,"data":6}]},{"id":6,"name":".","links":[{"attr":128,"data":1},{"attr":2,"data":5},{"attr":0,"data":2}]},{"id":3,"name":"[]","links":[{"attr":1,"data":4}]},{"id":2,"name":"res","links":[{"attr":2,"data":6}]}],"membranes":[]}
Parent State ID Information
file:mc.c...func:run_mc...line:108
0
Child State ID Information
file:mc.c...func:run_mc...line:111
1
Succ number Information
file:mc.c...func:mc_gen_successors...line:519
1
Parent Graph Information
file:mc.c...func:mc_gen_successors...line:523
{"id":7,"name":"","atoms":[{"id":8,"name":".","links":[{"attr":128,"data":1},{"attr":2,"data":9},{"attr":0,"data":12}]},{"id":9,"name":".","links":[{"attr":128,"data":2},{"attr":2,"data":10},{"attr":1,"data":8}]},{"id":10,"name":".","links":[{"attr":128,"data":1},{"attr":0,"data":11},{"attr":1,"data":9}]},{"id":11,"name":"[]","links":[{"attr":1,"data":10}]},{"id":12,"name":"res","links":[{"attr":2,"data":8}]}],"membranes":[]}
Child Graph Information
file:mc.c...func:mc_gen_successors...line:540
{"id":7,"name":"","atoms":[{"id":8,"name":".","links":[{"attr":128,"data":1},{"attr":2,"data":14},{"attr":0,"data":12}]},{"id":13,"name":".","links":[{"attr":128,"data":2},{"attr":0,"data":11},{"attr":1,"data":14}]},{"id":14,"name":".","links":[{"attr":128,"data":1},{"attr":2,"data":13},{"attr":1,"data":8}]},{"id":11,"name":"[]","links":[{"attr":1,"data":13}]},{"id":12,"name":"res","links":[{"attr":2,"data":8}]}],"membranes":[]}
