Succ number Information
file:mc.c...func:run_mc...line:84
1
Parent Graph Information
file:mc.c...func:run_mc...line:88
{"id":1,"name":"","atoms":[],"membranes":[]}
Child Graph Information
file:mc.c...func:run_mc...line:104
{"id":1,"name":"","atoms":[{"id":4,"name":".","links":[{"attr":128,"data":8},{"attr":0,"data":3},{"attr":1,"data":5}]},{"id":5,"name":".","links":[{"attr":128,"data":2},{"attr":2,"data":4},{"attr":1,"data":6}]},{"id":6,"name":".","links":[{"attr":128,"data":9},{"attr":2,"data":5},{"attr":1,"data":7}]},{"id":7,"name":".","links":[{"attr":128,"data":4},{"attr":2,"data":6},{"attr":1,"data":8}]},{"id":8,"name":".","links":[{"attr":128,"data":10},{"attr":2,"data":7},{"attr":1,"data":9}]},{"id":9,"name":".","links":[{"attr":128,"data":5},{"attr":2,"data":8},{"attr":1,"data":10}]},{"id":10,"name":".","links":[{"attr":128,"data":6},{"attr":2,"data":9},{"attr":1,"data":11}]},{"id":11,"name":".","links":[{"attr":128,"data":7},{"attr":2,"data":10},{"attr":1,"data":12}]},{"id":12,"name":".","links":[{"attr":128,"data":1},{"attr":2,"data":11},{"attr":1,"data":13}]},{"id":13,"name":".","links":[{"attr":128,"data":3},{"attr":2,"data":12},{"attr":0,"data":2}]},{"id":3,"name":"[]","links":[{"attr":1,"data":4}]},{"id":2,"name":"res","links":[{"attr":2,"data":13}]}],"membranes":[]}
Parent State ID Information
file:mc.c...func:run_mc...line:108
0
Child State ID Information
file:mc.c...func:run_mc...line:111
1
Succ number Information
file:mc.c...func:mc_gen_successors...line:519
5
Parent Graph Information
file:mc.c...func:mc_gen_successors...line:523
{"id":14,"name":"","atoms":[{"id":15,"name":".","links":[{"attr":128,"data":3},{"attr":2,"data":16},{"attr":0,"data":26}]},{"id":16,"name":".","links":[{"attr":128,"data":1},{"attr":2,"data":17},{"attr":1,"data":15}]},{"id":17,"name":".","links":[{"attr":128,"data":7},{"attr":2,"data":18},{"attr":1,"data":16}]},{"id":18,"name":".","links":[{"attr":128,"data":6},{"attr":2,"data":19},{"attr":1,"data":17}]},{"id":19,"name":".","links":[{"attr":128,"data":5},{"attr":2,"data":20},{"attr":1,"data":18}]},{"id":20,"name":".","links":[{"attr":128,"data":10},{"attr":2,"data":21},{"attr":1,"data":19}]},{"id":21,"name":".","links":[{"attr":128,"data":4},{"attr":2,"data":22},{"attr":1,"data":20}]},{"id":22,"name":".","links":[{"attr":128,"data":9},{"attr":2,"data":23},{"attr":1,"data":21}]},{"id":23,"name":".","links":[{"attr":128,"data":2},{"attr":2,"data":24},{"attr":1,"data":22}]},{"id":24,"name":".","links":[{"attr":128,"data":8},{"attr":0,"data":25},{"attr":1,"data":23}]},{"id":25,"name":"[]","links":[{"attr":1,"data":24}]},{"id":26,"name":"res","links":[{"attr":2,"data":15}]}],"membranes":[]}
Child Graph Information
file:mc.c...func:mc_gen_successors...line:540
{"id":14,"name":"","atoms":[{"id":17,"name":".","links":[{"attr":128,"data":7},{"attr":2,"data":18},{"attr":1,"data":27}]},{"id":18,"name":".","links":[{"attr":128,"data":6},{"attr":2,"data":19},{"attr":1,"data":17}]},{"id":19,"name":".","links":[{"attr":128,"data":5},{"attr":2,"data":20},{"attr":1,"data":18}]},{"id":20,"name":".","links":[{"attr":128,"data":10},{"attr":2,"data":21},{"attr":1,"data":19}]},{"id":21,"name":".","links":[{"attr":128,"data":4},{"attr":2,"data":22},{"attr":1,"data":20}]},{"id":22,"name":".","links":[{"attr":128,"data":9},{"attr":2,"data":23},{"attr":1,"data":21}]},{"id":23,"name":".","links":[{"attr":128,"data":2},{"attr":2,"data":24},{"attr":1,"data":22}]},{"id":24,"name":".","links":[{"attr":128,"data":8},{"attr":0,"data":25},{"attr":1,"data":23}]},{"id":27,"name":".","links":[{"attr":128,"data":3},{"attr":2,"data":17},{"attr":1,"data":28}]},{"id":28,"name":".","links":[{"attr":128,"data":1},{"attr":2,"data":27},{"attr":0,"data":26}]},{"id":25,"name":"[]","links":[{"attr":1,"data":24}]},{"id":26,"name":"res","links":[{"attr":2,"data":28}]}],"membranes":[]}
