Succ number Information
file:mc.c...func:run_mc...line:84
1
Parent Graph Information
file:mc.c...func:run_mc...line:88
{"id":1,"name":"","atoms":[],"membranes":[]}
Child Graph Information
file:mc.c...func:run_mc...line:104
{"id":1,"name":"","atoms":[{"id":50,"name":"$out","links":[{"attr":0,"data":12},{"attr":0,"data":43}]},{"id":51,"name":"$out","links":[{"attr":0,"data":13},{"attr":1,"data":42}]},{"id":52,"name":"$out","links":[{"attr":0,"data":16},{"attr":1,"data":43}]},{"id":53,"name":"$out","links":[{"attr":0,"data":17},{"attr":0,"data":44}]},{"id":54,"name":"$out","links":[{"attr":0,"data":20},{"attr":1,"data":44}]},{"id":55,"name":"$out","links":[{"attr":0,"data":21},{"attr":0,"data":45}]},{"id":56,"name":"$out","links":[{"attr":0,"data":24},{"attr":1,"data":45}]},{"id":57,"name":"$out","links":[{"attr":0,"data":25},{"attr":0,"data":46}]},{"id":58,"name":"$out","links":[{"attr":0,"data":28},{"attr":1,"data":46}]},{"id":59,"name":"$out","links":[{"attr":0,"data":29},{"attr":0,"data":47}]},{"id":60,"name":"$out","links":[{"attr":0,"data":32},{"attr":1,"data":47}]},{"id":61,"name":"$out","links":[{"attr":0,"data":33},{"attr":0,"data":48}]},{"id":62,"name":"$out","links":[{"attr":0,"data":36},{"attr":1,"data":48}]},{"id":63,"name":"$out","links":[{"attr":0,"data":37},{"attr":0,"data":49}]},{"id":64,"name":"$out","links":[{"attr":0,"data":40},{"attr":0,"data":42}]},{"id":65,"name":"$out","links":[{"attr":0,"data":41},{"attr":1,"data":49}]},{"id":42,"name":"phi","links":[{"attr":1,"data":64},{"attr":1,"data":51}]},{"id":43,"name":"phi","links":[{"attr":1,"data":50},{"attr":1,"data":52}]},{"id":44,"name":"phi","links":[{"attr":1,"data":53},{"attr":1,"data":54}]},{"id":45,"name":"phi","links":[{"attr":1,"data":55},{"attr":1,"data":56}]},{"id":46,"name":"phi","links":[{"attr":1,"data":57},{"attr":1,"data":58}]},{"id":47,"name":"phi","links":[{"attr":1,"data":59},{"attr":1,"data":60}]},{"id":48,"name":"phi","links":[{"attr":1,"data":61},{"attr":1,"data":62}]},{"id":49,"name":"phi","links":[{"attr":1,"data":63},{"attr":1,"data":65}]}],"membranes":[{"id":9,"name":"fork","atoms":[{"id":40,"name":"$in","links":[{"attr":0,"data":64},{"attr":0,"data":39}]},{"id":41,"name":"$in","links":[{"attr":0,"data":65},{"attr":0,"data":38}]},{"id":38,"name":"+","links":[{"attr":1,"data":41}]},{"id":39,"name":"+","links":[{"attr":1,"data":40}]}],"membranes":[]},{"id":8,"name":"fork","atoms":[{"id":36,"name":"$in","links":[{"attr":0,"data":62},{"attr":0,"data":34}]},{"id":37,"name":"$in","links":[{"attr":0,"data":63},{"attr":0,"data":35}]},{"id":34,"name":"+","links":[{"attr":1,"data":36}]},{"id":35,"name":"+","links":[{"attr":1,"data":37}]}],"membranes":[]},{"id":7,"name":"fork","atoms":[{"id":32,"name":"$in","links":[{"attr":0,"data":60},{"attr":0,"data":30}]},{"id":33,"name":"$in","links":[{"attr":0,"data":61},{"attr":0,"data":31}]},{"id":30,"name":"+","links":[{"attr":1,"data":32}]},{"id":31,"name":"+","links":[{"attr":1,"data":33}]}],"membranes":[]},{"id":6,"name":"fork","atoms":[{"id":28,"name":"$in","links":[{"attr":0,"data":58},{"attr":0,"data":26}]},{"id":29,"name":"$in","links":[{"attr":0,"data":59},{"attr":0,"data":27}]},{"id":26,"name":"+","links":[{"attr":1,"data":28}]},{"id":27,"name":"+","links":[{"attr":1,"data":29}]}],"membranes":[]},{"id":5,"name":"fork","atoms":[{"id":24,"name":"$in","links":[{"attr":0,"data":56},{"attr":0,"data":22}]},{"id":25,"name":"$in","links":[{"attr":0,"data":57},{"attr":0,"data":23}]},{"id":22,"name":"+","links":[{"attr":1,"data":24}]},{"id":23,"name":"+","links":[{"attr":1,"data":25}]}],"membranes":[]},{"id":4,"name":"fork","atoms":[{"id":20,"name":"$in","links":[{"attr":0,"data":54},{"attr":0,"data":18}]},{"id":21,"name":"$in","links":[{"attr":0,"data":55},{"attr":0,"data":19}]},{"id":18,"name":"+","links":[{"attr":1,"data":20}]},{"id":19,"name":"+","links":[{"attr":1,"data":21}]}],"membranes":[]},{"id":3,"name":"fork","atoms":[{"id":16,"name":"$in","links":[{"attr":0,"data":52},{"attr":0,"data":14}]},{"id":17,"name":"$in","links":[{"attr":0,"data":53},{"attr":0,"data":15}]},{"id":14,"name":"+","links":[{"attr":1,"data":16}]},{"id":15,"name":"-","links":[{"attr":1,"data":17}]}],"membranes":[]},{"id":2,"name":"fork","atoms":[{"id":12,"name":"$in","links":[{"attr":0,"data":50},{"attr":0,"data":11}]},{"id":13,"name":"$in","links":[{"attr":0,"data":51},{"attr":0,"data":10}]},{"id":11,"name":"+","links":[{"attr":1,"data":12}]},{"id":10,"name":"-","links":[{"attr":1,"data":13}]}],"membranes":[]}]}
Parent State ID Information
file:mc.c...func:run_mc...line:108
0
Child State ID Information
file:mc.c...func:run_mc...line:111
1
Succ number Information
file:mc.c...func:mc_gen_successors...line:519
7
Parent Graph Information
file:mc.c...func:mc_gen_successors...line:523
{"id":66,"name":"","atoms":[{"id":107,"name":"$out","links":[{"attr":0,"data":103},{"attr":0,"data":123}]},{"id":108,"name":"$out","links":[{"attr":0,"data":104},{"attr":1,"data":124}]},{"id":109,"name":"$out","links":[{"attr":0,"data":98},{"attr":0,"data":124}]},{"id":110,"name":"$out","links":[{"attr":0,"data":99},{"attr":1,"data":125}]},{"id":111,"name":"$out","links":[{"attr":0,"data":93},{"attr":0,"data":125}]},{"id":112,"name":"$out","links":[{"attr":0,"data":94},{"attr":1,"data":126}]},{"id":113,"name":"$out","links":[{"attr":0,"data":88},{"attr":0,"data":126}]},{"id":114,"name":"$out","links":[{"attr":0,"data":89},{"attr":1,"data":127}]},{"id":115,"name":"$out","links":[{"attr":0,"data":83},{"attr":0,"data":127}]},{"id":116,"name":"$out","links":[{"attr":0,"data":84},{"attr":1,"data":128}]},{"id":117,"name":"$out","links":[{"attr":0,"data":78},{"attr":0,"data":128}]},{"id":118,"name":"$out","links":[{"attr":0,"data":79},{"attr":1,"data":129}]},{"id":119,"name":"$out","links":[{"attr":0,"data":73},{"attr":0,"data":129}]},{"id":120,"name":"$out","links":[{"attr":0,"data":74},{"attr":1,"data":130}]},{"id":121,"name":"$out","links":[{"attr":0,"data":68},{"attr":0,"data":130}]},{"id":122,"name":"$out","links":[{"attr":0,"data":69},{"attr":1,"data":123}]},{"id":123,"name":"phi","links":[{"attr":1,"data":107},{"attr":1,"data":122}]},{"id":124,"name":"phi","links":[{"attr":1,"data":109},{"attr":1,"data":108}]},{"id":125,"name":"phi","links":[{"attr":1,"data":111},{"attr":1,"data":110}]},{"id":126,"name":"phi","links":[{"attr":1,"data":113},{"attr":1,"data":112}]},{"id":127,"name":"phi","links":[{"attr":1,"data":115},{"attr":1,"data":114}]},{"id":128,"name":"phi","links":[{"attr":1,"data":117},{"attr":1,"data":116}]},{"id":129,"name":"phi","links":[{"attr":1,"data":119},{"attr":1,"data":118}]},{"id":130,"name":"phi","links":[{"attr":1,"data":121},{"attr":1,"data":120}]}],"membranes":[{"id":102,"name":"fork","atoms":[{"id":103,"name":"$in","links":[{"attr":0,"data":107},{"attr":0,"data":105}]},{"id":104,"name":"$in","links":[{"attr":0,"data":108},{"attr":0,"data":106}]},{"id":105,"name":"+","links":[{"attr":1,"data":103}]},{"id":106,"name":"+","links":[{"attr":1,"data":104}]}],"membranes":[]},{"id":97,"name":"fork","atoms":[{"id":98,"name":"$in","links":[{"attr":0,"data":109},{"attr":0,"data":100}]},{"id":99,"name":"$in","links":[{"attr":0,"data":110},{"attr":0,"data":101}]},{"id":100,"name":"+","links":[{"attr":1,"data":98}]},{"id":101,"name":"+","links":[{"attr":1,"data":99}]}],"membranes":[]},{"id":92,"name":"fork","atoms":[{"id":93,"name":"$in","links":[{"attr":0,"data":111},{"attr":0,"data":95}]},{"id":94,"name":"$in","links":[{"attr":0,"data":112},{"attr":0,"data":96}]},{"id":95,"name":"+","links":[{"attr":1,"data":93}]},{"id":96,"name":"+","links":[{"attr":1,"data":94}]}],"membranes":[]},{"id":87,"name":"fork","atoms":[{"id":88,"name":"$in","links":[{"attr":0,"data":113},{"attr":0,"data":90}]},{"id":89,"name":"$in","links":[{"attr":0,"data":114},{"attr":0,"data":91}]},{"id":90,"name":"+","links":[{"attr":1,"data":88}]},{"id":91,"name":"+","links":[{"attr":1,"data":89}]}],"membranes":[]},{"id":82,"name":"fork","atoms":[{"id":83,"name":"$in","links":[{"attr":0,"data":115},{"attr":0,"data":85}]},{"id":84,"name":"$in","links":[{"attr":0,"data":116},{"attr":0,"data":86}]},{"id":85,"name":"+","links":[{"attr":1,"data":83}]},{"id":86,"name":"+","links":[{"attr":1,"data":84}]}],"membranes":[]},{"id":77,"name":"fork","atoms":[{"id":78,"name":"$in","links":[{"attr":0,"data":117},{"attr":0,"data":80}]},{"id":79,"name":"$in","links":[{"attr":0,"data":118},{"attr":0,"data":81}]},{"id":80,"name":"+","links":[{"attr":1,"data":78}]},{"id":81,"name":"+","links":[{"attr":1,"data":79}]}],"membranes":[]},{"id":72,"name":"fork","atoms":[{"id":73,"name":"$in","links":[{"attr":0,"data":119},{"attr":0,"data":76}]},{"id":74,"name":"$in","links":[{"attr":0,"data":120},{"attr":0,"data":75}]},{"id":75,"name":"+","links":[{"attr":1,"data":74}]},{"id":76,"name":"-","links":[{"attr":1,"data":73}]}],"membranes":[]},{"id":67,"name":"fork","atoms":[{"id":68,"name":"$in","links":[{"attr":0,"data":121},{"attr":0,"data":70}]},{"id":69,"name":"$in","links":[{"attr":0,"data":122},{"attr":0,"data":71}]},{"id":70,"name":"+","links":[{"attr":1,"data":68}]},{"id":71,"name":"-","links":[{"attr":1,"data":69}]}],"membranes":[]}]}
Child Graph Information
file:mc.c...func:mc_gen_successors...line:540
{"id":66,"name":"","atoms":[{"id":109,"name":"$out","links":[{"attr":0,"data":98},{"attr":0,"data":124}]},{"id":110,"name":"$out","links":[{"attr":0,"data":99},{"attr":1,"data":125}]},{"id":111,"name":"$out","links":[{"attr":0,"data":93},{"attr":0,"data":125}]},{"id":112,"name":"$out","links":[{"attr":0,"data":94},{"attr":1,"data":126}]},{"id":113,"name":"$out","links":[{"attr":0,"data":88},{"attr":0,"data":126}]},{"id":114,"name":"$out","links":[{"attr":0,"data":89},{"attr":1,"data":127}]},{"id":115,"name":"$out","links":[{"attr":0,"data":83},{"attr":0,"data":127}]},{"id":116,"name":"$out","links":[{"attr":0,"data":84},{"attr":1,"data":128}]},{"id":117,"name":"$out","links":[{"attr":0,"data":78},{"attr":0,"data":128}]},{"id":118,"name":"$out","links":[{"attr":0,"data":79},{"attr":1,"data":129}]},{"id":119,"name":"$out","links":[{"attr":0,"data":73},{"attr":0,"data":129}]},{"id":120,"name":"$out","links":[{"attr":0,"data":74},{"attr":1,"data":130}]},{"id":121,"name":"$out","links":[{"attr":0,"data":68},{"attr":0,"data":130}]},{"id":122,"name":"$out","links":[{"attr":0,"data":69},{"attr":1,"data":135}]},{"id":136,"name":"$out","links":[{"attr":0,"data":133},{"attr":1,"data":124}]},{"id":137,"name":"$out","links":[{"attr":0,"data":134},{"attr":0,"data":135}]},{"id":124,"name":"phi","links":[{"attr":1,"data":109},{"attr":1,"data":136}]},{"id":125,"name":"phi","links":[{"attr":1,"data":111},{"attr":1,"data":110}]},{"id":126,"name":"phi","links":[{"attr":1,"data":113},{"attr":1,"data":112}]},{"id":127,"name":"phi","links":[{"attr":1,"data":115},{"attr":1,"data":114}]},{"id":128,"name":"phi","links":[{"attr":1,"data":117},{"attr":1,"data":116}]},{"id":129,"name":"phi","links":[{"attr":1,"data":119},{"attr":1,"data":118}]},{"id":130,"name":"phi","links":[{"attr":1,"data":121},{"attr":1,"data":120}]},{"id":135,"name":"phi","links":[{"attr":1,"data":137},{"attr":1,"data":122}]}],"membranes":[{"id":102,"name":"fork","atoms":[{"id":133,"name":"$in","links":[{"attr":0,"data":136},{"attr":0,"data":131}]},{"id":134,"name":"$in","links":[{"attr":0,"data":137},{"attr":0,"data":132}]},{"id":132,"name":"+","links":[{"attr":1,"data":134}]},{"id":131,"name":"-","links":[{"attr":1,"data":133}]}],"membranes":[]},{"id":97,"name":"fork","atoms":[{"id":98,"name":"$in","links":[{"attr":0,"data":109},{"attr":0,"data":100}]},{"id":99,"name":"$in","links":[{"attr":0,"data":110},{"attr":0,"data":101}]},{"id":100,"name":"+","links":[{"attr":1,"data":98}]},{"id":101,"name":"+","links":[{"attr":1,"data":99}]}],"membranes":[]},{"id":92,"name":"fork","atoms":[{"id":93,"name":"$in","links":[{"attr":0,"data":111},{"attr":0,"data":95}]},{"id":94,"name":"$in","links":[{"attr":0,"data":112},{"attr":0,"data":96}]},{"id":95,"name":"+","links":[{"attr":1,"data":93}]},{"id":96,"name":"+","links":[{"attr":1,"data":94}]}],"membranes":[]},{"id":87,"name":"fork","atoms":[{"id":88,"name":"$in","links":[{"attr":0,"data":113},{"attr":0,"data":90}]},{"id":89,"name":"$in","links":[{"attr":0,"data":114},{"attr":0,"data":91}]},{"id":90,"name":"+","links":[{"attr":1,"data":88}]},{"id":91,"name":"+","links":[{"attr":1,"data":89}]}],"membranes":[]},{"id":82,"name":"fork","atoms":[{"id":83,"name":"$in","links":[{"attr":0,"data":115},{"attr":0,"data":85}]},{"id":84,"name":"$in","links":[{"attr":0,"data":116},{"attr":0,"data":86}]},{"id":85,"name":"+","links":[{"attr":1,"data":83}]},{"id":86,"name":"+","links":[{"attr":1,"data":84}]}],"membranes":[]},{"id":77,"name":"fork","atoms":[{"id":78,"name":"$in","links":[{"attr":0,"data":117},{"attr":0,"data":80}]},{"id":79,"name":"$in","links":[{"attr":0,"data":118},{"attr":0,"data":81}]},{"id":80,"name":"+","links":[{"attr":1,"data":78}]},{"id":81,"name":"+","links":[{"attr":1,"data":79}]}],"membranes":[]},{"id":72,"name":"fork","atoms":[{"id":73,"name":"$in","links":[{"attr":0,"data":119},{"attr":0,"data":76}]},{"id":74,"name":"$in","links":[{"attr":0,"data":120},{"attr":0,"data":75}]},{"id":75,"name":"+","links":[{"attr":1,"data":74}]},{"id":76,"name":"-","links":[{"attr":1,"data":73}]}],"membranes":[]},{"id":67,"name":"fork","atoms":[{"id":68,"name":"$in","links":[{"attr":0,"data":121},{"attr":0,"data":70}]},{"id":69,"name":"$in","links":[{"attr":0,"data":122},{"attr":0,"data":71}]},{"id":70,"name":"+","links":[{"attr":1,"data":68}]},{"id":71,"name":"-","links":[{"attr":1,"data":69}]}],"membranes":[]}]}
