Succ number Information
file:mc.c...func:run_mc...line:84
1
Parent Graph Information
file:mc.c...func:run_mc...line:88
{"id":1,"name":"","atoms":[],"membranes":[]}
Child Graph Information
file:mc.c...func:run_mc...line:104
{"id":1,"name":"","atoms":[{"id":68,"name":"$out","links":[{"attr":0,"data":15},{"attr":0,"data":58}]},{"id":69,"name":"$out","links":[{"attr":0,"data":16},{"attr":1,"data":57}]},{"id":70,"name":"$out","links":[{"attr":0,"data":19},{"attr":1,"data":58}]},{"id":71,"name":"$out","links":[{"attr":0,"data":20},{"attr":0,"data":59}]},{"id":72,"name":"$out","links":[{"attr":0,"data":23},{"attr":1,"data":59}]},{"id":73,"name":"$out","links":[{"attr":0,"data":24},{"attr":0,"data":60}]},{"id":74,"name":"$out","links":[{"attr":0,"data":27},{"attr":1,"data":60}]},{"id":75,"name":"$out","links":[{"attr":0,"data":28},{"attr":0,"data":61}]},{"id":76,"name":"$out","links":[{"attr":0,"data":31},{"attr":1,"data":61}]},{"id":77,"name":"$out","links":[{"attr":0,"data":32},{"attr":0,"data":62}]},{"id":78,"name":"$out","links":[{"attr":0,"data":35},{"attr":1,"data":62}]},{"id":79,"name":"$out","links":[{"attr":0,"data":36},{"attr":0,"data":63}]},{"id":80,"name":"$out","links":[{"attr":0,"data":39},{"attr":1,"data":63}]},{"id":81,"name":"$out","links":[{"attr":0,"data":40},{"attr":0,"data":64}]},{"id":82,"name":"$out","links":[{"attr":0,"data":43},{"attr":1,"data":64}]},{"id":83,"name":"$out","links":[{"attr":0,"data":44},{"attr":0,"data":65}]},{"id":84,"name":"$out","links":[{"attr":0,"data":47},{"attr":1,"data":65}]},{"id":85,"name":"$out","links":[{"attr":0,"data":48},{"attr":0,"data":66}]},{"id":86,"name":"$out","links":[{"attr":0,"data":51},{"attr":1,"data":66}]},{"id":87,"name":"$out","links":[{"attr":0,"data":52},{"attr":0,"data":67}]},{"id":88,"name":"$out","links":[{"attr":0,"data":55},{"attr":1,"data":67}]},{"id":89,"name":"$out","links":[{"attr":0,"data":56},{"attr":0,"data":57}]},{"id":57,"name":"phi","links":[{"attr":1,"data":89},{"attr":1,"data":69}]},{"id":58,"name":"phi","links":[{"attr":1,"data":68},{"attr":1,"data":70}]},{"id":59,"name":"phi","links":[{"attr":1,"data":71},{"attr":1,"data":72}]},{"id":60,"name":"phi","links":[{"attr":1,"data":73},{"attr":1,"data":74}]},{"id":61,"name":"phi","links":[{"attr":1,"data":75},{"attr":1,"data":76}]},{"id":62,"name":"phi","links":[{"attr":1,"data":77},{"attr":1,"data":78}]},{"id":63,"name":"phi","links":[{"attr":1,"data":79},{"attr":1,"data":80}]},{"id":64,"name":"phi","links":[{"attr":1,"data":81},{"attr":1,"data":82}]},{"id":65,"name":"phi","links":[{"attr":1,"data":83},{"attr":1,"data":84}]},{"id":66,"name":"phi","links":[{"attr":1,"data":85},{"attr":1,"data":86}]},{"id":67,"name":"phi","links":[{"attr":1,"data":87},{"attr":1,"data":88}]}],"membranes":[{"id":12,"name":"fork","atoms":[{"id":55,"name":"$in","links":[{"attr":0,"data":88},{"attr":0,"data":53}]},{"id":56,"name":"$in","links":[{"attr":0,"data":89},{"attr":0,"data":54}]},{"id":53,"name":"+","links":[{"attr":1,"data":55}]},{"id":54,"name":"+","links":[{"attr":1,"data":56}]}],"membranes":[]},{"id":11,"name":"fork","atoms":[{"id":51,"name":"$in","links":[{"attr":0,"data":86},{"attr":0,"data":49}]},{"id":52,"name":"$in","links":[{"attr":0,"data":87},{"attr":0,"data":50}]},{"id":49,"name":"+","links":[{"attr":1,"data":51}]},{"id":50,"name":"+","links":[{"attr":1,"data":52}]}],"membranes":[]},{"id":10,"name":"fork","atoms":[{"id":47,"name":"$in","links":[{"attr":0,"data":84},{"attr":0,"data":45}]},{"id":48,"name":"$in","links":[{"attr":0,"data":85},{"attr":0,"data":46}]},{"id":45,"name":"+","links":[{"attr":1,"data":47}]},{"id":46,"name":"+","links":[{"attr":1,"data":48}]}],"membranes":[]},{"id":9,"name":"fork","atoms":[{"id":43,"name":"$in","links":[{"attr":0,"data":82},{"attr":0,"data":41}]},{"id":44,"name":"$in","links":[{"attr":0,"data":83},{"attr":0,"data":42}]},{"id":41,"name":"+","links":[{"attr":1,"data":43}]},{"id":42,"name":"+","links":[{"attr":1,"data":44}]}],"membranes":[]},{"id":8,"name":"fork","atoms":[{"id":39,"name":"$in","links":[{"attr":0,"data":80},{"attr":0,"data":37}]},{"id":40,"name":"$in","links":[{"attr":0,"data":81},{"attr":0,"data":38}]},{"id":37,"name":"+","links":[{"attr":1,"data":39}]},{"id":38,"name":"+","links":[{"attr":1,"data":40}]}],"membranes":[]},{"id":7,"name":"fork","atoms":[{"id":35,"name":"$in","links":[{"attr":0,"data":78},{"attr":0,"data":33}]},{"id":36,"name":"$in","links":[{"attr":0,"data":79},{"attr":0,"data":34}]},{"id":33,"name":"+","links":[{"attr":1,"data":35}]},{"id":34,"name":"+","links":[{"attr":1,"data":36}]}],"membranes":[]},{"id":6,"name":"fork","atoms":[{"id":31,"name":"$in","links":[{"attr":0,"data":76},{"attr":0,"data":29}]},{"id":32,"name":"$in","links":[{"attr":0,"data":77},{"attr":0,"data":30}]},{"id":29,"name":"+","links":[{"attr":1,"data":31}]},{"id":30,"name":"+","links":[{"attr":1,"data":32}]}],"membranes":[]},{"id":5,"name":"fork","atoms":[{"id":27,"name":"$in","links":[{"attr":0,"data":74},{"attr":0,"data":25}]},{"id":28,"name":"$in","links":[{"attr":0,"data":75},{"attr":0,"data":26}]},{"id":25,"name":"+","links":[{"attr":1,"data":27}]},{"id":26,"name":"+","links":[{"attr":1,"data":28}]}],"membranes":[]},{"id":4,"name":"fork","atoms":[{"id":23,"name":"$in","links":[{"attr":0,"data":72},{"attr":0,"data":21}]},{"id":24,"name":"$in","links":[{"attr":0,"data":73},{"attr":0,"data":22}]},{"id":21,"name":"+","links":[{"attr":1,"data":23}]},{"id":22,"name":"+","links":[{"attr":1,"data":24}]}],"membranes":[]},{"id":3,"name":"fork","atoms":[{"id":19,"name":"$in","links":[{"attr":0,"data":70},{"attr":0,"data":17}]},{"id":20,"name":"$in","links":[{"attr":0,"data":71},{"attr":0,"data":18}]},{"id":17,"name":"+","links":[{"attr":1,"data":19}]},{"id":18,"name":"+","links":[{"attr":1,"data":20}]}],"membranes":[]},{"id":2,"name":"fork","atoms":[{"id":15,"name":"$in","links":[{"attr":0,"data":68},{"attr":0,"data":14}]},{"id":16,"name":"$in","links":[{"attr":0,"data":69},{"attr":0,"data":13}]},{"id":13,"name":"+","links":[{"attr":1,"data":16}]},{"id":14,"name":"+","links":[{"attr":1,"data":15}]}],"membranes":[]}]}
Parent State ID Information
file:mc.c...func:run_mc...line:108
0
Child State ID Information
file:mc.c...func:run_mc...line:111
1
Succ number Information
file:mc.c...func:mc_gen_successors...line:519
11
Parent Graph Information
file:mc.c...func:mc_gen_successors...line:523
{"id":90,"name":"","atoms":[{"id":146,"name":"$out","links":[{"attr":0,"data":142},{"attr":0,"data":168}]},{"id":147,"name":"$out","links":[{"attr":0,"data":143},{"attr":1,"data":169}]},{"id":148,"name":"$out","links":[{"attr":0,"data":137},{"attr":0,"data":169}]},{"id":149,"name":"$out","links":[{"attr":0,"data":138},{"attr":1,"data":170}]},{"id":150,"name":"$out","links":[{"attr":0,"data":132},{"attr":0,"data":170}]},{"id":151,"name":"$out","links":[{"attr":0,"data":133},{"attr":1,"data":171}]},{"id":152,"name":"$out","links":[{"attr":0,"data":127},{"attr":0,"data":171}]},{"id":153,"name":"$out","links":[{"attr":0,"data":128},{"attr":1,"data":172}]},{"id":154,"name":"$out","links":[{"attr":0,"data":122},{"attr":0,"data":172}]},{"id":155,"name":"$out","links":[{"attr":0,"data":123},{"attr":1,"data":173}]},{"id":156,"name":"$out","links":[{"attr":0,"data":117},{"attr":0,"data":173}]},{"id":157,"name":"$out","links":[{"attr":0,"data":118},{"attr":1,"data":174}]},{"id":158,"name":"$out","links":[{"attr":0,"data":112},{"attr":0,"data":174}]},{"id":159,"name":"$out","links":[{"attr":0,"data":113},{"attr":1,"data":175}]},{"id":160,"name":"$out","links":[{"attr":0,"data":107},{"attr":0,"data":175}]},{"id":161,"name":"$out","links":[{"attr":0,"data":108},{"attr":1,"data":176}]},{"id":162,"name":"$out","links":[{"attr":0,"data":102},{"attr":0,"data":176}]},{"id":163,"name":"$out","links":[{"attr":0,"data":103},{"attr":1,"data":177}]},{"id":164,"name":"$out","links":[{"attr":0,"data":97},{"attr":0,"data":177}]},{"id":165,"name":"$out","links":[{"attr":0,"data":98},{"attr":1,"data":178}]},{"id":166,"name":"$out","links":[{"attr":0,"data":92},{"attr":0,"data":178}]},{"id":167,"name":"$out","links":[{"attr":0,"data":93},{"attr":1,"data":168}]},{"id":168,"name":"phi","links":[{"attr":1,"data":146},{"attr":1,"data":167}]},{"id":169,"name":"phi","links":[{"attr":1,"data":148},{"attr":1,"data":147}]},{"id":170,"name":"phi","links":[{"attr":1,"data":150},{"attr":1,"data":149}]},{"id":171,"name":"phi","links":[{"attr":1,"data":152},{"attr":1,"data":151}]},{"id":172,"name":"phi","links":[{"attr":1,"data":154},{"attr":1,"data":153}]},{"id":173,"name":"phi","links":[{"attr":1,"data":156},{"attr":1,"data":155}]},{"id":174,"name":"phi","links":[{"attr":1,"data":158},{"attr":1,"data":157}]},{"id":175,"name":"phi","links":[{"attr":1,"data":160},{"attr":1,"data":159}]},{"id":176,"name":"phi","links":[{"attr":1,"data":162},{"attr":1,"data":161}]},{"id":177,"name":"phi","links":[{"attr":1,"data":164},{"attr":1,"data":163}]},{"id":178,"name":"phi","links":[{"attr":1,"data":166},{"attr":1,"data":165}]}],"membranes":[{"id":141,"name":"fork","atoms":[{"id":142,"name":"$in","links":[{"attr":0,"data":146},{"attr":0,"data":144}]},{"id":143,"name":"$in","links":[{"attr":0,"data":147},{"attr":0,"data":145}]},{"id":144,"name":"+","links":[{"attr":1,"data":142}]},{"id":145,"name":"+","links":[{"attr":1,"data":143}]}],"membranes":[]},{"id":136,"name":"fork","atoms":[{"id":137,"name":"$in","links":[{"attr":0,"data":148},{"attr":0,"data":139}]},{"id":138,"name":"$in","links":[{"attr":0,"data":149},{"attr":0,"data":140}]},{"id":139,"name":"+","links":[{"attr":1,"data":137}]},{"id":140,"name":"+","links":[{"attr":1,"data":138}]}],"membranes":[]},{"id":131,"name":"fork","atoms":[{"id":132,"name":"$in","links":[{"attr":0,"data":150},{"attr":0,"data":134}]},{"id":133,"name":"$in","links":[{"attr":0,"data":151},{"attr":0,"data":135}]},{"id":134,"name":"+","links":[{"attr":1,"data":132}]},{"id":135,"name":"+","links":[{"attr":1,"data":133}]}],"membranes":[]},{"id":126,"name":"fork","atoms":[{"id":127,"name":"$in","links":[{"attr":0,"data":152},{"attr":0,"data":129}]},{"id":128,"name":"$in","links":[{"attr":0,"data":153},{"attr":0,"data":130}]},{"id":129,"name":"+","links":[{"attr":1,"data":127}]},{"id":130,"name":"+","links":[{"attr":1,"data":128}]}],"membranes":[]},{"id":121,"name":"fork","atoms":[{"id":122,"name":"$in","links":[{"attr":0,"data":154},{"attr":0,"data":124}]},{"id":123,"name":"$in","links":[{"attr":0,"data":155},{"attr":0,"data":125}]},{"id":124,"name":"+","links":[{"attr":1,"data":122}]},{"id":125,"name":"+","links":[{"attr":1,"data":123}]}],"membranes":[]},{"id":116,"name":"fork","atoms":[{"id":117,"name":"$in","links":[{"attr":0,"data":156},{"attr":0,"data":119}]},{"id":118,"name":"$in","links":[{"attr":0,"data":157},{"attr":0,"data":120}]},{"id":119,"name":"+","links":[{"attr":1,"data":117}]},{"id":120,"name":"+","links":[{"attr":1,"data":118}]}],"membranes":[]},{"id":111,"name":"fork","atoms":[{"id":112,"name":"$in","links":[{"attr":0,"data":158},{"attr":0,"data":114}]},{"id":113,"name":"$in","links":[{"attr":0,"data":159},{"attr":0,"data":115}]},{"id":114,"name":"+","links":[{"attr":1,"data":112}]},{"id":115,"name":"+","links":[{"attr":1,"data":113}]}],"membranes":[]},{"id":106,"name":"fork","atoms":[{"id":107,"name":"$in","links":[{"attr":0,"data":160},{"attr":0,"data":109}]},{"id":108,"name":"$in","links":[{"attr":0,"data":161},{"attr":0,"data":110}]},{"id":109,"name":"+","links":[{"attr":1,"data":107}]},{"id":110,"name":"+","links":[{"attr":1,"data":108}]}],"membranes":[]},{"id":101,"name":"fork","atoms":[{"id":102,"name":"$in","links":[{"attr":0,"data":162},{"attr":0,"data":104}]},{"id":103,"name":"$in","links":[{"attr":0,"data":163},{"attr":0,"data":105}]},{"id":104,"name":"+","links":[{"attr":1,"data":102}]},{"id":105,"name":"+","links":[{"attr":1,"data":103}]}],"membranes":[]},{"id":96,"name":"fork","atoms":[{"id":97,"name":"$in","links":[{"attr":0,"data":164},{"attr":0,"data":99}]},{"id":98,"name":"$in","links":[{"attr":0,"data":165},{"attr":0,"data":100}]},{"id":99,"name":"+","links":[{"attr":1,"data":97}]},{"id":100,"name":"+","links":[{"attr":1,"data":98}]}],"membranes":[]},{"id":91,"name":"fork","atoms":[{"id":92,"name":"$in","links":[{"attr":0,"data":166},{"attr":0,"data":94}]},{"id":93,"name":"$in","links":[{"attr":0,"data":167},{"attr":0,"data":95}]},{"id":94,"name":"+","links":[{"attr":1,"data":92}]},{"id":95,"name":"+","links":[{"attr":1,"data":93}]}],"membranes":[]}]}
Child Graph Information
file:mc.c...func:mc_gen_successors...line:540
{"id":90,"name":"","atoms":[{"id":148,"name":"$out","links":[{"attr":0,"data":137},{"attr":0,"data":169}]},{"id":149,"name":"$out","links":[{"attr":0,"data":138},{"attr":1,"data":170}]},{"id":150,"name":"$out","links":[{"attr":0,"data":132},{"attr":0,"data":170}]},{"id":151,"name":"$out","links":[{"attr":0,"data":133},{"attr":1,"data":171}]},{"id":152,"name":"$out","links":[{"attr":0,"data":127},{"attr":0,"data":171}]},{"id":153,"name":"$out","links":[{"attr":0,"data":128},{"attr":1,"data":172}]},{"id":154,"name":"$out","links":[{"attr":0,"data":122},{"attr":0,"data":172}]},{"id":155,"name":"$out","links":[{"attr":0,"data":123},{"attr":1,"data":173}]},{"id":156,"name":"$out","links":[{"attr":0,"data":117},{"attr":0,"data":173}]},{"id":157,"name":"$out","links":[{"attr":0,"data":118},{"attr":1,"data":174}]},{"id":158,"name":"$out","links":[{"attr":0,"data":112},{"attr":0,"data":174}]},{"id":159,"name":"$out","links":[{"attr":0,"data":113},{"attr":1,"data":175}]},{"id":160,"name":"$out","links":[{"attr":0,"data":107},{"attr":0,"data":175}]},{"id":161,"name":"$out","links":[{"attr":0,"data":108},{"attr":1,"data":176}]},{"id":162,"name":"$out","links":[{"attr":0,"data":102},{"attr":0,"data":176}]},{"id":163,"name":"$out","links":[{"attr":0,"data":103},{"attr":1,"data":177}]},{"id":164,"name":"$out","links":[{"attr":0,"data":97},{"attr":0,"data":177}]},{"id":165,"name":"$out","links":[{"attr":0,"data":98},{"attr":1,"data":178}]},{"id":166,"name":"$out","links":[{"attr":0,"data":92},{"attr":0,"data":178}]},{"id":167,"name":"$out","links":[{"attr":0,"data":93},{"attr":1,"data":183}]},{"id":184,"name":"$out","links":[{"attr":0,"data":181},{"attr":1,"data":169}]},{"id":185,"name":"$out","links":[{"attr":0,"data":182},{"attr":0,"data":183}]},{"id":169,"name":"phi","links":[{"attr":1,"data":148},{"attr":1,"data":184}]},{"id":170,"name":"phi","links":[{"attr":1,"data":150},{"attr":1,"data":149}]},{"id":171,"name":"phi","links":[{"attr":1,"data":152},{"attr":1,"data":151}]},{"id":172,"name":"phi","links":[{"attr":1,"data":154},{"attr":1,"data":153}]},{"id":173,"name":"phi","links":[{"attr":1,"data":156},{"attr":1,"data":155}]},{"id":174,"name":"phi","links":[{"attr":1,"data":158},{"attr":1,"data":157}]},{"id":175,"name":"phi","links":[{"attr":1,"data":160},{"attr":1,"data":159}]},{"id":176,"name":"phi","links":[{"attr":1,"data":162},{"attr":1,"data":161}]},{"id":177,"name":"phi","links":[{"attr":1,"data":164},{"attr":1,"data":163}]},{"id":178,"name":"phi","links":[{"attr":1,"data":166},{"attr":1,"data":165}]},{"id":183,"name":"phi","links":[{"attr":1,"data":185},{"attr":1,"data":167}]}],"membranes":[{"id":141,"name":"fork","atoms":[{"id":181,"name":"$in","links":[{"attr":0,"data":184},{"attr":0,"data":179}]},{"id":182,"name":"$in","links":[{"attr":0,"data":185},{"attr":0,"data":180}]},{"id":180,"name":"+","links":[{"attr":1,"data":182}]},{"id":179,"name":"-","links":[{"attr":1,"data":181}]}],"membranes":[]},{"id":136,"name":"fork","atoms":[{"id":137,"name":"$in","links":[{"attr":0,"data":148},{"attr":0,"data":139}]},{"id":138,"name":"$in","links":[{"attr":0,"data":149},{"attr":0,"data":140}]},{"id":139,"name":"+","links":[{"attr":1,"data":137}]},{"id":140,"name":"+","links":[{"attr":1,"data":138}]}],"membranes":[]},{"id":131,"name":"fork","atoms":[{"id":132,"name":"$in","links":[{"attr":0,"data":150},{"attr":0,"data":134}]},{"id":133,"name":"$in","links":[{"attr":0,"data":151},{"attr":0,"data":135}]},{"id":134,"name":"+","links":[{"attr":1,"data":132}]},{"id":135,"name":"+","links":[{"attr":1,"data":133}]}],"membranes":[]},{"id":126,"name":"fork","atoms":[{"id":127,"name":"$in","links":[{"attr":0,"data":152},{"attr":0,"data":129}]},{"id":128,"name":"$in","links":[{"attr":0,"data":153},{"attr":0,"data":130}]},{"id":129,"name":"+","links":[{"attr":1,"data":127}]},{"id":130,"name":"+","links":[{"attr":1,"data":128}]}],"membranes":[]},{"id":121,"name":"fork","atoms":[{"id":122,"name":"$in","links":[{"attr":0,"data":154},{"attr":0,"data":124}]},{"id":123,"name":"$in","links":[{"attr":0,"data":155},{"attr":0,"data":125}]},{"id":124,"name":"+","links":[{"attr":1,"data":122}]},{"id":125,"name":"+","links":[{"attr":1,"data":123}]}],"membranes":[]},{"id":116,"name":"fork","atoms":[{"id":117,"name":"$in","links":[{"attr":0,"data":156},{"attr":0,"data":119}]},{"id":118,"name":"$in","links":[{"attr":0,"data":157},{"attr":0,"data":120}]},{"id":119,"name":"+","links":[{"attr":1,"data":117}]},{"id":120,"name":"+","links":[{"attr":1,"data":118}]}],"membranes":[]},{"id":111,"name":"fork","atoms":[{"id":112,"name":"$in","links":[{"attr":0,"data":158},{"attr":0,"data":114}]},{"id":113,"name":"$in","links":[{"attr":0,"data":159},{"attr":0,"data":115}]},{"id":114,"name":"+","links":[{"attr":1,"data":112}]},{"id":115,"name":"+","links":[{"attr":1,"data":113}]}],"membranes":[]},{"id":106,"name":"fork","atoms":[{"id":107,"name":"$in","links":[{"attr":0,"data":160},{"attr":0,"data":109}]},{"id":108,"name":"$in","links":[{"attr":0,"data":161},{"attr":0,"data":110}]},{"id":109,"name":"+","links":[{"attr":1,"data":107}]},{"id":110,"name":"+","links":[{"attr":1,"data":108}]}],"membranes":[]},{"id":101,"name":"fork","atoms":[{"id":102,"name":"$in","links":[{"attr":0,"data":162},{"attr":0,"data":104}]},{"id":103,"name":"$in","links":[{"attr":0,"data":163},{"attr":0,"data":105}]},{"id":104,"name":"+","links":[{"attr":1,"data":102}]},{"id":105,"name":"+","links":[{"attr":1,"data":103}]}],"membranes":[]},{"id":96,"name":"fork","atoms":[{"id":97,"name":"$in","links":[{"attr":0,"data":164},{"attr":0,"data":99}]},{"id":98,"name":"$in","links":[{"attr":0,"data":165},{"attr":0,"data":100}]},{"id":99,"name":"+","links":[{"attr":1,"data":97}]},{"id":100,"name":"+","links":[{"attr":1,"data":98}]}],"membranes":[]},{"id":91,"name":"fork","atoms":[{"id":92,"name":"$in","links":[{"attr":0,"data":166},{"attr":0,"data":94}]},{"id":93,"name":"$in","links":[{"attr":0,"data":167},{"attr":0,"data":95}]},{"id":94,"name":"+","links":[{"attr":1,"data":92}]},{"id":95,"name":"+","links":[{"attr":1,"data":93}]}],"membranes":[]}]}
